<svg width="23" height="23" viewBox="0 0 23 23" fill="none" xmlns="http://www.w3.org/2000/svg">
<path fill-rule="evenodd" clip-rule="evenodd" d="M11.5 23C17.8513 23 23 17.8513 23 11.5C23 5.14873 17.8513 0 11.5 0C5.14873 0 0 5.14873 0 11.5C0 17.8513 5.14873 23 11.5 23Z" fill="#15BCBE"/>
<path fill-rule="evenodd" clip-rule="evenodd" d="M5 6V7.2H6.2L8.36 11.76L7.52 13.2C7.46 13.38 7.4 13.62 7.4 13.8C7.4 14.46 7.94 15 8.6 15H15.8V13.8H8.84C8.78 13.8 8.72 13.74 8.72 13.68V13.62L9.26 12.6H13.7C14.18 12.6 14.54 12.36 14.72 12L16.88 8.1C17 7.98 17 7.92 17 7.8C17 7.44 16.76 7.2 16.4 7.2H7.52L6.98 6H5ZM8.6 15.6C7.94 15.6 7.4 16.14 7.4 16.8C7.4 17.46 7.94 18 8.6 18C9.26 18 9.8 17.46 9.8 16.8C9.8 16.14 9.26 15.6 8.6 15.6ZM13.4 16.8C13.4 16.14 13.94 15.6 14.6 15.6C15.26 15.6 15.8 16.14 15.8 16.8C15.8 17.46 15.26 18 14.6 18C13.94 18 13.4 17.46 13.4 16.8Z" fill="white"/>
</svg>
