<svg width="14" height="14" viewBox="0 0 14 14" fill="none" xmlns="http://www.w3.org/2000/svg">
<g id="25436">
<path id="Shape" fill-rule="evenodd" clip-rule="evenodd" d="M13.7938 3.83481C13.6562 3.69737 13.4894 3.62859 13.293 3.62859H10.2285C9.93399 3.62859 9.61959 3.72679 9.28576 3.92323V1.50723C9.28576 1.31074 9.21708 1.14366 9.07951 1.00627C8.94195 0.868786 8.77507 0.800003 8.57853 0.800003H5.51432C5.31788 0.800003 5.10178 0.849101 4.86609 0.94727C4.63038 1.04546 4.44379 1.16337 4.30623 1.30089L1.30087 4.30626C1.16336 4.44374 1.04545 4.63038 0.947255 4.86606C0.849085 5.10185 0.799988 5.3178 0.799988 5.51432V10.4643C0.799988 10.6608 0.868694 10.8279 1.00618 10.9652C1.1437 11.1028 1.3107 11.1715 1.50707 11.1715H5.51429V13.293C5.51429 13.4893 5.58297 13.6564 5.72049 13.7938C5.85793 13.9313 6.02493 14 6.22137 14H13.293C13.4893 14 13.6564 13.9313 13.7937 13.7938C13.9313 13.6564 14 13.4893 14 13.293V4.3358C14 4.13935 13.9314 3.97233 13.7938 3.83481ZM9.28576 5.1976V7.39999H7.0833L9.28576 5.1976ZM4.5714 4.57138V2.36898L2.369 4.57138H4.5714ZM6.0152 7.13482C5.87769 7.27233 5.75978 7.45897 5.66159 7.6947C5.56342 7.93054 5.51432 8.14641 5.51432 8.34296V10.2285H1.74291V5.51432H4.80709C5.00358 5.51432 5.17053 5.44559 5.30805 5.30807C5.44548 5.17056 5.51429 5.0036 5.51429 4.80724V1.74292H8.34294V4.80721L6.0152 7.13482ZM6.45701 13.0572H13.0569V4.5714H10.2284V7.63575C10.2284 7.83217 10.1597 7.99914 10.0222 8.13653C9.88474 8.2741 9.71786 8.34278 9.52142 8.34278H6.45701V13.0572Z" fill="white"/>
</g>
</svg>
