<svg width="18" height="19" viewBox="0 0 18 19" fill="none" xmlns="http://www.w3.org/2000/svg">
<path fill-rule="evenodd" clip-rule="evenodd" d="M16.5941 2.7124C16.9683 2.7124 17.2925 2.84662 17.5657 3.11504C17.8391 3.38345 17.9757 3.70125 17.9758 4.06863V17.6304C17.9758 17.9974 17.839 18.3154 17.5654 18.5839C17.2922 18.8522 16.968 18.9865 16.5938 18.9865H1.39253C1.01812 18.9865 0.694271 18.8522 0.420792 18.5839C0.147275 18.3153 0.010498 17.9974 0.010498 17.6304V4.06867C0.010498 3.7014 0.147275 3.38345 0.420792 3.11507C0.694309 2.84666 1.01816 2.71244 1.39253 2.71244H2.77437V1.69527C2.77437 1.22917 2.94363 0.830025 3.28188 0.498082C3.62022 0.166064 4.02692 0 4.50195 0H5.19287C5.66802 0 6.07468 0.166064 6.41294 0.498082C6.75127 0.830063 6.92049 1.22917 6.92049 1.69527V2.71244H11.0662V1.69527C11.0662 1.22917 11.2353 0.830025 11.5737 0.498082C11.912 0.166064 12.3186 0 12.7938 0H13.4846C13.9598 0 14.3663 0.166064 14.7047 0.498045C15.043 0.830025 15.2123 1.22914 15.2123 1.69523V2.7124H16.5941ZM12.5451 1.45168C12.4804 1.5151 12.4483 1.59641 12.4483 1.69538V4.74666C12.4483 4.84559 12.4804 4.92671 12.5451 4.99036C12.6098 5.05393 12.6926 5.08565 12.7936 5.08565H13.4844C13.5853 5.08565 13.6678 5.05378 13.7328 4.99036C13.7976 4.92675 13.8299 4.84559 13.8299 4.74666V1.69538C13.8299 1.59652 13.7976 1.51521 13.7328 1.45168C13.6679 1.38808 13.5853 1.35638 13.4844 1.35638H12.7936C12.6926 1.35638 12.6098 1.38819 12.5451 1.45168ZM4.15651 1.69538C4.15651 1.59641 4.18884 1.5151 4.25362 1.45168C4.31844 1.38819 4.40114 1.35638 4.50195 1.35638H5.19287C5.29373 1.35638 5.37658 1.38808 5.4412 1.45168C5.50591 1.51521 5.53839 1.59652 5.53839 1.69538V4.74666C5.53839 4.84559 5.50606 4.92686 5.4412 4.99036C5.37643 5.05378 5.29373 5.08565 5.19287 5.08565H4.50195C4.40114 5.08565 4.31832 5.05393 4.25362 4.99036C4.18899 4.92671 4.15651 4.84559 4.15651 4.74666V1.69538ZM1.39253 17.6302H16.5938V6.78092H1.39253V17.6302Z" fill="black"/>
</svg>
