<svg width="101" height="101" viewBox="0 0 101 101" fill="none" xmlns="http://www.w3.org/2000/svg">
<path fill-rule="evenodd" clip-rule="evenodd" d="M50.5 101C78.3904 101 101 78.3904 101 50.5C101 22.6096 78.3904 0 50.5 0C22.6096 0 0 22.6096 0 50.5C0 78.3904 22.6096 101 50.5 101Z" fill="#02CED1" fill-opacity="0.121971"/>
<path fill-rule="evenodd" clip-rule="evenodd" d="M50.5 80.5595C67.1014 80.5595 80.5595 67.1014 80.5595 50.5C80.5595 33.8985 67.1014 20.4404 50.5 20.4404C33.8985 20.4404 20.4404 33.8985 20.4404 50.5C20.4404 67.1014 33.8985 80.5595 50.5 80.5595Z" fill="#02CED1" fill-opacity="0.315557"/>
<path fill-rule="evenodd" clip-rule="evenodd" d="M66.0803 46.5806C66.0978 46.6199 66.1079 46.6882 66.108 46.7334L66.1309 63.3945C66.1315 63.8196 65.7872 64.1648 65.3622 64.1654L36.8652 64.2045H36.8642C36.6603 64.2045 36.4648 64.1238 36.3205 63.9799C36.176 63.8357 36.0947 63.64 36.0944 63.4359L36.0714 46.7484C36.0714 46.7457 36.0717 46.7432 36.0721 46.7407L36.0726 46.7349C36.0763 46.4946 36.1914 46.2596 36.4041 46.1126L40.7279 43.1242V39.9554C40.7279 39.5304 41.0726 39.1856 41.4977 39.1856H46.4264L50.6657 36.2558C50.9297 36.0733 51.2792 36.0741 51.5425 36.2573L55.7545 39.1856H60.7049C61.13 39.1856 61.4747 39.5304 61.4747 39.9554V43.1619L65.7777 46.1531C65.9314 46.2599 66.0341 46.413 66.0803 46.5806ZM63.9345 46.7466L61.4746 45.0371V48.4567L63.9345 46.7466ZM51.1021 37.8261L53.0577 39.1856H49.1352L51.1021 37.8261ZM59.935 40.7252H42.2675V49.5612L48.2049 53.6646L50.6409 51.775C50.9215 51.5574 51.3038 51.5648 51.5741 51.7676L51.5785 51.7706L51.5825 51.7734L51.5847 51.775L54.0032 53.651L59.935 49.5271V40.7252ZM40.7279 44.9957V48.4972L38.1948 46.7465L40.7279 44.9957ZM46.9285 54.6546L37.613 48.2168L37.6318 61.8656L46.9285 54.6546ZM39.117 62.6619L51.1129 53.3573L63.0657 62.6289L39.117 62.6619ZM64.5704 48.1796L55.278 54.6399L64.5892 61.8625L64.5704 48.1796Z" fill="#00A5A7"/>
<path d="M56.3128 43.8044H45.8897C45.4646 43.8044 45.1199 44.1492 45.1199 44.5742C45.1199 44.9993 45.4646 45.3441 45.8897 45.3441H56.3128C56.738 45.3441 57.0826 44.9993 57.0826 44.5742C57.0826 44.1492 56.738 43.8044 56.3128 43.8044Z" fill="#00A5A7"/>
<path d="M56.3128 47.8074H45.8897C45.4646 47.8074 45.1199 48.1521 45.1199 48.5772C45.1199 49.0022 45.4646 49.347 45.8897 49.347H56.3128C56.738 49.347 57.0826 49.0022 57.0826 48.5772C57.0826 48.1521 56.738 47.8074 56.3128 47.8074Z" fill="#00A5A7"/>
</svg>
