<svg width="10" height="12" viewBox="0 0 10 12" fill="none" xmlns="http://www.w3.org/2000/svg">
<path fill-rule="evenodd" clip-rule="evenodd" d="M9.97641 3.40134V10.4913C9.97641 10.7119 9.79599 10.8923 9.57547 10.8923H1.35613C1.13561 10.8923 0.955185 10.7119 0.955185 10.4913V8.48663C0.955185 8.26611 1.13561 8.08568 1.35613 8.08568C1.57665 8.08568 1.75707 8.26611 1.75707 8.48663V10.0904H9.1745V4.27005C9.15445 4.27672 9.12773 4.27672 9.10769 4.27672H6.23427C6.01375 4.27672 5.83332 4.0963 5.83332 3.87578V0.801887H1.75707V4.87814C1.75707 5.09866 1.57665 5.27908 1.35613 5.27908C1.13561 5.27908 0.955185 5.09866 0.955185 4.87814V0.400943C0.955185 0.180425 1.13561 0 1.35613 0H6.34787C6.44811 0 6.54835 0.0400943 6.62186 0.10691L9.84945 3.10731C9.92964 3.18083 9.97641 3.28774 9.97641 3.40134ZM9.06092 3.47486L6.63521 1.2162V3.47486H9.06092Z" fill="white"/>
<path d="M0.0196533 6.61556C0.0196533 6.83608 0.200078 7.01651 0.420597 7.01651H4.59708L3.30739 8.16587C3.14034 8.31288 3.12696 8.56681 3.27397 8.73387C3.35416 8.82073 3.46107 8.86752 3.57468 8.86752C3.66824 8.86752 3.76178 8.8341 3.84196 8.76729L5.92687 6.90957C6.01373 6.83606 6.06053 6.72247 6.06053 6.60887C6.06053 6.49526 6.01376 6.38835 5.92687 6.30816L3.84199 4.45047C3.67494 4.30347 3.421 4.31681 3.27399 4.48389C3.12699 4.65094 3.14034 4.90488 3.30741 5.05189L4.61715 6.21462H0.420597C0.200078 6.21462 0.0196533 6.39505 0.0196533 6.61556Z" fill="white"/>
</svg>
