<svg width="84" height="84" viewBox="0 0 84 84" fill="none" xmlns="http://www.w3.org/2000/svg">
<g id="manyleads_icon">
<g id="Group 13">
<path id="Oval 4" fill-rule="evenodd" clip-rule="evenodd" d="M42 84C65.196 84 84 65.196 84 42C84 18.804 65.196 0 42 0C18.804 0 0 18.804 0 42C0 65.196 18.804 84 42 84Z" fill="#E1F5F6"/>
</g>
<g id="Group 25">
<path id="Path 31" d="M51.5744 24.1285V23.963C51.5744 22.4902 50.3805 21.2963 48.9077 21.2963H43.8609C42.3881 21.2963 41.1942 22.4902 41.1942 23.963V24.1285H38.9716C36.6807 24.1285 34.8235 25.9857 34.8235 28.2767V35.2743H26.4445C24.1535 35.2743 22.2963 37.1315 22.2963 39.4225L22.2963 57.1764H40.2364C40.8909 57.1764 41.4215 56.6457 41.4215 55.9912C41.4215 55.3366 40.8909 54.806 40.2364 54.806H24.6667V39.4225C24.6667 38.4406 25.4626 37.6447 26.4445 37.6447H37.1938V28.2767C37.1938 27.2948 37.9898 26.4989 38.9716 26.4989H43.5646V23.963C43.5646 23.7993 43.6973 23.6667 43.8609 23.6667H48.9077C49.0714 23.6667 49.204 23.7993 49.204 23.963V26.4989H54.0282C55.0101 26.4989 55.806 27.2948 55.806 28.2767V40.6753C55.806 41.3299 56.3367 41.8605 56.9912 41.8605C57.6458 41.8605 58.1764 41.3299 58.1764 40.6753V28.2767C58.1764 25.9857 56.3192 24.1285 54.0282 24.1285H51.5744Z" fill="#02CED1"/>
<path id="Rectangle" fill-rule="evenodd" clip-rule="evenodd" d="M43.4109 29.9H40.5891C39.9072 29.9 39.3545 30.4527 39.3545 31.1346C39.3545 31.8164 39.9072 32.3691 40.5891 32.3691H43.4109C44.0928 32.3691 44.6455 31.8164 44.6455 31.1346C44.6455 30.4527 44.0928 29.9 43.4109 29.9ZM41.0505 31.1346C41.0505 31.3894 40.8439 31.596 40.5891 31.596H43.4109C43.1561 31.596 42.9495 31.3894 42.9495 31.1346C42.9495 30.8797 43.1561 30.6731 43.4109 30.6731H40.5891C40.8439 30.6731 41.0505 30.8797 41.0505 31.1346Z" fill="#02CED1"/>
<path id="Rectangle_2" fill-rule="evenodd" clip-rule="evenodd" d="M52.2293 29.9H49.4074C48.7256 29.9 48.1729 30.4527 48.1729 31.1346C48.1729 31.8164 48.7256 32.3691 49.4074 32.3691H52.2293C52.9111 32.3691 53.4639 31.8164 53.4639 31.1346C53.4639 30.4527 52.9111 29.9 52.2293 29.9ZM49.8689 31.1346C49.8689 31.3894 49.6623 31.596 49.4074 31.596H52.2293C51.9744 31.596 51.7679 31.3894 51.7679 31.1346C51.7679 30.8797 51.9744 30.6731 52.2293 30.6731H49.4074C49.6623 30.6731 49.8689 30.8797 49.8689 31.1346Z" fill="#02CED1"/>
<path id="Rectangle_3" fill-rule="evenodd" clip-rule="evenodd" d="M43.4109 35.191H40.5891C39.9072 35.191 39.3545 35.7437 39.3545 36.4256C39.3545 37.1074 39.9072 37.6601 40.5891 37.6601H43.4109C44.0928 37.6601 44.6455 37.1074 44.6455 36.4256C44.6455 35.7437 44.0928 35.191 43.4109 35.191ZM41.0505 36.4256C41.0505 36.6804 40.8439 36.887 40.5891 36.887H43.4109C43.1561 36.887 42.9495 36.6804 42.9495 36.4256C42.9495 36.1707 43.1561 35.9641 43.4109 35.9641H40.5891C40.8439 35.9641 41.0505 36.1707 41.0505 36.4256Z" fill="#02CED1"/>
<path id="Rectangle_4" fill-rule="evenodd" clip-rule="evenodd" d="M32.8289 42.2457H30.007C29.3252 42.2457 28.7725 42.7984 28.7725 43.4802C28.7725 44.1621 29.3252 44.7148 30.007 44.7148H32.8289C33.5107 44.7148 34.0635 44.1621 34.0635 43.4802C34.0635 42.7984 33.5107 42.2457 32.8289 42.2457ZM30.4685 43.4802C30.4685 43.7351 30.2619 43.9417 30.007 43.9417H32.8289C32.5741 43.9417 32.3675 43.7351 32.3675 43.4802C32.3675 43.2254 32.5741 43.0188 32.8289 43.0188H30.007C30.2619 43.0188 30.4685 43.2254 30.4685 43.4802Z" fill="#02CED1"/>
<path id="Rectangle_5" fill-rule="evenodd" clip-rule="evenodd" d="M32.8289 47.5367H30.007C29.3252 47.5367 28.7725 48.0894 28.7725 48.7713C28.7725 49.4531 29.3252 50.0058 30.007 50.0058H32.8289C33.5107 50.0058 34.0635 49.4531 34.0635 48.7713C34.0635 48.0894 33.5107 47.5367 32.8289 47.5367ZM30.4685 48.7713C30.4685 49.0261 30.2619 49.2327 30.007 49.2327H32.8289C32.5741 49.2327 32.3675 49.0261 32.3675 48.7713C32.3675 48.5164 32.5741 48.3098 32.8289 48.3098H30.007C30.2619 48.3098 30.4685 48.5164 30.4685 48.7713Z" fill="#02CED1"/>
<path id="Rectangle_6" fill-rule="evenodd" clip-rule="evenodd" d="M52.2293 35.191H49.4074C48.7256 35.191 48.1729 35.7437 48.1729 36.4256C48.1729 37.1074 48.7256 37.6601 49.4074 37.6601H52.2293C52.9111 37.6601 53.4639 37.1074 53.4639 36.4256C53.4639 35.7437 52.9111 35.191 52.2293 35.191ZM49.8689 36.4256C49.8689 36.6804 49.6623 36.887 49.4074 36.887H52.2293C51.9744 36.887 51.7679 36.6804 51.7679 36.4256C51.7679 36.1707 51.9744 35.9641 52.2293 35.9641H49.4074C49.6623 35.9641 49.8689 36.1707 49.8689 36.4256Z" fill="#02CED1"/>
<g id="70376">
<path id="Shape" fill-rule="evenodd" clip-rule="evenodd" d="M56.2213 54.6018L60.0834 58.4639C60.6635 59.0441 60.6635 59.9847 60.0834 60.5649C59.5032 61.145 58.5625 61.145 57.9824 60.5649L54.1202 56.7027C54.1086 56.6911 54.0989 56.6783 54.0893 56.6656C54.0819 56.6558 54.0746 56.646 54.0663 56.6367C52.9135 57.3967 51.5337 57.8402 50.0496 57.8402C46.013 57.8402 42.7407 54.5678 42.7407 50.5312C42.7407 46.4946 46.0131 43.2222 50.0497 43.2222C54.0863 43.2222 57.3587 46.4946 57.3587 50.5313C57.3587 52.0152 56.9152 53.3951 56.1552 54.5479C56.1645 54.5561 56.1743 54.5635 56.184 54.5709C56.1968 54.5805 56.2096 54.5902 56.2213 54.6018ZM45.2744 50.5312C45.2744 53.1685 47.4124 55.3064 50.0497 55.3064C52.6869 55.3064 54.8249 53.1685 54.8249 50.5312C54.8249 47.8939 52.6869 45.7559 50.0497 45.7559C47.4124 45.7559 45.2744 47.8938 45.2744 50.5312Z" fill="#02CED1"/>
</g>
</g>
</g>
</svg>
