<svg width="25" height="21" viewBox="0 0 25 21" fill="none" xmlns="http://www.w3.org/2000/svg">
<path fill-rule="evenodd" clip-rule="evenodd" d="M15.4485 7.01266C15.4485 8.70427 14.0771 10.0755 12.3855 10.0755C10.6946 10.0737 9.32448 8.70343 9.32263 7.01266C9.32263 5.32104 10.6939 3.94962 12.3855 3.94962C14.0771 3.94962 15.4485 5.32104 15.4485 7.01266ZM14.483 7.01266C14.483 5.85429 13.5439 4.9152 12.3855 4.9152C11.2275 4.91637 10.2894 5.8548 10.2882 7.01266C10.2882 8.17102 11.2271 9.10995 12.3855 9.10995C13.5439 9.10995 14.483 8.17102 14.483 7.01266Z" fill="#DC4A5A"/>
<path fill-rule="evenodd" clip-rule="evenodd" d="M19.0945 8.67545H20.398C22.7639 8.67813 24.6808 10.5952 24.6835 12.9611V17.0727C24.6835 17.3392 24.4672 17.5555 24.2007 17.5555H17.3227V19.0826C17.3227 19.3495 17.1065 19.5654 16.8399 19.5654H7.93127C7.66439 19.5654 7.44848 19.3495 7.44848 19.0826V17.5555H0.597537C0.330996 17.5555 0.114746 17.3395 0.114746 17.0727V12.9611C0.117428 10.5952 2.03451 8.67813 4.40052 8.67561H5.70389C7.40288 8.68416 8.93943 9.68713 9.6311 11.2389C10.2721 10.8757 10.9968 10.6847 11.7339 10.6854H13.0375C13.7781 10.6847 14.5061 10.8775 15.1497 11.2443C15.842 9.70624 17.3864 8.67545 19.0945 8.67545ZM20.4384 9.64198C20.425 9.64151 20.4116 9.64103 20.398 9.64103H19.0946C19.0006 9.6412 18.9074 9.64522 18.8149 9.6531L19.3942 12.1403C19.4177 12.2597 19.5189 12.3478 19.6406 12.3545L19.6473 12.3544L19.6601 12.354C19.7734 12.3391 19.8646 12.2538 19.8872 12.142L20.4698 9.64287C20.4593 9.64273 20.4489 9.64235 20.4384 9.64198ZM13.0375 11.651C13.1258 11.651 13.2131 11.6555 13.2996 11.6622L12.5064 14.2472L11.7098 11.6517L11.7178 11.6515L11.7217 11.6513C11.7256 11.6511 11.7296 11.651 11.7336 11.651H13.0375ZM5.77992 9.64244C5.75457 9.64174 5.72925 9.64103 5.70372 9.64103H4.40019C4.33045 9.64103 4.26105 9.64388 4.19232 9.64807L4.9963 12.5706L5.80179 9.64304L5.77992 9.64244ZM1.08033 12.9611C1.082 11.5732 1.94533 10.3325 3.24585 9.84839L4.51351 14.4559V16.5899H1.08033V12.9611ZM5.47909 14.4559V16.5899H7.44814V14.9708C7.44781 13.7753 7.9482 12.6343 8.82779 11.8247C8.47391 10.8777 7.71301 10.1397 6.75581 9.81487L5.47909 14.4559ZM8.41406 14.971C8.41574 13.5186 9.35969 12.2354 10.7459 11.8012L12.0236 15.9651V18.5998H8.41406V14.971ZM12.9892 18.5998H16.3571V14.9708C16.3555 13.6034 15.5168 12.3767 14.2433 11.8788L12.9892 15.9651V18.5998ZM15.9503 11.8314C16.2891 10.9384 16.9875 10.2286 17.8751 9.87522L18.4541 12.3594C18.5403 12.7408 18.8011 13.0591 19.1582 13.2185V16.5902H17.3227V14.9708C17.3232 13.7786 16.8255 12.6407 15.9503 11.8314ZM20.1238 16.5897H23.7179V12.9611C23.716 11.5234 22.7905 10.2495 21.4236 9.8038L20.8275 12.3611C20.739 12.7404 20.4788 13.0568 20.1238 13.217V16.5897Z" fill="#D8384A"/>
<path fill-rule="evenodd" clip-rule="evenodd" d="M19.7191 8.0929C21.1053 8.09323 22.319 7.16252 22.6779 5.82328C23.0366 4.48437 22.4509 3.07137 21.2503 2.37853V1.91485C21.2503 1.17406 20.65 0.573761 19.9092 0.573761C19.1684 0.573761 18.5681 1.17406 18.5681 1.91485V2.19195C17.2103 2.74263 16.4326 4.1781 16.7132 5.61625C16.9938 7.05456 18.2538 8.09273 19.7191 8.09273V8.0929ZM19.7191 7.12732C18.844 7.12631 18.0615 6.58283 17.7542 5.7636C18.1415 5.69805 18.5197 5.58691 18.8813 5.43285C19.3295 5.24158 19.7431 4.97672 20.1043 4.64899C20.4463 5.0322 20.9804 5.48901 21.7073 5.70928C21.4233 6.56406 20.6196 7.13721 19.7191 7.12732ZM20.7432 3.90938C20.9599 4.17106 21.3137 4.51572 21.7928 4.71453C21.714 4.19822 21.4451 3.72967 21.0389 3.40111C20.9519 3.57696 20.8532 3.74677 20.7432 3.90938ZM19.5337 1.91485C19.5337 1.70748 19.7017 1.53934 19.9092 1.53934C20.1167 1.53934 20.2847 1.70748 20.2847 1.91485V2.01979C20.0983 1.98458 19.9089 1.96681 19.7191 1.96665C19.6569 1.96665 19.5951 1.96916 19.5337 1.97268V1.91485ZM20.1692 2.98151C20.0215 2.94883 19.8705 2.9324 19.7191 2.93223C18.6471 2.93374 17.7482 3.74191 17.6334 4.80757C18.3066 4.68922 19.5126 4.29461 20.1692 2.98151Z" fill="#DC4A5A"/>
<path fill-rule="evenodd" clip-rule="evenodd" d="M8.11497 5.03892C8.08279 6.75132 6.73718 8.09291 5.05193 8.09291C3.36032 8.09291 1.98889 6.72148 1.98889 5.0297C1.98889 3.33809 3.36032 1.96683 5.05193 1.96683C6.74371 1.96683 8.11497 3.33809 8.11497 5.0297V5.03892ZM7.14939 5.02534C7.14554 3.86933 6.20812 2.93392 5.05193 2.93241C3.89357 2.93241 2.95447 3.87167 2.95447 5.03004C2.95447 6.1884 3.89357 7.1275 5.05193 7.1275C6.20426 7.1275 7.12492 6.20449 7.14939 5.02534Z" fill="#DC4A5A"/>
<path d="M22.3232 12.268H21.4113C21.1447 12.268 20.9285 12.4843 20.9285 12.7508C20.9285 13.0174 21.1447 13.2336 21.4113 13.2336H22.3232C22.5897 13.2336 22.806 13.0174 22.806 12.7508C22.806 12.4843 22.5897 12.268 22.3232 12.268Z" fill="#DC4A5A"/>
<path d="M14.2766 14.4138C14.0101 14.4138 13.7938 14.63 13.7938 14.8966C13.7938 15.1631 14.0101 15.3794 14.2766 15.3794H15.1886C15.4551 15.3794 15.6713 15.1631 15.6713 14.8966C15.6713 14.63 15.4551 14.4138 15.1886 14.4138H14.2766Z" fill="#DC4A5A"/>
<path d="M7.83946 12.5899C7.83946 12.3234 7.62321 12.1071 7.35667 12.1071H6.6593C6.39276 12.1071 6.17651 12.3234 6.17651 12.5899C6.17651 12.8564 6.39276 13.0727 6.6593 13.0727H7.35667C7.62321 13.0727 7.83946 12.8564 7.83946 12.5899Z" fill="#DC4A5A"/>
</svg>
