<svg width="27" height="20" viewBox="0 0 27 20" fill="none" xmlns="http://www.w3.org/2000/svg">
<path fill-rule="evenodd" clip-rule="evenodd" d="M11.3798 3.41427L7.50597 0.174685C7.18823 -0.0910391 6.71523 -0.0488655 6.4495 0.268882C6.18378 0.58663 6.22595 1.05963 6.5437 1.32535L9.39023 3.70583H5.02394C3.36708 3.70583 2.02394 5.04897 2.02394 6.70583V7.77077C0.906149 7.77077 0 8.67692 0 9.79471V10.5498C0 11.6676 0.906149 12.5737 2.02394 12.5737V14.7058C2.02394 16.3627 3.36708 17.7058 5.02394 17.7058H16.8027C16.551 17.2707 16.3524 16.8011 16.2157 16.3058H5.02394C4.14028 16.3058 3.42394 15.5895 3.42394 14.7058V12.5737C3.42394 11.8005 2.79714 11.1737 2.02394 11.1737C1.67935 11.1737 1.4 10.8944 1.4 10.5498V9.79471C1.4 9.45012 1.67935 9.17077 2.02394 9.17077C2.79714 9.17077 3.42394 8.54397 3.42394 7.77077V6.70583C3.42394 5.82217 4.14028 5.10583 5.02394 5.10583H11.128C11.218 5.14014 11.3129 5.15627 11.4072 5.15472C11.4936 5.15337 11.5801 5.13715 11.6623 5.10583H18C18.8837 5.10583 19.6 5.82217 19.6 6.70583V7.82155C19.6 8.3016 19.8416 8.72521 20.2099 8.97743C20.7752 8.80093 21.3765 8.70583 22 8.70583C22.2719 8.70583 22.5395 8.72391 22.8018 8.75894C22.4039 8.19207 21.7452 7.82155 21 7.82155V6.70583C21 5.04897 19.6569 3.70583 18 3.70583H13.3081L15.9987 1.31017C16.3081 1.03472 16.3356 0.560646 16.0601 0.251285C15.7847 -0.0580759 15.3106 -0.0855721 15.0013 0.189871L11.3798 3.41427Z" fill="#06CFD2"/>
<path fill-rule="evenodd" clip-rule="evenodd" d="M8.5 9.70583C9.32843 9.70583 10 9.03425 10 8.20583C10 7.3774 9.32843 6.70583 8.5 6.70583C7.67157 6.70583 7 7.3774 7 8.20583C7 9.03425 7.67157 9.70583 8.5 9.70583Z" fill="white"/>
<path fill-rule="evenodd" clip-rule="evenodd" d="M27 14.7058C27 17.4672 24.7614 19.7058 22 19.7058C19.2386 19.7058 17 17.4672 17 14.7058C17 11.9444 19.2386 9.70583 22 9.70583C24.7614 9.70583 27 11.9444 27 14.7058ZM19.3333 11.7058H24.6667C25.403 11.7058 26 12.3028 26 13.0392V15.8216C26 16.558 25.403 17.155 24.6667 17.155H23.3627L22 18.8057L20.6634 17.155H19.3333C18.597 17.155 18 16.558 18 15.8216V13.0392C18 12.3028 18.597 11.7058 19.3333 11.7058ZM22.8601 16.0883H24.6667C24.8139 16.0883 24.9333 15.9689 24.9333 15.8216V13.0392C24.9333 12.8919 24.8139 12.7725 24.6667 12.7725H19.3333C19.1861 12.7725 19.0667 12.8919 19.0667 13.0392V15.8216C19.0667 15.9689 19.1861 16.0883 19.3333 16.0883H21.1722L22.008 17.1205L22.8601 16.0883Z" fill="white"/>
<path fill-rule="evenodd" clip-rule="evenodd" d="M14.5 9.70583C15.3284 9.70583 16 9.03425 16 8.20583C16 7.3774 15.3284 6.70583 14.5 6.70583C13.6716 6.70583 13 7.3774 13 8.20583C13 9.03425 13.6716 9.70583 14.5 9.70583Z" fill="white"/>
<path d="M7.00005 14.4058H15.5C15.8866 14.4058 16.2 14.0924 16.2 13.7058C16.2 13.3192 15.8866 13.0058 15.5 13.0058H7.00005C6.61345 13.0058 6.30005 13.3192 6.30005 13.7058C6.30005 14.0924 6.61345 14.4058 7.00005 14.4058Z" fill="white"/>
</svg>
