<?xml version="1.0" encoding="UTF-8"?>
<svg width="25px" height="23px" viewBox="0 0 25 23" version="1.1" xmlns="http://www.w3.org/2000/svg" xmlns:xlink="http://www.w3.org/1999/xlink">
    <!-- Generator: Sketch 54.1 (76490) - https://sketchapp.com -->
    <title>Group 24</title>
    <desc>Created with Sketch.</desc>
    <defs>
        <linearGradient x1="50%" y1="0%" x2="50%" y2="100%" id="linearGradient-1">
            <stop stop-color="#F7EF6B" offset="0%"></stop>
            <stop stop-color="#E09900" offset="100%"></stop>
        </linearGradient>
    </defs>
    <g id="dashboard" stroke="none" stroke-width="1" fill="none" fill-rule="evenodd">
        <g id="1_dashboard" transform="translate(-175.000000, -251.000000)">
            <g id="Group-24" transform="translate(175.000000, 251.000000)">
                <path d="M20.1136364,9.41331827 L14.0966369,12.5432928 L14.8638299,13.1908393 L13.9109841,14.3197413 L12.6796171,13.2804103 L10.7954545,14.2605302 L8.91129196,13.2804103 L2.42829493,18.752361 L13.2850462,18.752361 C13.3414364,19.0114612 13.4132782,19.2647931 13.4995579,19.5113431 C13.5858375,19.7578932 13.6865551,19.9976613 13.8006969,20.2296339 L2.27272727,20.2296339 C1.01753448,20.2296335 2.13162821e-13,19.2120989 2.13162821e-13,17.9569064 L2.13162821e-13,8.85170605 L-5.15143483e-14,6.59942328 C-5.15143483e-14,5.74358106 0.480789331,4.96030352 1.24392353,4.5728863 L9.7666467,0.246190295 C10.4132404,-0.0820633085 11.1776596,-0.0820634382 11.8242535,0.246189945 L20.3469849,4.57288649 C21.1101195,4.96030357 21.5909091,5.74358131 21.5909091,6.59942381 L21.5909091,11.1626373 C21.1194067,11.0141641 20.6247157,10.9179823 20.1136364,10.8808921 L20.1136364,9.41331827 Z M20.1136364,7.76748519 L20.1136364,6.59942381 C20.1136364,6.29987894 19.94536,6.02573173 19.6782629,5.89013575 L11.1555315,1.56343921 C10.9292237,1.44855052 10.6616769,1.44855057 10.4353691,1.56343933 L1.91264596,5.89013534 C1.64554899,6.02573137 1.47727273,6.2998785 1.47727273,6.59942328 L1.47727273,7.76768412 C1.54032958,7.78751441 1.60174371,7.81287414 1.66077776,7.84358298 L10.7954545,12.5953377 L19.9301313,7.84358298 C19.990021,7.81242906 20.0514075,7.78713199 20.1136364,7.76748519 Z M1.47727273,9.41331827 L1.47727273,17.6219198 L7.49427217,12.5432928 L1.47727273,9.41331827 Z" id="Combined-Shape" fill="url(#linearGradient-1)" fill-rule="nonzero"></path>
                <path d="M19.8863636,22.7272727 C17.0621803,22.7272727 14.7727273,20.4378197 14.7727273,17.6136364 C14.7727273,14.789453 17.0621803,12.5 19.8863636,12.5 C22.710547,12.5 25,14.789453 25,17.6136364 C25,20.4378197 22.710547,22.7272727 19.8863636,22.7272727 Z M17.4477702,17.2155059 C17.2278888,16.9916277 16.8681506,16.9883876 16.6442723,17.208269 C16.4203941,17.4281503 16.417154,17.7878886 16.6370354,18.0117668 L18.6169417,20.0276625 C18.7319654,20.1447771 18.9197569,20.1476983 19.0383677,20.034218 L23.0704003,16.1765911 C23.2971387,15.9596603 23.3050893,15.5999953 23.0881585,15.3732569 C22.8712277,15.1465185 22.5115627,15.1385679 22.2848243,15.3554987 L18.8492532,18.6424641 L17.4477702,17.2155059 Z" id="Combined-Shape" fill="#FFFFFF"></path>
                <path d="M6.25,5.768932 L14.8638299,5.768932" id="Path-8" stroke="#FFFFFF" stroke-width="1.1" stroke-linecap="round"></path>
                <path d="M6.25,8.04165927 L11.4545455,8.04165927" id="Path-8" stroke="#FFFFFF" stroke-width="1.1" stroke-linecap="round"></path>
            </g>
        </g>
    </g>
</svg>