<?xml version="1.0" encoding="UTF-8"?>
<svg width="20px" height="21px" viewBox="0 0 20 21" version="1.1" xmlns="http://www.w3.org/2000/svg" xmlns:xlink="http://www.w3.org/1999/xlink">
    <!-- Generator: Sketch 54.1 (76490) - https://sketchapp.com -->
    <title>Group 29</title>
    <desc>Created with Sketch.</desc>
    <defs>
        <linearGradient x1="50%" y1="0%" x2="50%" y2="100%" id="linearGradient-1">
            <stop stop-color="#F7EF6B" offset="0%"></stop>
            <stop stop-color="#E09900" offset="100%"></stop>
        </linearGradient>
    </defs>
    <g id="dashboard" stroke="none" stroke-width="1" fill="none" fill-rule="evenodd">
        <g id="1_dashboard" transform="translate(-178.000000, -1191.000000)" fill-rule="nonzero">
            <g id="Group-29" transform="translate(177.000000, 1191.000000)">
                <g id="25663" transform="translate(0.988880, 0.000000)" fill="url(#linearGradient-1)">
                    <path d="M18.6419958,4.16378522 C17.7500883,2.87836558 16.5385015,1.86292436 15.0073526,1.1177363 C13.4762037,0.372548239 11.8036867,6.39488462e-14 9.98999689,6.39488462e-14 C8.17634616,6.39488462e-14 6.50386823,0.372548239 4.97268026,1.1177363 C3.44149229,1.86292436 2.22994454,2.87818242 1.33795891,4.16378522 C0.445934235,5.44929643 1.08357767e-13,6.85024449 1.08357767e-13,8.36676675 C1.08357767e-13,9.67402827 0.336237303,10.8989134 1.00898527,12.0405979 C1.68173324,13.1823282 2.60144576,14.1411729 3.76855238,14.9168114 C3.68669949,15.2653198 3.59008496,15.596428 3.47855259,15.9104565 C3.36705927,16.2241645 3.2667348,16.4813216 3.17754015,16.6818823 C3.08826738,16.8821682 2.96759685,17.1045249 2.81509898,17.3483572 C2.66283542,17.59251 2.54763217,17.7647265 2.46956732,17.8650068 C2.39158057,17.9652872 2.26337301,18.1306352 2.08486654,18.3617378 C1.90659438,18.5925657 1.79131302,18.7431693 1.73933487,18.8129077 C1.73179785,18.8173493 1.70211836,18.8563167 1.65010116,18.9307714 C1.59812302,19.0047224 1.57203631,19.0415376 1.57203631,19.0415376 L1.50514032,19.1592182 C1.46792381,19.2242401 1.45120957,19.2657717 1.45488046,19.2829888 C1.45862944,19.3005722 1.45120957,19.3441186 1.43262084,19.4136737 C1.41399306,19.4835494 1.41590661,19.5358875 1.43816622,19.570688 L1.43816622,19.5838298 C1.46792381,19.7319149 1.52732183,19.8518392 1.61651648,19.9433278 C1.70571114,20.0345417 1.80623087,20.080286 1.91760703,20.080286 L1.97341227,20.080286 C2.45668017,20.0104103 2.88031574,19.9148464 3.24447519,19.79277 C5.19199602,19.2089004 6.90165141,18.1543087 8.3733242,16.6289489 C8.93075176,16.6986872 9.46966869,16.7334877 9.98991879,16.7334877 C11.8035695,16.7334877 13.4761256,16.3609853 15.0072745,15.6155683 C16.5384234,14.8702886 17.7500102,13.8552137 18.6419177,12.5697483 C19.5339814,11.2843287 19.9799547,9.88324323 19.9799547,8.36672096 C19.9799938,6.85042765 19.5340596,5.44929643 18.6419958,4.16378522 Z M17.3876471,11.7005606 C16.6106695,12.7288231 15.5626323,13.546039 14.2433012,14.1516588 C12.92397,14.7571413 11.5060327,15.0602259 9.98972353,15.0602259 C9.53636942,15.0602259 9.05325773,15.0254255 8.54038845,14.9555498 L7.90485699,14.8773403 L7.42541618,15.3742544 C6.5112881,16.3156073 5.48914232,17.060658 4.35933031,17.6097728 C4.70119109,16.9039643 4.96135519,16.1543346 5.13982261,15.3613874 L5.44083505,14.1061893 L4.47086268,13.4527645 C3.50456119,12.8074447 2.75577907,12.0427501 2.2242039,11.1580396 C1.69270684,10.2736038 1.42707547,9.34301165 1.42707547,8.36694991 C1.42707547,7.17288152 1.81544713,6.061739 2.59215139,5.03329339 C3.36908997,4.00493936 4.41701004,3.18781506 5.73641927,2.58210364 C7.05582851,1.97634643 8.47353151,1.67321598 9.98995784,1.67321598 C11.506267,1.67321598 12.923931,1.97620906 14.2432621,2.58192048 C15.5625542,3.18767769 16.6105914,4.0047562 17.3876081,5.03311023 C18.1643514,6.06155584 18.552684,7.17274415 18.552684,8.36672096 C18.552684,9.56069778 18.1643514,10.672115 17.3876471,11.7005606 Z" id="Shape"></path>
                </g>
                <path d="M12.82584,11.96288 L12.70112,12.47272 C12.32696,12.6204 12.02808,12.7328 11.80552,12.81008 C11.58272,12.8876 11.32384,12.92616 11.02888,12.92616 C10.57592,12.92616 10.2236,12.8152 9.97232,12.5948 C9.72104,12.37352 9.59536,12.09312 9.59536,11.75296 C9.59536,11.62128 9.60448,11.48584 9.62344,11.34784 C9.64256,11.20968 9.67296,11.05408 9.71456,10.88016 L10.18216,9.22512 C10.22376,9.06664 10.25912,8.91648 10.28744,8.77448 C10.31616,8.63336 10.33,8.50352 10.33,8.38664 C10.33,8.17528 10.28624,8.02744 10.19912,7.94432 C10.112,7.86144 9.94576,7.81936 9.69896,7.81936 C9.57808,7.81936 9.45384,7.83872 9.3272,7.87616 C9.2,7.91376 9.09128,7.95008 9,7.98384 L9.12504,7.4736 C9.43136,7.34888 9.72416,7.24208 10.00424,7.15344 C10.28432,7.06456 10.54896,7.02008 10.79928,7.02008 C11.24912,7.02008 11.59624,7.1288 11.84,7.34624 C12.08376,7.56384 12.2056,7.84592 12.2056,8.19352 C12.2056,8.26544 12.1976,8.39216 12.1804,8.57328 C12.1636,8.7548 12.13232,8.92112 12.08672,9.0724 L11.62112,10.7208 C11.58296,10.8532 11.54864,11.00456 11.5188,11.17488 C11.488,11.34408 11.47328,11.47336 11.47328,11.56008 C11.47328,11.77896 11.52208,11.9284 11.61992,12.00784 C11.71848,12.08728 11.88824,12.1268 12.12936,12.1268 C12.24256,12.1268 12.37136,12.10672 12.51448,12.06728 C12.6572,12.02784 12.76128,11.9932 12.82584,11.96288 Z M12.94392,5.0424 C12.94392,5.3296 12.83568,5.57488 12.61816,5.77656 C12.4012,5.97896 12.13976,6.08024 11.83392,6.08024 C11.52712,6.08024 11.26504,5.97896 11.0456,5.77656 C10.82656,5.5748 10.7168,5.3296 10.7168,5.0424 C10.7168,4.75576 10.82656,4.51008 11.0456,4.30584 C11.26464,4.10192 11.5272,4 11.83392,4 C12.13968,4 12.4012,4.10216 12.61816,4.30584 C12.83584,4.51008 12.94392,4.75584 12.94392,5.0424 Z" id="Shape" fill="#FFFFFF"></path>
            </g>
        </g>
    </g>
</svg>