<svg width="20" height="19" viewBox="0 0 20 19" fill="none" xmlns="http://www.w3.org/2000/svg">
<path fill-rule="evenodd" clip-rule="evenodd" d="M11.9864 5.48889C12.2793 6.11178 12.7341 6.64345 13.2966 7.02963H7.09628C6.67082 7.02963 6.32591 6.68472 6.32591 6.25926C6.32591 5.8338 6.67082 5.48889 7.09628 5.48889H11.9864ZM15.8592 7.68469V14.7333C15.8592 16.0097 14.8245 17.0444 13.5481 17.0444H4.88147H0.837021C0.411557 17.0444 0.0666504 17.3894 0.0666504 17.8148C0.0666504 18.2403 0.411557 18.5852 0.837021 18.5852H4.88147H13.5481H14.4661C14.7245 18.5852 14.9531 18.4581 15.0928 18.2629C16.4511 17.6677 17.4 16.3113 17.4 14.7333V7.18839C16.9384 7.4554 16.4163 7.62938 15.8592 7.68469ZM11.6412 3.46667C11.6965 2.90963 11.8705 2.3875 12.1375 1.92593H4.88147C4.34964 1.92593 3.9185 2.27083 3.9185 2.6963C3.9185 3.12176 4.34964 3.46667 4.88147 3.46667H11.6412ZM4.68887 9.34074H14.4661C14.8916 9.34074 15.2365 9.68565 15.2365 10.1111C15.2365 10.5366 14.8916 10.8815 14.4661 10.8815H4.68887C4.26341 10.8815 3.9185 10.5366 3.9185 10.1111C3.9185 9.68565 4.26341 9.34074 4.68887 9.34074ZM2.28147 13.1926H14.4661C14.8916 13.1926 15.2365 13.5375 15.2365 13.963C15.2365 14.3884 14.8916 14.7333 14.4661 14.7333H2.28147C1.856 14.7333 1.51109 14.3884 1.51109 13.963C1.51109 13.5375 1.856 13.1926 2.28147 13.1926Z" fill="#06CFD2"/>
<path fill-rule="evenodd" clip-rule="evenodd" d="M16.437 5.77778C18.0325 5.77778 19.3259 4.48438 19.3259 2.88889C19.3259 1.2934 18.0325 0 16.437 0C14.8415 0 13.5481 1.2934 13.5481 2.88889C13.5481 4.48438 14.8415 5.77778 16.437 5.77778Z" fill="white"/>
</svg>
