<svg width="18" height="18" viewBox="0 0 18 18" fill="none" xmlns="http://www.w3.org/2000/svg">
<path fill-rule="evenodd" clip-rule="evenodd" d="M9.44287 0.56813C9.07661 0.201736 8.58951 0 8.0715 0C7.5535 0 7.06639 0.201736 6.70013 0.567993C6.33374 0.934387 6.132 1.42136 6.132 1.93936C6.132 2.33363 6.24914 2.70964 6.4664 3.02838L2.69026 12.2749C2.45543 12.1761 2.20096 12.1242 1.93852 12.1242C1.42065 12.1242 0.933546 12.3258 0.567152 12.6921C-0.188982 13.4484 -0.189119 14.6787 0.567152 15.435L2.56419 17.432C2.93045 17.7983 3.41755 18 3.93556 18C4.4537 18 4.94067 17.7983 5.30693 17.432C5.67319 17.0658 5.87492 16.5786 5.87506 16.0606C5.87506 15.7982 5.82301 15.5437 5.72427 15.3089L7.64482 14.5246L8.39546 15.2753C8.87666 15.7565 9.62565 16.027 10.3443 16.027C10.6695 16.027 10.9885 15.9716 11.2736 15.8552L13.1144 15.1033C13.6233 14.8954 13.9687 14.5112 14.0618 14.0489C14.1549 13.5868 13.9854 13.0986 13.5965 12.7098L13.1591 12.2724L14.9705 11.5326C15.2894 11.7499 15.6654 11.867 16.0597 11.867H16.0598C16.5777 11.867 17.0648 11.6653 17.431 11.299C18.1872 10.5428 18.1872 9.31229 17.431 8.55615L9.44287 0.56813ZM12.0293 11.5946L12.024 11.5968L7.57396 13.4143L7.56874 13.4164L5.05905 14.4414L3.55777 12.9401L7.26112 3.87186L14.127 10.7379L12.0293 11.5946ZM3.93556 16.9453C4.1719 16.9453 4.3941 16.8533 4.56109 16.6863C4.72822 16.519 4.82023 16.297 4.82037 16.0605C4.82037 15.8243 4.72822 15.6021 4.56109 15.435L2.56419 13.4381C2.39706 13.2709 2.17486 13.1788 1.93852 13.1788C1.70218 13.1788 1.47998 13.2708 1.31285 13.4379C0.967878 13.7829 0.967878 14.3443 1.31285 14.6893L3.30989 16.6862C3.47702 16.8533 3.69922 16.9453 3.93556 16.9453ZM12.8508 13.4556C12.9855 13.5904 13.0501 13.7307 13.0278 13.8406C13.0057 13.9506 12.8919 14.0549 12.7156 14.1269L10.8748 14.8788C10.3512 15.0926 9.5412 14.9293 9.14129 14.5296L8.70376 14.0922L12.1 12.705L12.8508 13.4556ZM16.0598 10.8123C16.296 10.8123 16.5181 10.7203 16.6852 10.5532C17.0302 10.2082 17.0302 9.64696 16.6852 9.30185L8.69717 1.31383C8.53004 1.1467 8.30784 1.05469 8.0715 1.05469C7.83516 1.05469 7.61296 1.1467 7.44583 1.31383C7.2787 1.48096 7.18669 1.70316 7.18669 1.9395C7.18669 2.17584 7.2787 2.3979 7.44583 2.5649V2.56503L15.4339 10.5532C15.601 10.7202 15.8233 10.8123 16.0597 10.8123H16.0598Z" fill="white"/>
</svg>
