<svg width="40" height="40" viewBox="0 0 40 40" fill="none" xmlns="http://www.w3.org/2000/svg">
<path fill-rule="evenodd" clip-rule="evenodd" d="M20 40C31.0457 40 40 31.0457 40 20C40 8.9543 31.0457 0 20 0C8.9543 0 0 8.9543 0 20C0 31.0457 8.9543 40 20 40Z" fill="#E3F6D0"/>
<path fill-rule="evenodd" clip-rule="evenodd" d="M18.4827 16.3586C18.4827 13.5141 20.7968 11.2 23.6414 11.2C26.4859 11.2 28.8 13.5141 28.8 16.3586C28.8 19.2031 26.4859 21.5172 23.6414 21.5172C22.2057 21.5172 20.9067 20.9267 19.9705 19.9772L17.2167 22.731L19.2153 24.7295C19.4522 24.9665 19.4522 25.3507 19.2153 25.5877C19.0966 25.7063 18.9415 25.7655 18.7862 25.7655C18.6308 25.7655 18.4757 25.7063 18.3571 25.5877L16.3586 23.5892L15.6995 24.2483L17.0911 25.6399C17.3281 25.8769 17.3281 26.261 17.0911 26.498C16.9725 26.6167 16.8174 26.6759 16.662 26.6759C16.5067 26.6759 16.3516 26.6167 16.233 26.498L14.8413 25.1064L14.1822 25.7655L16.1808 27.764C16.4178 28.001 16.4178 28.3852 16.1808 28.6222C16.0621 28.7408 15.907 28.8 15.7517 28.8C15.5963 28.8 15.4413 28.7408 15.3226 28.6222L13.3241 26.6237L12.2359 27.7118C12.1173 27.8305 11.9622 27.8897 11.8068 27.8897C11.6515 27.8897 11.4964 27.8305 11.3778 27.7118C11.1408 27.4748 11.1408 27.0907 11.3778 26.8537L19.2234 19.008C18.7564 18.2324 18.4827 17.3281 18.4827 16.3586ZM19.6965 16.3586C19.6965 18.5337 21.4662 20.3034 23.6414 20.3034C25.8165 20.3034 27.5862 18.5337 27.5862 16.3586C27.5862 14.1835 25.8165 12.4138 23.6414 12.4138C21.4662 12.4138 19.6965 14.1835 19.6965 16.3586Z" fill="#7BBE33"/>
</svg>
