<svg width="32" height="32" viewBox="0 0 32 32" fill="none" xmlns="http://www.w3.org/2000/svg">
<path fill-rule="evenodd" clip-rule="evenodd" d="M8.6479 0H22.6895C27.4583 0 31.3379 3.93976 31.3378 8.78212V23.0413C31.3378 27.8837 27.4583 31.8234 22.6895 31.8234H8.6479C3.87945 31.8234 0 27.8839 0 23.0413V8.78212C0 3.93976 3.87945 0 8.6479 0ZM22.6897 28.9999C25.9252 28.9999 28.5575 26.327 28.5575 23.0413H28.5573V8.78212C28.5573 5.49666 25.925 2.82353 22.6895 2.82353H8.6479C5.41259 2.82353 2.78044 5.49666 2.78044 8.78212V23.0413C2.78044 26.327 5.41259 29.0001 8.6479 28.9999H22.6897Z" fill="black"/>
<path fill-rule="evenodd" clip-rule="evenodd" d="M7.59393 15.912C7.59393 11.3904 11.2163 7.71191 15.6689 7.71191C20.1215 7.71191 23.7438 11.3904 23.7438 15.912C23.7438 20.4334 20.1215 24.1117 15.6689 24.1117C11.2163 24.1117 7.59393 20.4334 7.59393 15.912ZM10.3744 15.9118C10.3744 18.8763 12.7496 21.288 15.6689 21.288C18.5882 21.288 20.9634 18.8763 20.9634 15.9118C20.9634 12.9471 18.5883 10.5353 15.6689 10.5353C12.7494 10.5353 10.3744 12.9471 10.3744 15.9118Z" fill="black"/>
<path d="M24.0825 5.31787C23.5468 5.31787 23.0205 5.53811 22.6422 5.92399C22.262 6.30799 22.0435 6.84258 22.0435 7.38846C22.0435 7.93265 22.2622 8.46705 22.6422 8.85293C23.0203 9.23693 23.5468 9.45905 24.0825 9.45905C24.62 9.45905 25.1446 9.23693 25.5246 8.85293C25.9046 8.46705 26.1215 7.93246 26.1215 7.38846C26.1215 6.84258 25.9046 6.30799 25.5246 5.92399C25.1465 5.53811 24.62 5.31787 24.0825 5.31787Z" fill="black"/>
</svg>
