<svg width="52" height="62" viewBox="0 0 52 62" fill="none" xmlns="http://www.w3.org/2000/svg">
<path d="M51.5593 45.2153L24.9746 23.2763C24.4585 22.8495 23.6971 22.9255 23.2739 23.4461C23.0972 23.6636 23.0005 23.936 23 24.2172V60.7822C23.0006 61.4553 23.542 62.0006 24.2093 62C24.613 61.9997 24.9899 61.7962 25.2137 61.4574L34.5256 47.3749H50.793C51.4604 47.3741 52.0008 46.8278 52 46.1547C51.9995 45.7896 51.8369 45.444 51.5567 45.2128L51.5593 45.2153Z" fill="url(#paint0_linear)"/>
<path d="M15.9269 46.9106C15.7539 46.9108 15.5823 46.8789 15.4205 46.8166C3.09467 42.016 -3.05394 28.0067 1.68724 15.5262C6.42843 3.04574 20.2639 -3.18002 32.5899 1.62066C44.9155 6.4212 51.0642 20.43 46.3234 32.9104C46.0445 33.645 45.2302 34.0117 44.5047 33.7293C43.7792 33.4469 43.417 32.6224 43.6959 31.8877C47.8821 20.8765 42.4599 8.51417 31.5853 4.27549C20.7107 0.0368085 8.50126 5.527 4.31511 16.5381C0.128956 27.5492 5.55111 39.9116 16.4257 44.1503C16.4283 44.1512 16.4308 44.1523 16.4333 44.1533C17.1588 44.4343 17.5221 45.2576 17.2445 45.9924C17.0358 46.545 16.5113 46.9094 15.9269 46.9078V46.9106Z" fill="black"/>
<path d="M18.9568 38.9349C18.7838 38.935 18.6122 38.9031 18.4504 38.8409C10.4749 35.7345 6.49643 26.6698 9.56421 18.5942C12.632 10.5186 21.5845 6.49022 29.56 9.59649C37.5353 12.7028 41.5139 21.7671 38.4465 29.8425C38.1676 30.5772 37.3533 30.9438 36.6278 30.6614C35.9022 30.379 35.5401 29.5545 35.819 28.8199C38.3319 22.2136 35.0798 14.7956 28.5555 12.2513C22.0312 9.70705 14.705 12.9999 12.1922 19.606C9.67933 26.2123 12.9315 33.6303 19.4558 36.1746C19.4583 36.1755 19.4608 36.1765 19.4632 36.1775C20.1887 36.4586 20.552 37.2819 20.2744 38.0165C20.0657 38.5692 19.5411 38.9336 18.9568 38.932V38.9349Z" fill="black"/>
<defs>
<linearGradient id="paint0_linear" x1="23" y1="23" x2="23" y2="62" gradientUnits="userSpaceOnUse">
<stop stop-color="#F7EF6B"/>
<stop offset="1" stop-color="#E09900"/>
</linearGradient>
</defs>
</svg>
