<svg width="30" height="30" viewBox="0 0 30 30" fill="none" xmlns="http://www.w3.org/2000/svg">
<path fill-rule="evenodd" clip-rule="evenodd" d="M2.16362 0H27.8364C29.0314 0 30 0.968628 30 2.16362V27.8364C30 29.0314 29.0314 30 27.8364 30H2.16362C0.968628 30 0 29.0314 0 27.8364V2.16362C0 0.968628 0.968628 0 2.16362 0ZM21.6909 20.715C23.3897 20.4527 23.8754 20.0949 23.9834 19.8431C23.9989 19.8072 24.0079 19.7704 24.0099 19.7337C24.0154 19.6365 23.9463 19.5502 23.8499 19.5344C21.2375 19.1039 20.0679 16.4358 20.0194 16.3225C20.0187 16.3209 20.0179 16.3193 20.0172 16.3178C20.0165 16.3162 20.0157 16.3147 20.015 16.3131C19.855 15.9892 19.8239 15.7084 19.9216 15.4777C20.1009 15.0558 20.685 14.87 21.0722 14.7473L21.0767 14.7459C21.1703 14.7162 21.2583 14.6883 21.3274 14.661C22.0045 14.3935 22.1427 14.1216 22.1393 13.9407C22.1356 13.7485 21.9637 13.5649 21.7017 13.472L21.6957 13.4695C21.6035 13.4312 21.4925 13.4097 21.3824 13.4097C21.3107 13.4097 21.205 13.4191 21.1102 13.4637C20.7859 13.6153 20.4906 13.6974 20.2332 13.7073H20.2329C19.8949 13.6942 19.7449 13.5503 19.7262 13.531C19.7345 13.3789 19.7444 13.2206 19.7546 13.0578L19.7562 13.0325L19.7596 12.9787C19.8374 11.7453 19.934 10.21 19.5433 9.33403C18.3723 6.70807 15.8844 6.50391 15.1499 6.50391H15.1067C15.1067 6.50391 14.8041 6.50711 14.7853 6.50711C14.0522 6.50711 11.5702 6.71127 10.3997 9.33563C10.0088 10.2111 10.1054 11.7453 10.1832 12.9794L10.1866 13.0348C10.1973 13.2059 10.2077 13.372 10.2166 13.5315C10.1967 13.5521 10.0337 13.7089 9.66064 13.7089C9.39034 13.7089 9.07745 13.6263 8.73001 13.4637C8.67027 13.4358 8.59932 13.4214 8.51898 13.4214C8.22487 13.4214 7.8614 13.6111 7.80968 13.8833C7.77924 14.0428 7.84332 14.3559 8.61534 14.661C8.68057 14.6869 8.76166 14.7128 8.84776 14.7403C8.85532 14.7427 8.86292 14.7451 8.87054 14.7475C9.25735 14.8702 9.84192 15.0558 10.0211 15.4779C10.1186 15.7084 10.0875 15.9897 9.92775 16.3136C9.92683 16.3153 9.92599 16.317 9.92522 16.3188C9.92465 16.3201 9.92412 16.3213 9.92363 16.3225C9.87488 16.4358 8.70392 19.1048 6.09306 19.5346C5.99648 19.5502 5.92758 19.6365 5.93307 19.7342C5.93491 19.7699 5.94406 19.8065 5.95917 19.8427C6.06743 20.0965 6.5538 20.4545 8.25233 20.7168C8.3979 20.7392 8.45169 20.953 8.52768 21.3004L8.52905 21.3067C8.55837 21.4402 8.58852 21.5775 8.63022 21.7197C8.67897 21.8861 8.79089 21.9086 8.89435 21.9086C8.99345 21.9086 9.12392 21.8832 9.27475 21.8536L9.27713 21.8532C9.52571 21.8047 9.86504 21.7385 10.2956 21.7385C10.5347 21.7385 10.7826 21.7591 11.0316 21.8003C11.5416 21.8854 11.9745 22.1911 12.433 22.5149L12.4342 22.5158C13.0989 22.9861 13.7862 23.4718 14.8572 23.4718C14.8876 23.4718 14.9181 23.4707 14.9474 23.4682C14.9934 23.4702 15.0389 23.4718 15.0856 23.4718C16.157 23.4718 16.8443 22.9859 17.5101 22.5149C17.9684 22.1908 18.4012 21.8855 18.9109 21.8003C19.1602 21.7591 19.408 21.7385 19.6477 21.7385C20.0581 21.7385 20.3806 21.7902 20.6683 21.8463C20.8305 21.8781 20.9583 21.8944 21.0484 21.8944H21.0695C21.1993 21.8944 21.2764 21.8365 21.3126 21.7129C21.3544 21.5703 21.3849 21.4346 21.4151 21.2965C21.498 20.9173 21.5517 20.7362 21.6909 20.715Z" fill="black"/>
</svg>
