<svg width="36" height="29" viewBox="0 0 36 29" fill="none" xmlns="http://www.w3.org/2000/svg">
<path d="M35.4505 3.4425C34.1457 4.02237 32.7457 4.41563 31.2748 4.5912C32.7767 3.68912 33.9264 2.2583 34.4713 0.558608C33.0625 1.39399 31.5073 2.00058 29.8503 2.32941C28.5234 0.90969 26.636 0.0253906 24.5426 0.0253906C20.5264 0.0253906 17.2699 3.29145 17.2699 7.31736C17.2699 7.88834 17.3342 8.44601 17.4583 8.97929C11.4151 8.67486 6.05643 5.77098 2.46996 1.35843C1.84302 2.43381 1.48638 3.68686 1.48638 5.02443C1.48638 7.55509 2.77123 9.788 4.72066 11.0944C3.52884 11.0544 2.40792 10.7256 1.4266 10.179V10.2701C1.4266 13.8028 3.93426 16.7511 7.25932 17.4221C6.65011 17.5865 6.00772 17.6776 5.34313 17.6776C4.87353 17.6776 4.41939 17.631 3.97411 17.5421C4.90006 20.4415 7.58498 22.55 10.7661 22.6078C8.27835 24.563 5.14155 25.725 1.73453 25.725C1.14751 25.725 0.569295 25.6895 0 25.625C3.21876 27.698 7.04007 28.9067 11.1471 28.9067C24.525 28.9067 31.8375 17.7932 31.8375 8.15501L31.8131 7.21075C33.2419 6.18864 34.478 4.90446 35.4505 3.4425Z" fill="white"/>
</svg>
