<svg width="14" height="14" viewBox="0 0 14 14" fill="none" xmlns="http://www.w3.org/2000/svg">
<path fill-rule="evenodd" clip-rule="evenodd" d="M13.7712 3.21639C13.6254 3.07073 13.4486 2.99783 13.2405 2.99783H9.99266C9.68048 2.99783 9.34727 3.1019 8.99347 3.3101V0.749547C8.99347 0.541297 8.92068 0.364219 8.77488 0.218613C8.62909 0.0728984 8.45223 0 8.24392 0H4.99639C4.78819 0 4.55916 0.0520352 4.30937 0.156078C4.05956 0.260148 3.86181 0.385109 3.71602 0.530852L0.530852 3.71604C0.385109 3.86176 0.260148 4.05956 0.156078 4.30935C0.0520352 4.55924 0 4.78811 0 4.99639V10.2425C0 10.4508 0.0728164 10.6279 0.218531 10.7734C0.364273 10.9192 0.54127 10.992 0.749383 10.992H4.99636V13.2405C4.99636 13.4486 5.06915 13.6256 5.21489 13.7712C5.36055 13.917 5.53755 13.9898 5.74574 13.9898H13.2404C13.4485 13.9898 13.6256 13.917 13.7712 13.7712C13.917 13.6256 13.9897 13.4486 13.9897 13.2405V3.74735C13.9898 3.53916 13.917 3.36213 13.7712 3.21639ZM8.99347 4.66071V6.99489H6.65924L8.99347 4.66071ZM3.99705 3.99703V1.66286L1.66288 3.99703H3.99705ZM5.52724 6.71385C5.3815 6.85959 5.25654 7.05739 5.15246 7.30723C5.04842 7.55718 4.99639 7.78597 4.99639 7.99427V9.99264H0.999332V4.99639H4.24684C4.45509 4.99639 4.63203 4.92354 4.77777 4.7778C4.92343 4.63206 4.99636 4.45512 4.99636 4.247V0.999332H7.99425V4.24698L5.52724 6.71385ZM5.99547 12.9906H12.9902V3.99705H9.99255V7.24475C9.99255 7.45292 9.91966 7.62989 9.77397 7.7755C9.62828 7.92129 9.45142 7.99408 9.24323 7.99408H5.99547V12.9906Z" fill="#296667"/>
</svg>
