<svg width="20" height="20" viewBox="0 0 20 20" fill="none" xmlns="http://www.w3.org/2000/svg">
<path fill-rule="evenodd" clip-rule="evenodd" d="M19.669 7.16105L16.8736 5.92292V0.439999C16.877 0.323077 16.8315 0.210053 16.7482 0.126967C16.6649 0.0438819 16.5506 -0.00200099 16.4323 0.000124861H3.52191C3.4032 -0.00270961 3.28861 0.042819 3.2051 0.126081C3.12159 0.209344 3.07651 0.3229 3.08046 0.439999V5.92292L0.285201 7.16105C0.117098 7.23244 0.00592671 7.3933 0 7.57382V18.1542C0 19.1565 0.836925 19.9548 1.85291 19.9548H18.1058C19.1219 19.9548 19.9587 19.1565 19.9587 18.1542V7.57382C19.949 7.3933 19.8369 7.23351 19.669 7.16105ZM19.0208 18.2722L12.9012 12.8254L19.0345 8.4626V18.1588C19.0321 18.1969 19.0277 18.2346 19.0208 18.2722ZM16.8736 8.85713L18.5517 7.66452L16.8736 6.91622V8.85713ZM15.954 0.907154V9.51472L10.5057 13.3969C10.1891 13.6236 9.76042 13.6236 9.44379 13.3969L4 9.51472V0.907154H15.954ZM0.91954 18.1588C0.921875 18.1983 0.926545 18.2376 0.933369 18.2768L7.05298 12.8254L0.91954 8.4626V18.1588ZM3.08046 8.85713L1.4023 7.66452L3.08046 6.91622V8.85713ZM1.50359 18.9888C1.6153 19.0291 1.73384 19.0492 1.85291 19.0477V19.0431H18.1013C18.2205 19.0472 18.3394 19.0272 18.4506 18.9841L12.1288 13.3652L11.053 14.1315C10.7405 14.3562 10.3637 14.477 9.97701 14.4763C9.59088 14.4747 9.21462 14.3542 8.90122 14.1315L7.82543 13.3652L1.50359 18.9888Z" fill="white"/>
<path d="M5.86675 2.90263H8.57024C8.82419 2.90263 9.03001 2.69962 9.03001 2.44912C9.03001 2.19862 8.82419 1.99561 8.57024 1.99561H5.86675C5.6128 1.99561 5.40698 2.19862 5.40698 2.44912C5.40698 2.69962 5.6128 2.90263 5.86675 2.90263Z" fill="white"/>
<path d="M5.86675 4.7166H14.0875C14.3414 4.7166 14.5472 4.51358 14.5472 4.26309C14.5472 4.01259 14.3414 3.80957 14.0875 3.80957H5.86675C5.6128 3.80957 5.40698 4.01259 5.40698 4.26309C5.40698 4.51358 5.6128 4.7166 5.86675 4.7166Z" fill="white"/>
<path d="M5.86675 6.53056H14.0875C14.3414 6.53056 14.5472 6.32755 14.5472 6.07705C14.5472 5.82655 14.3414 5.62354 14.0875 5.62354H5.86675C5.6128 5.62354 5.40698 5.82655 5.40698 6.07705C5.40698 6.32755 5.6128 6.53056 5.86675 6.53056Z" fill="white"/>
<path d="M5.86675 8.34502H14.0875C14.3414 8.34502 14.5472 8.142 14.5472 7.8915C14.5472 7.64101 14.3414 7.43799 14.0875 7.43799H5.86675C5.6128 7.43799 5.40698 7.64101 5.40698 7.8915C5.40698 8.142 5.6128 8.34502 5.86675 8.34502Z" fill="white"/>
<path d="M5.86675 10.159H14.0875C14.3414 10.159 14.5472 9.95596 14.5472 9.70547C14.5472 9.45497 14.3414 9.25195 14.0875 9.25195H5.86675C5.6128 9.25195 5.40698 9.45497 5.40698 9.70547C5.40698 9.95596 5.6128 10.159 5.86675 10.159Z" fill="white"/>
</svg>
