<svg width="30" height="30" viewBox="0 0 30 30" fill="none" xmlns="http://www.w3.org/2000/svg">
<path d="M28.2187 0.000488281H1.64852C0.738689 0.000488281 0 0.737701 0 1.64901V28.2192C0 29.1305 0.738689 29.8687 1.64852 29.8687H15.9531V18.302H12.061V13.7936H15.9531V10.469C15.9531 6.6118 18.3084 4.51032 21.75 4.51032C23.4 4.51032 24.8149 4.63377 25.2275 4.68737V8.71918L22.8403 8.72016C20.969 8.72016 20.608 9.60983 20.608 10.9146V13.7921H25.0726L24.4889 18.3H20.6075V29.8672H28.2182C29.129 29.8672 29.8682 29.128 29.8682 28.2192V1.64803C29.8677 0.737701 29.1295 0.000488281 28.2187 0.000488281Z" fill="black"/>
</svg>
