<svg width="22" height="13" viewBox="0 0 22 13" fill="none" xmlns="http://www.w3.org/2000/svg">
<path fill-rule="evenodd" clip-rule="evenodd" d="M0.359184 6.34615L0 0L4.75918 3.82636L11 0L16.9714 3.82636L22 0L21.1918 6.34615L11.0449 12.6923L0.359184 6.34615ZM1.87304 5.54701L1.69231 3.19658L4.76475 5.64103L11 1.69231L17.1449 5.64103L20.3077 3.19658L20.0366 5.26496L11 11L1.87304 5.54701Z" fill="white"/>
</svg>
