<svg width="19" height="19" viewBox="0 0 19 19" fill="none" xmlns="http://www.w3.org/2000/svg">
<path fill-rule="evenodd" clip-rule="evenodd" d="M16.6835 7.2748L18.0163 7.5009C18.5835 7.59609 18.996 8.08399 18.9881 8.65914V10.3291C18.9881 10.9042 18.5756 11.3921 18.0084 11.4873L16.6756 11.7095C16.5407 12.1537 16.3582 12.5861 16.1401 13.0026L16.9255 14.1053C17.2587 14.5733 17.2031 15.212 16.7985 15.6166L15.6165 16.7986C15.3944 17.0207 15.1008 17.1437 14.7875 17.1437C14.5415 17.1437 14.3035 17.0683 14.1052 16.9255L13.0065 16.1401C12.5939 16.3583 12.1616 16.5368 11.7134 16.6756L11.4873 18.0084C11.3921 18.5756 10.9042 18.9882 10.329 18.9882H8.65512C8.07996 18.9882 7.59207 18.5756 7.49687 18.0084L7.27474 16.6756C6.84238 16.5408 6.42192 16.3702 6.02129 16.16L4.90668 16.9533C4.70835 17.0961 4.47432 17.1715 4.22839 17.1715C3.91503 17.1715 3.6215 17.0485 3.39937 16.8264L2.21733 15.6443C1.80877 15.2397 1.7572 14.6011 2.0904 14.133L2.87182 13.0462C2.64969 12.6337 2.46722 12.2013 2.32839 11.7571L0.97975 11.527C0.412526 11.4318 0 10.9439 0 10.3687V8.69881C0 8.12365 0.412526 7.63576 0.97975 7.54056L2.29666 7.31843C2.43152 6.87021 2.60605 6.43785 2.82422 6.02136L2.0309 4.90674C1.6977 4.43868 1.75324 3.80006 2.15783 3.39547L3.34384 2.21342C3.562 1.99129 3.8595 1.86833 4.17286 1.86833C4.41879 1.86833 4.65679 1.94369 4.85511 2.08649L5.94593 2.87188C6.35846 2.64975 6.79081 2.46728 7.23507 2.32845L7.46514 0.979811C7.56033 0.412587 8.04823 6.10352e-05 8.62338 6.10352e-05H10.2933C10.8685 6.10352e-05 11.3564 0.412587 11.4516 0.979811L11.6737 2.29672C12.1378 2.43555 12.586 2.62198 13.0144 2.84808L14.1171 2.06269C14.3154 1.91989 14.5495 1.84453 14.7954 1.84453C15.1088 1.84453 15.4023 1.96749 15.6244 2.18962L16.8065 3.37167C17.215 3.77626 17.2666 4.41488 16.9334 4.88294L16.148 5.98169C16.3662 6.39422 16.5447 6.82657 16.6835 7.2748ZM17.8378 10.4322C17.8894 10.4243 17.9251 10.3806 17.9251 10.3291H17.929V8.65914C17.929 8.60758 17.8933 8.56394 17.8418 8.55601L16.1758 8.27438C15.9695 8.24265 15.799 8.08795 15.7474 7.88169C15.5967 7.2986 15.3666 6.73931 15.0572 6.21969C14.9501 6.03722 14.958 5.80716 15.081 5.6366L16.0608 4.26019C16.0885 4.21655 16.0846 4.16102 16.0489 4.12532L14.8668 2.94328C14.839 2.91551 14.8073 2.91154 14.7914 2.91154C14.7716 2.91154 14.7518 2.91948 14.7319 2.93138L13.3635 3.91509C13.1889 4.03806 12.9628 4.04599 12.7804 3.93889C12.2489 3.62553 11.6777 3.3915 11.0787 3.24077C10.8724 3.1892 10.7177 3.01864 10.682 2.80841L10.4044 1.15434C10.3965 1.10277 10.3528 1.06708 10.3013 1.06708H8.63132C8.57975 1.06708 8.53612 1.10277 8.52818 1.15434L8.24259 2.83221C8.20689 3.03847 8.05219 3.20507 7.8499 3.2606C7.26681 3.41133 6.70752 3.64933 6.19186 3.95872C6.00939 4.06582 5.77933 4.05789 5.6048 3.93493L4.23633 2.95914C4.22046 2.94724 4.20063 2.93931 4.17683 2.93931C4.15699 2.93931 4.12923 2.94328 4.10146 2.97104L2.91942 4.15309C2.88372 4.18879 2.87975 4.24829 2.90752 4.28795L3.8952 5.67626C4.01816 5.84683 4.03006 6.07292 3.92296 6.25538C3.61754 6.77501 3.39144 7.33827 3.24468 7.92136C3.19311 8.12762 3.02255 8.28232 2.81232 8.31802L1.15825 8.59568C1.10668 8.60361 1.07098 8.64724 1.07098 8.69881V10.3687C1.07098 10.4203 1.10668 10.4639 1.15825 10.4719L2.83612 10.7575C3.04238 10.7932 3.20898 10.9479 3.26451 11.1502C3.41524 11.7333 3.65324 12.2925 3.96263 12.8082C4.06973 12.9907 4.0618 13.2207 3.93883 13.3953L2.96305 14.7637C2.93528 14.8074 2.93925 14.8629 2.97495 14.8986L4.15699 16.0806C4.18476 16.1084 4.21649 16.1124 4.23236 16.1124C4.25219 16.1124 4.27203 16.1044 4.29186 16.0925L5.68017 15.1049C5.7714 15.0374 5.88246 15.0057 5.98956 15.0057C6.08079 15.0057 6.17599 15.0295 6.25929 15.0771C6.77098 15.3706 7.31837 15.5967 7.8856 15.7435C8.08789 15.795 8.24259 15.9616 8.27829 16.1719L8.55595 17.8378C8.56388 17.8894 8.60752 17.9251 8.65908 17.9251H10.329C10.3806 17.9251 10.4242 17.8894 10.4321 17.8378L10.7138 16.1719C10.7455 15.9656 10.9002 15.795 11.1065 15.7435C11.6896 15.5928 12.2489 15.3627 12.7685 15.0533C12.9509 14.9462 13.181 14.9541 13.3516 15.0771L14.728 16.0568C14.7438 16.0687 14.7637 16.0767 14.7875 16.0767C14.8073 16.0767 14.8351 16.0727 14.8628 16.0449L16.0449 14.8629C16.0806 14.8272 16.0846 14.7677 16.0568 14.728L15.077 13.3477C14.9541 13.1731 14.9461 12.947 15.0532 12.7646C15.3626 12.2449 15.5927 11.6857 15.7434 11.1026C15.795 10.9003 15.9616 10.7456 16.1718 10.7099L17.8378 10.4322Z" fill="black"/>
<path fill-rule="evenodd" clip-rule="evenodd" d="M5.39854 9.49209C5.39854 7.23113 7.23507 5.39459 9.49603 5.39459C11.757 5.39459 13.5935 7.23113 13.5935 9.49209C13.5935 11.753 11.757 13.5896 9.49603 13.5896C7.23507 13.5896 5.39854 11.753 5.39854 9.49209ZM6.46952 9.49209C6.46952 11.162 7.82609 12.5186 9.49603 12.5186C11.166 12.5186 12.5225 11.162 12.5225 9.49209C12.5225 7.82215 11.166 6.46557 9.49603 6.46557C7.82609 6.46557 6.46952 7.82215 6.46952 9.49209Z" fill="black"/>
</svg>
