<svg width="22" height="6" viewBox="0 0 22 6" fill="none" xmlns="http://www.w3.org/2000/svg">
<path opacity="0.531785" fill-rule="evenodd" clip-rule="evenodd" d="M5.7037 2.85185C5.7037 4.42689 4.42689 5.7037 2.85185 5.7037C1.27682 5.7037 0 4.42689 0 2.85185C0 1.27682 1.27682 0 2.85185 0C4.42689 0 5.7037 1.27682 5.7037 2.85185ZM11 5.7037C12.575 5.7037 13.8519 4.42689 13.8519 2.85185C13.8519 1.27682 12.575 0 11 0C9.42497 0 8.14815 1.27682 8.14815 2.85185C8.14815 4.42689 9.42497 5.7037 11 5.7037ZM19.1481 5.7037C20.7232 5.7037 22 4.42689 22 2.85185C22 1.27682 20.7232 0 19.1481 0C17.5731 0 16.2963 1.27682 16.2963 2.85185C16.2963 4.42689 17.5731 5.7037 19.1481 5.7037Z" fill="white"/>
</svg>
