<svg width="16" height="16" viewBox="0 0 16 16" fill="none" xmlns="http://www.w3.org/2000/svg">
<path fill-rule="evenodd" clip-rule="evenodd" d="M0 7.99374C0 3.57898 3.57913 0 7.99374 0C12.4087 0 15.9875 3.57898 15.9875 7.99374C15.9875 12.4085 12.4088 15.9875 7.99374 15.9875C3.57913 15.9875 0 12.4085 0 7.99374ZM3.00755 8.58031L6.52736 12.1L12.9799 5.64725L11.8068 4.47408L6.52736 9.75363L4.18072 7.40714L3.00755 8.58031Z" fill="#6AC259"/>
</svg>
