<svg width="12" height="13" viewBox="0 0 12 13" fill="none" xmlns="http://www.w3.org/2000/svg">
<path d="M11.9391 10.7968L10.4712 7.64893C9.66063 8.8291 8.3951 9.66948 6.93018 9.9243L8.15898 12.5593C8.31608 12.8965 8.80228 12.874 8.9288 12.5258L9.55863 10.7957L9.68843 10.7352L11.4186 11.365C11.7657 11.4924 12.096 11.1326 11.9391 10.7968Z" fill="#A3A3A3"/>
<path fill-rule="evenodd" clip-rule="evenodd" d="M1.41211 4.5879C1.41211 2.05813 3.47036 0 6.00001 0C8.52968 0 10.5879 2.05813 10.5879 4.5879C10.5879 7.11767 8.52966 9.1758 6.00001 9.1758C3.47038 9.1758 1.41211 7.11767 1.41211 4.5879ZM7.41883 5.04385L8.23236 4.2508C8.47961 4.00973 8.34241 3.58892 8.00131 3.53937L6.87688 3.37605L6.37398 2.35722C6.22163 2.04755 5.77833 2.04782 5.62616 2.35722L5.12326 3.37605L3.99883 3.53937C3.65768 3.58895 3.52046 4.00972 3.76771 4.25077L4.58123 5.04383L4.38898 6.16393C4.33053 6.504 4.68878 6.76395 4.99426 6.60355L6.00003 6.07487L7.00581 6.60357C7.30953 6.76285 7.66986 6.50592 7.61108 6.16395L7.41883 5.04385Z" fill="#A3A3A3"/>
<path d="M1.52888 7.64893L0.0609786 10.7968C-0.0966465 11.1342 0.236554 11.492 0.581504 11.3649L2.3116 10.7351L2.4414 10.7956L3.07123 12.5258C3.1975 12.8732 3.68363 12.8972 3.84105 12.5593L5.06985 9.92428C3.60493 9.66948 2.33943 8.82913 1.52888 7.64893Z" fill="#A3A3A3"/>
</svg>
