<svg width="20" height="20" viewBox="0 0 20 20" fill="none" xmlns="http://www.w3.org/2000/svg">
<path fill-rule="evenodd" clip-rule="evenodd" d="M2.04202 10.0138C2.04202 5.63771 5.60973 2.078 9.99605 2.078C14.3822 2.078 17.9501 5.63771 17.9501 10.0138C17.9501 14.3899 14.3822 17.9496 9.99605 17.9496C5.60973 17.9496 2.04202 14.3899 2.04202 10.0138ZM17.0167 10.4725H15.5593C15.3041 10.4725 15.0972 10.2661 15.0972 10.0115C15.0972 9.75683 15.3041 9.55041 15.5593 9.55041H17.0167C16.9145 8.00941 16.3053 6.54528 15.2834 5.38541L14.2581 6.40821C14.1706 6.49314 14.0535 6.5408 13.9316 6.54134C13.8093 6.54295 13.6914 6.49493 13.6052 6.40821C13.519 6.32256 13.4707 6.20626 13.4707 6.08496C13.4707 5.96347 13.519 5.84718 13.6052 5.76152L14.6304 4.73855C13.4695 3.7163 12.0009 3.10814 10.4558 3.00923V4.46332C10.4558 4.71669 10.2498 4.92204 9.99605 4.92204C9.74209 4.92204 9.53628 4.71669 9.53628 4.46332V3.00923C7.99174 3.11101 6.52406 3.71899 5.36153 4.73855L6.38685 5.766C6.47288 5.85183 6.52119 5.96813 6.52119 6.08944C6.52119 6.21074 6.47288 6.32721 6.38685 6.41287C6.29939 6.4978 6.18229 6.54546 6.06034 6.54582C5.93786 6.54761 5.82022 6.49959 5.73383 6.41287L4.70869 5.38989C3.68408 6.54833 3.07435 8.01335 2.97521 9.55507H4.43283C4.6866 9.55507 4.8926 9.76041 4.8926 10.0138C4.8926 10.2672 4.6866 10.4725 4.43283 10.4725H2.97521C3.0774 12.0135 3.6866 13.4776 4.70869 14.6377L5.74317 13.6194C5.92205 13.4407 6.21228 13.4407 6.39134 13.6194C6.5704 13.7978 6.5704 14.0874 6.39134 14.266L5.36602 15.289C6.52712 16.3113 7.99551 16.9194 9.54077 17.0183V15.5642C9.54077 15.3109 9.74658 15.1055 10.0005 15.1055C10.2545 15.1055 10.4603 15.3109 10.4603 15.5642V17.0139C12.0048 16.9119 13.4725 16.3041 14.6351 15.2844L13.6097 14.2616C13.4307 14.0829 13.4307 13.7933 13.6097 13.6147C13.7888 13.4361 14.079 13.4361 14.2581 13.6147L15.2834 14.6377C16.3078 13.4792 16.9176 12.0142 17.0167 10.4725Z" fill="#3B5ECB"/>
<path d="M10.4558 9.75686V6.75693C10.4558 6.50356 10.2498 6.29822 9.99605 6.29822C9.7421 6.29822 9.53628 6.50356 9.53628 6.75693V9.92207C9.53538 10.0294 9.57292 10.1333 9.64188 10.2156L12.0327 13.0596C12.1198 13.165 12.2498 13.2257 12.3869 13.2248C12.4941 13.2241 12.5979 13.1868 12.681 13.1193C12.7744 13.041 12.8328 12.9286 12.8432 12.8073C12.8534 12.686 12.815 12.5656 12.7362 12.4726L10.4558 9.75686Z" fill="#3B5ECB"/>
<path fill-rule="evenodd" clip-rule="evenodd" d="M0.770116 6.19672C2.31573 2.47378 5.9569 0.0463486 9.99605 0.045811C12.646 0.0388228 15.1888 1.08921 17.058 2.96331C20.9583 6.85469 20.9583 13.1636 17.058 17.055C13.1577 20.9464 6.83423 20.9464 2.93391 17.055C0.0783057 14.2051 -0.775681 9.91984 0.770116 6.19672ZM0.92475 10.0137C0.92475 15.0046 4.99372 19.0642 9.99605 19.0642C14.9982 19.0642 19.0672 15.0046 19.0672 10.0137C19.0672 5.02287 14.9982 0.963242 9.99605 0.963242C4.99372 0.963242 0.92475 5.02287 0.92475 10.0137Z" fill="#3B5ECB"/>
</svg>
