<svg width="30" height="30" viewBox="0 0 30 30" fill="none" xmlns="http://www.w3.org/2000/svg">
<g id="Group 18">
<g id="Group 7">
<path id="Oval 4" fill-rule="evenodd" clip-rule="evenodd" d="M15 30C23.2843 30 30 23.2843 30 15C30 6.71573 23.2843 0 15 0C6.71573 0 0 6.71573 0 15C0 23.2843 6.71573 30 15 30Z" fill="#F6F3D0"/>
</g>
<g id="86934">
<path id="Shape" fill-rule="evenodd" clip-rule="evenodd" d="M20.2571 13.6755L17.4053 16.5285C16.9362 16.9964 16.3132 17.2551 15.6499 17.2551C14.9872 17.2551 14.3642 16.9964 13.8951 16.5273C13.6531 16.2847 13.6531 15.8932 13.8958 15.6499C14.1384 15.4079 14.5305 15.4079 14.7732 15.6505C15.2416 16.1196 16.0588 16.1196 16.5273 15.6499L19.3798 12.7981C19.6143 12.5642 19.7434 12.2527 19.7434 11.9214C19.7434 11.5894 19.6143 11.2779 19.3798 11.044L18.9411 10.6046C18.7065 10.3701 18.395 10.241 18.0637 10.241C17.7323 10.241 17.4208 10.3701 17.1863 10.6046L15.9546 11.8363C15.712 12.0796 15.3192 12.0796 15.0766 11.8357C14.8346 11.5943 14.8346 11.2022 15.0772 10.9589L16.3089 9.72724C16.7774 9.25813 17.401 9 18.0637 9C18.7264 9 19.3493 9.25813 19.8184 9.72721L20.2571 10.1671C20.7262 10.635 20.9844 11.258 20.9844 11.9213C20.9844 12.584 20.7262 13.207 20.2571 13.6755ZM15.2112 14.3351C14.7428 13.8654 13.9256 13.8654 13.4565 14.3351C13.4565 14.3351 10.604 17.1869 10.604 17.1869C10.1207 17.6702 10.1207 18.4577 10.604 18.9416L11.0427 19.3803C11.5124 19.8495 12.329 19.8495 12.7975 19.3803L14.1458 18.0332C14.3885 17.79 14.7806 17.79 15.0232 18.0332C15.2659 18.2752 15.2659 18.6674 15.0232 18.91L13.6749 20.2577C13.2064 20.7256 12.5834 20.985 11.9207 20.985C11.2574 20.985 10.6344 20.7269 10.1653 20.2571L9.72663 19.8191C8.75865 18.8517 8.75865 17.2769 9.72663 16.3095L12.5791 13.4564C13.0475 12.988 13.6712 12.7298 14.3339 12.7298C14.9965 12.7298 15.6201 12.988 16.0892 13.4577L16.5273 13.8957C16.7699 14.1384 16.7699 14.5311 16.5273 14.7731C16.2847 15.0164 15.8925 15.0164 15.6499 14.7731L15.2112 14.3351Z" fill="#E0D321"/>
</g>
</g>
</svg>
