<svg width="20" height="18" viewBox="0 0 20 18" fill="none" xmlns="http://www.w3.org/2000/svg">
<path fill-rule="evenodd" clip-rule="evenodd" d="M8.07374 8.45492C8.07374 7.30073 8.98552 6.36511 10.1102 6.36511C11.2349 6.36511 12.1467 7.30073 12.1467 8.45492C12.1467 9.60911 11.2349 10.5447 10.1102 10.5447C8.98548 10.5447 8.07374 9.60906 8.07374 8.45492ZM9.04348 8.45487C9.04348 9.05945 9.52107 9.54954 10.1102 9.54954C10.6994 9.54954 11.1769 9.05945 11.1769 8.45487C11.1769 7.8503 10.6994 7.36021 10.1102 7.36021C9.52107 7.36021 9.04348 7.8503 9.04348 8.45487Z" fill="#D8384A"/>
<path fill-rule="evenodd" clip-rule="evenodd" d="M4.99485 0.0460503L18.2318 1.58848C19.2995 1.71853 20.0668 2.70553 19.9531 3.80272L18.8379 13.9034C18.7792 14.4268 18.5277 14.9074 18.1348 15.2468C17.858 15.4437 17.5443 15.5793 17.2136 15.6449V16.0429C17.2136 17.1376 16.2439 17.9834 15.1771 17.9834H1.86742C1.84292 17.9838 1.81837 17.9836 1.79387 17.983C0.77661 17.9554 -0.0262202 17.0868 0.000647541 16.0429V5.86762C0.000647541 4.77296 0.800694 3.80272 1.86742 3.80272H2.61902L2.86144 1.76267C2.91457 1.25129 3.16844 0.784146 3.5645 0.469003C3.9606 0.125003 4.48111 -0.0289021 4.99485 0.0460503ZM15.1771 16.9883C15.7105 16.9883 16.2439 16.5902 16.2439 16.0429H16.2439V11.2165L11.4679 14.0526C11.1168 14.2692 10.7139 14.3812 10.3042 14.376C9.78028 14.3678 9.27513 14.1745 8.87383 13.8287L6.23127 11.4404C5.8154 11.0417 5.17958 11.0101 4.72817 11.3658L0.970392 14.2019V16.0429C0.969 16.0684 0.968675 16.0939 0.969418 16.1193C0.983571 16.6138 1.38561 17.0028 1.86742 16.9883H15.1771ZM16.2439 10.0472L10.9587 13.2068C10.5049 13.4827 9.93049 13.4327 9.52835 13.0824L6.86158 10.6691C6.09726 9.99519 4.98014 9.95386 4.17053 10.5696L0.970392 12.958V5.86762C0.970392 5.32029 1.33406 4.79786 1.86742 4.79786H15.1771C15.747 4.8221 16.2071 5.28362 16.2439 5.86762V10.0472ZM18.9833 3.67829L18.9843 3.66838C19.0349 3.12124 18.6438 2.63557 18.1107 2.58362L4.89791 1.01629C4.64028 0.994146 4.3832 1.06448 4.17058 1.21534C3.98227 1.38319 3.85424 1.61091 3.80691 1.86219L3.58872 3.80272H15.1771C16.2819 3.82838 17.1753 4.73424 17.2135 5.86762V14.6497C17.2135 14.6254 17.2657 14.601 17.3304 14.5709C17.398 14.5394 17.4792 14.5015 17.5287 14.4507C17.7295 14.2889 17.8458 14.0409 17.8439 13.779L18.9833 3.67829Z" fill="#D8384A"/>
</svg>
