<svg width="16" height="20" viewBox="0 0 16 20" fill="none" xmlns="http://www.w3.org/2000/svg">
<path fill-rule="evenodd" clip-rule="evenodd" d="M13.6471 7.34375H12.2338V4.13164C12.2338 1.85344 10.3339 0 7.99855 0C5.66322 0 3.76325 1.85344 3.76325 4.13164V7.34375H2.35294C1.05553 7.34375 0 8.39516 0 9.6875V17.6562C0 18.9486 1.05553 20 2.35294 20H13.6471C14.9445 20 16 18.9486 16 17.6562V9.6875C16 8.39516 14.9445 7.34375 13.6471 7.34375ZM5.33188 4.13164C5.33188 2.715 6.52816 1.5625 7.99855 1.5625C9.46894 1.5625 10.6652 2.715 10.6652 4.13164V7.34375H5.33188V4.13164ZM13.6471 18.4375C14.0795 18.4375 14.4314 18.087 14.4314 17.6562V9.6875C14.4314 9.25672 14.0795 8.90625 13.6471 8.90625H2.35294C1.92047 8.90625 1.56863 9.25672 1.56863 9.6875V17.6562C1.56863 18.087 1.92047 18.4375 2.35294 18.4375H13.6471Z" fill="black"/>
<path d="M8.00005 11.1719C7.19868 11.1719 6.54907 11.8189 6.54907 12.6172C6.54907 13.1269 6.81417 13.5746 7.21429 13.832V15.5469C7.21429 15.9783 7.56543 16.3281 7.9986 16.3281C8.43174 16.3281 8.78292 15.9783 8.78292 15.5469V13.8338C9.18464 13.5768 9.45103 13.1281 9.45103 12.6172C9.45103 11.8189 8.80143 11.1719 8.00005 11.1719Z" fill="black"/>
</svg>
