<?xml version="1.0" encoding="UTF-8"?>
<svg width="30px" height="30px" viewBox="0 0 30 30" version="1.1" xmlns="http://www.w3.org/2000/svg" xmlns:xlink="http://www.w3.org/1999/xlink">
    <!-- Generator: Sketch 51.1 (57501) - http://www.bohemiancoding.com/sketch -->
    <title>1384050</title>
    <desc>Created with Sketch.</desc>
    <defs></defs>
    <g id="minime" stroke="none" stroke-width="1" fill="none" fill-rule="evenodd">
        <g id="6a_minime_-_create_deep_link" transform="translate(-773.000000, -601.000000)">
            <g id="1384050" transform="translate(773.000000, 601.000000)">
                <path d="M27.83638,-2.67563749e-14 L2.16361998,-2.67563749e-14 C0.96862793,-2.67563749e-14 2.84217094e-14,0.96862793 2.84217094e-14,2.16361998 L2.84217094e-14,27.83638 C2.84217094e-14,29.0313721 0.96862793,30 2.16361998,30 L27.83638,30 C29.0313721,30 30,29.0313721 30,27.83638 L30,2.16361998 C30,0.96862793 29.0313721,-2.84217094e-14 27.83638,-2.67563749e-14 Z M23.9833832,19.8431396 C23.8753509,20.0949097 23.3896637,20.452652 21.6909027,20.7149505 C21.5517425,20.7362366 21.4979554,20.9172821 21.4151001,21.2965393 C21.3848877,21.434555 21.3544464,21.570282 21.312561,21.7128754 C21.2763977,21.8364715 21.1992645,21.8943786 21.0694886,21.8943786 L21.0484314,21.8943786 C20.958252,21.8943786 20.8305359,21.8781281 20.6682587,21.8463135 C20.3805542,21.7902374 20.0580597,21.7385101 19.6476745,21.7385101 C19.4080353,21.7385101 19.1601563,21.7591095 18.9109039,21.8003082 C18.4011841,21.8854523 17.9683685,22.1907806 17.5101471,22.5148773 C16.8443298,22.9859162 16.1569977,23.4718323 15.0856018,23.4718323 C15.0389099,23.4718323 14.9933624,23.4702301 14.9473571,23.4681702 C14.9180603,23.4706879 14.887619,23.4718323 14.8571777,23.4718323 C13.7862396,23.4718323 13.0989075,22.986145 12.4342346,22.5157928 C11.9753265,22.1916962 11.5420532,21.8854523 11.0316468,21.8003082 C10.7826233,21.7591095 10.5347443,21.7385101 10.2955628,21.7385101 C9.86366273,21.7385101 9.5235443,21.8051147 9.27474973,21.8536377 C9.12391664,21.8831634 8.99345396,21.9085693 8.89434814,21.9085693 C8.79089355,21.9085693 8.67897035,21.8861389 8.63021848,21.7197418 C8.58787535,21.5753174 8.55743408,21.4359284 8.52767941,21.3004303 C8.4516907,20.9529877 8.39790346,20.7392121 8.25233461,20.7167816 C6.55380246,20.454483 6.06742857,20.0965119 5.95916748,19.8426819 C5.94406125,19.8065186 5.93490598,19.7698975 5.93307492,19.7341919 C5.92758176,19.6364593 5.99647523,19.5501709 6.09306334,19.5346069 C8.70391846,19.1047669 9.87487793,16.4357757 9.92362975,16.3224792 C9.92477414,16.3197327 9.92614746,16.3165283 9.92774965,16.3135529 C10.0875091,15.9896851 10.1186371,15.7083893 10.0211334,15.4779053 C9.84191895,15.0558472 9.25735477,14.870224 8.87054443,14.7475433 C8.77601625,14.7173309 8.68629457,14.6891784 8.61534117,14.661026 C7.84332275,14.3559265 7.77923584,14.0428161 7.80967711,13.8832855 C7.86140443,13.611145 8.22486879,13.421402 8.51898193,13.421402 C8.59931947,13.421402 8.67027281,13.4358216 8.73001102,13.4637451 C9.07745361,13.6262512 9.3903351,13.7088776 9.66064453,13.7088776 C10.033722,13.7088776 10.1966858,13.5520935 10.2165985,13.5314941 C10.2067566,13.3547974 10.1950836,13.1700897 10.1831818,12.9794312 C10.105362,11.7453003 10.0087738,10.2111053 10.399704,9.33563232 C11.5702057,6.71127316 14.0522003,6.50711062 14.7853089,6.50711062 C14.8040771,6.50711062 15.1066589,6.50390625 15.1066589,6.50390625 L15.1499176,6.50390625 C15.8843994,6.50390625 18.372345,6.70806885 19.5433044,9.33403014 C19.9340057,10.2099609 19.8374176,11.7453003 19.7595978,12.9787445 L19.7561646,13.0325317 C19.7454071,13.2041931 19.7348786,13.371048 19.726181,13.5310364 C19.7449494,13.5502624 19.8948669,13.6942291 20.2329254,13.7072754 L20.2331543,13.7072754 C20.4906463,13.6974335 20.7859039,13.6152649 21.1102295,13.4637451 C21.2049866,13.4191131 21.31073,13.409729 21.38237,13.409729 C21.4924622,13.409729 21.6034699,13.4312439 21.6957093,13.4694671 L21.7016602,13.4719849 C21.9637298,13.5649109 22.1356201,13.7484741 22.1392822,13.9407349 C22.1427155,14.1215515 22.0044708,14.3934632 21.3274383,14.661026 C21.2571716,14.6887207 21.1674499,14.7171021 21.0722351,14.7473145 C20.6849671,14.8699951 20.1008606,15.0558472 19.9216461,15.4776764 C19.8239136,15.7083893 19.8550415,15.9892273 20.0150299,16.3130951 C20.0164032,16.3162995 20.0180054,16.3192749 20.0193786,16.3224792 C20.0679016,16.4357757 21.2374878,19.1038513 23.849945,19.5343781 C23.9463043,19.5501709 24.0154266,19.6364593 24.0099335,19.7337341 C24.0078735,19.7703552 23.9989471,19.8072052 23.9833832,19.8431396 Z" id="Shape" fill="#FFFC01" fill-rule="nonzero"></path>
                <path d="M23.9833832,19.8431396 C23.8753509,20.0949097 23.3896637,20.452652 21.6909027,20.7149505 C21.5517425,20.7362366 21.4979554,20.9172821 21.4151001,21.2965393 C21.3848877,21.434555 21.3544464,21.570282 21.312561,21.7128754 C21.2763977,21.8364715 21.1992645,21.8943786 21.0694886,21.8943786 L21.0484314,21.8943786 C20.958252,21.8943786 20.8305359,21.8781281 20.6682587,21.8463135 C20.3805542,21.7902374 20.0580597,21.7385101 19.6476745,21.7385101 C19.4080353,21.7385101 19.1601562,21.7591095 18.9109039,21.8003082 C18.4011841,21.8854523 17.9683685,22.1907806 17.5101471,22.5148773 C16.8443298,22.9859162 16.1569977,23.4718323 15.0856018,23.4718323 C15.0389099,23.4718323 14.9933624,23.4702301 14.9473571,23.4681702 C14.9180603,23.4706879 14.887619,23.4718323 14.8571777,23.4718323 C13.7862396,23.4718323 13.0989075,22.986145 12.4342346,22.5157928 C11.9753265,22.1916962 11.5420532,21.8854523 11.0316468,21.8003082 C10.7826233,21.7591095 10.5347443,21.7385101 10.2955628,21.7385101 C9.86366273,21.7385101 9.5235443,21.8051147 9.27474973,21.8536377 C9.12391664,21.8831634 8.99345396,21.9085693 8.89434814,21.9085693 C8.79089355,21.9085693 8.67897035,21.8861389 8.63021848,21.7197418 C8.58787535,21.5753174 8.55743408,21.4359284 8.52767941,21.3004303 C8.4516907,20.9529877 8.39790346,20.7392121 8.25233461,20.7167816 C6.55380246,20.454483 6.06742857,20.0965119 5.95916748,19.8426819 C5.94406125,19.8065186 5.93490598,19.7698975 5.93307492,19.7341919 C5.92758176,19.6364593 5.99647523,19.5501709 6.09306334,19.5346069 C8.70391846,19.1047669 9.87487793,16.4357757 9.92362975,16.3224792 C9.92477414,16.3197327 9.92614746,16.3165283 9.92774965,16.3135529 C10.0875091,15.9896851 10.1186371,15.7083893 10.0211334,15.4779053 C9.84191895,15.0558472 9.25735477,14.870224 8.87054443,14.7475433 C8.77601625,14.7173309 8.68629457,14.6891784 8.61534117,14.661026 C7.84332275,14.3559265 7.77923584,14.0428161 7.80967711,13.8832855 C7.86140443,13.611145 8.22486879,13.421402 8.51898193,13.421402 C8.59931947,13.421402 8.67027281,13.4358216 8.73001102,13.4637451 C9.07745361,13.6262512 9.3903351,13.7088776 9.66064453,13.7088776 C10.033722,13.7088776 10.1966858,13.5520935 10.2165985,13.5314941 C10.2067566,13.3547974 10.1950836,13.1700897 10.1831818,12.9794312 C10.105362,11.7453003 10.0087738,10.2111053 10.399704,9.33563232 C11.5702057,6.71127316 14.0522003,6.50711063 14.7853089,6.50711063 C14.8040771,6.50711063 15.1066589,6.50390625 15.1066589,6.50390625 L15.1499176,6.50390625 C15.8843994,6.50390625 18.372345,6.70806885 19.5433044,9.33403014 C19.9340057,10.2099609 19.8374176,11.7453003 19.7595978,12.9787445 L19.7561646,13.0325317 C19.7454071,13.2041931 19.7348786,13.371048 19.726181,13.5310364 C19.7449494,13.5502624 19.8948669,13.6942291 20.2329254,13.7072754 L20.2331543,13.7072754 C20.4906463,13.6974335 20.7859039,13.6152649 21.1102295,13.4637451 C21.2049866,13.4191131 21.31073,13.409729 21.38237,13.409729 C21.4924622,13.409729 21.6034699,13.4312439 21.6957093,13.4694671 L21.7016602,13.4719849 C21.9637298,13.5649109 22.1356201,13.7484741 22.1392822,13.9407349 C22.1427155,14.1215515 22.0044708,14.3934632 21.3274383,14.661026 C21.2571716,14.6887207 21.1674499,14.7171021 21.0722351,14.7473145 C20.6849671,14.8699951 20.1008606,15.0558472 19.9216461,15.4776764 C19.8239136,15.7083893 19.8550415,15.9892273 20.0150299,16.3130951 C20.0164032,16.3162995 20.0180054,16.3192749 20.0193786,16.3224792 C20.0679016,16.4357757 21.2374878,19.1038513 23.849945,19.5343781 C23.9463043,19.5501709 24.0154266,19.6364593 24.0099335,19.7337341 C24.0078735,19.7703552 23.9989471,19.8072052 23.9833832,19.8431396 Z" id="Path" stroke="#000000"></path>
            </g>
        </g>
    </g>
</svg>