<svg width="20" height="22" viewBox="0 0 20 22" fill="none" xmlns="http://www.w3.org/2000/svg">
<path fill-rule="evenodd" clip-rule="evenodd" d="M14.9762 5.36018V9.52362C17.8157 10.1151 19.9958 12.6553 19.9911 15.6953C19.9911 19.1755 17.1561 22 13.6846 22C11.3994 22 9.39327 20.7712 8.28963 18.9371H2.45473C1.09006 18.9371 0 17.8413 0 16.4748V2.48061C0 1.11417 1.09006 0 2.45473 0H9.84677C9.97033 0 10.0941 0.0505218 10.1811 0.142166L14.8434 5.04379C14.9212 5.13091 14.9762 5.24101 14.9762 5.36018ZM13.4328 4.90616L10.3048 1.60948V3.80122C10.3048 4.40648 10.7994 4.90616 11.4039 4.90616H13.4328ZM2.45473 18.02C1.59838 18.02 0.916041 17.3322 0.916041 16.4748V2.48061C0.916041 1.61855 1.59838 0.917114 2.45473 0.917114H9.38875V3.80122C9.38875 4.91539 10.291 5.82327 11.4039 5.82327H14.0602V9.40428C14.0004 9.40231 13.9457 9.39858 13.8933 9.39501L13.8933 9.395C13.8253 9.39037 13.761 9.38599 13.6938 9.38599C12.0955 9.38599 10.6253 10.0005 9.517 10.9634H3.70054C3.44857 10.9634 3.24252 11.1697 3.24252 11.4218C3.24252 11.6741 3.44857 11.8804 3.70054 11.8804H8.66517C8.33993 12.3389 8.06968 12.7975 7.85911 13.3018H3.70054C3.44857 13.3018 3.24252 13.5081 3.24252 13.7604C3.24252 14.0125 3.44857 14.219 3.70054 14.219H7.56136C7.44686 14.6775 7.38734 15.1864 7.38734 15.6953C7.38734 16.5206 7.54761 17.3369 7.83614 18.0247H2.45473V18.02ZM8.30791 15.6999C8.30791 18.6711 10.7216 21.0876 13.6893 21.0876C16.6571 21.0876 19.0705 18.6711 19.0705 15.6999C19.0705 12.7287 16.6616 10.3122 13.6893 10.3122C10.7169 10.3122 8.30791 12.7287 8.30791 15.6999Z" fill="#fff"/>
<path d="M3.70054 9.58319H8.33993C8.59191 9.58319 8.79795 9.37674 8.79795 9.12463C8.79795 8.87236 8.59191 8.66608 8.33993 8.66608H3.70054C3.44857 8.66608 3.24252 8.87236 3.24252 9.12463C3.24252 9.37674 3.44857 9.58319 3.70054 9.58319Z" fill="#fff"/>
<path d="M16.1898 14.7782C16.0113 14.5995 15.7227 14.5995 15.544 14.7782C15.3655 14.9572 15.3655 15.2459 15.544 15.4248L16.1533 16.0346C16.7395 16.6215 16.7395 17.589 16.1533 18.185C15.567 18.7767 14.6007 18.772 14.0053 18.185L13.3961 17.5752C13.2175 17.3965 12.929 17.3965 12.7503 17.5752C12.5718 17.7542 12.5718 18.043 12.7503 18.2218L13.3641 18.8363C13.8404 19.3084 14.4632 19.5424 15.0862 19.5424C15.709 19.5424 16.3318 19.3039 16.8081 18.8316C17.7516 17.8779 17.7471 16.3281 16.8081 15.3835L16.1898 14.7782Z" fill="#fff"/>
<path d="M13.3595 13.2375L13.9686 13.8475C14.1473 14.0263 14.4357 14.0263 14.6144 13.8475C14.793 13.6686 14.793 13.3797 14.6144 13.201L14.0006 12.5865C13.048 11.642 11.5001 11.6465 10.5566 12.591C9.61323 13.5447 9.61776 15.0946 10.5566 16.0392L11.1657 16.649C11.2574 16.7407 11.3719 16.782 11.4909 16.782C11.6101 16.782 11.7244 16.7361 11.8162 16.649C11.9947 16.4701 11.9947 16.1812 11.8162 16.0025L11.2069 15.3927C10.6161 14.8057 10.6208 13.8383 11.2069 13.2421C11.7977 12.6506 12.7595 12.6506 13.3595 13.2375Z" fill="#fff"/>
<path d="M14.4679 16.9609C14.5869 16.9609 14.7014 16.9149 14.793 16.8278C14.9717 16.649 14.9717 16.3602 14.793 16.1812L13.2175 14.604C13.039 14.4252 12.7505 14.4252 12.5718 14.604C12.3932 14.7829 12.3932 15.0716 12.5718 15.2505L14.1473 16.8278C14.2342 16.9149 14.3534 16.9609 14.4679 16.9609Z" fill="#fff"/>
</svg>
