<svg width="24" height="20" viewBox="0 0 24 20" fill="none" xmlns="http://www.w3.org/2000/svg">
<path fill-rule="evenodd" clip-rule="evenodd" d="M14.9662 6.5701C14.9662 8.22111 13.6277 9.55946 11.9767 9.55946C10.3263 9.55766 8.9891 8.22029 8.9873 6.5701C8.9873 4.91908 10.3257 3.58057 11.9767 3.58057C13.6277 3.58057 14.9662 4.91908 14.9662 6.5701ZM14.0238 6.5701C14.0238 5.43953 13.1072 4.52297 11.9767 4.52297C10.8464 4.52412 9.93086 5.44002 9.92971 6.5701C9.92971 7.70066 10.8461 8.61705 11.9767 8.61705C13.1072 8.61705 14.0238 7.70066 14.0238 6.5701Z" fill="#D7A700"/>
<path fill-rule="evenodd" clip-rule="evenodd" d="M18.5242 8.19299H19.7965C22.1055 8.19561 23.9764 10.0667 23.9791 12.3757V16.3887C23.9791 16.6488 23.768 16.8599 23.5079 16.8599H16.795V18.3504C16.795 18.6109 16.5839 18.8216 16.3238 18.8216H7.62893C7.36846 18.8216 7.15772 18.6109 7.15772 18.3504V16.8599H0.471204C0.21106 16.8599 0 16.6491 0 16.3887V12.3757C0.0026178 10.0667 1.87369 8.19561 4.18292 8.19316H5.45501C7.11322 8.2015 8.61289 9.1804 9.28796 10.695C9.91361 10.3404 10.6209 10.1541 11.3403 10.1547H12.6126C13.3354 10.1541 14.046 10.3422 14.6741 10.7002C15.3498 9.19905 16.8572 8.19299 18.5242 8.19299ZM19.8359 9.13633C19.8228 9.13587 19.8097 9.1354 19.7965 9.1354H18.5244C18.4326 9.13557 18.3416 9.13949 18.2513 9.14718L18.8168 11.5747C18.8397 11.6912 18.9385 11.7773 19.0573 11.7838L19.0638 11.7837L19.0762 11.7833C19.1868 11.7687 19.2759 11.6855 19.2979 11.5763L19.8665 9.1372C19.8563 9.13706 19.8461 9.1367 19.8359 9.13633ZM12.6126 11.0971C12.6988 11.0971 12.784 11.1015 12.8685 11.1081L12.0942 13.631L11.3168 11.0978C11.3207 11.0978 11.3245 11.0976 11.3284 11.0974C11.3322 11.0973 11.3361 11.0971 11.34 11.0971H12.6126ZM5.52921 9.13678C5.50446 9.13609 5.47975 9.1354 5.45484 9.1354H4.18259C4.11453 9.1354 4.04679 9.13818 3.97971 9.14227L4.7644 11.9947L5.55056 9.13736L5.52921 9.13678ZM0.942408 12.3757C0.944044 11.0212 1.78665 9.8103 3.05596 9.33779L4.29319 13.8347V15.9175H0.942408V12.3757ZM5.2356 13.8347V15.9175H7.1574V14.3373C7.15707 13.1704 7.64545 12.0569 8.50393 11.2666C8.15854 10.3424 7.4159 9.62215 6.48168 9.30507L5.2356 13.8347ZM8.10013 14.3375C8.10177 12.9199 9.02307 11.6675 10.376 11.2437L11.623 15.3077V17.8792H8.10013V14.3375ZM12.5654 17.8792H15.8526V14.3373C15.8509 13.0027 15.0324 11.8054 13.7894 11.3195L12.5654 15.3077V17.8792ZM15.4555 11.2732C15.7862 10.4016 16.4678 9.70886 17.3341 9.36397L17.8992 11.7885C17.9833 12.1608 18.2379 12.4715 18.5864 12.6271V15.9178H16.795V14.3373C16.7955 13.1737 16.3097 12.0631 15.4555 11.2732ZM19.5288 15.9173H23.0366V12.3757C23.0348 10.9726 22.1315 9.72932 20.7974 9.29427L20.2156 11.7902C20.1293 12.1604 19.8753 12.4692 19.5288 12.6256V15.9173Z" fill="#D7A700"/>
<path fill-rule="evenodd" clip-rule="evenodd" d="M19.1339 7.62444C20.4868 7.62477 21.6713 6.71639 22.0216 5.40929C22.3718 4.10252 21.8001 2.72343 20.6283 2.04722V1.59467C20.6283 0.871663 20.0424 0.285767 19.3194 0.285767C18.5964 0.285767 18.0105 0.871663 18.0105 1.59467V1.86512C16.6853 2.40259 15.9263 3.8036 16.2001 5.20723C16.474 6.61103 17.7037 7.62428 19.1339 7.62428V7.62444ZM19.1339 6.68204C18.2798 6.68105 17.5161 6.15062 17.2162 5.35105C17.5941 5.28708 17.9632 5.1786 18.3161 5.02824C18.7536 4.84156 19.1573 4.58305 19.5099 4.26319C19.8436 4.63721 20.3649 5.08305 21.0743 5.29804C20.7972 6.1323 20.0128 6.69169 19.1339 6.68204ZM20.1334 3.54133C20.3449 3.79673 20.6902 4.13312 21.1578 4.32716C21.0809 3.82323 20.8184 3.36594 20.422 3.04526C20.3371 3.21689 20.2407 3.38263 20.1334 3.54133ZM18.9529 1.59467C18.9529 1.39228 19.1169 1.22817 19.3194 1.22817C19.522 1.22817 19.6859 1.39228 19.6859 1.59467V1.69709C19.504 1.66273 19.3191 1.64539 19.1339 1.64522C19.0732 1.64522 19.0128 1.64768 18.9529 1.65111V1.59467ZM19.5732 2.63573C19.429 2.60383 19.2816 2.5878 19.1339 2.58763C18.0876 2.5891 17.2103 3.37788 17.0982 4.41797C17.7553 4.30245 18.9323 3.91731 19.5732 2.63573Z" fill="#D7A700"/>
<path fill-rule="evenodd" clip-rule="evenodd" d="M7.80816 4.64375C7.77675 6.31505 6.46343 7.62444 4.81863 7.62444C3.16762 7.62444 1.8291 6.28593 1.8291 4.63475C1.8291 2.98374 3.16762 1.64539 4.81863 1.64539C6.46981 1.64539 7.80816 2.98374 7.80816 4.63475V4.64375ZM6.86575 4.6305C6.86199 3.50222 5.94707 2.58927 4.81863 2.58779C3.68807 2.58779 2.77151 3.50452 2.77151 4.63508C2.77151 5.76564 3.68807 6.6822 4.81863 6.6822C5.9433 6.6822 6.84186 5.78135 6.86575 4.6305Z" fill="#D7A700"/>
<path d="M21.6757 11.6993H20.7857C20.5255 11.6993 20.3145 11.9104 20.3145 12.1705C20.3145 12.4307 20.5255 12.6417 20.7857 12.6417H21.6757C21.9359 12.6417 22.1469 12.4307 22.1469 12.1705C22.1469 11.9104 21.9359 11.6993 21.6757 11.6993Z" fill="#D7A700"/>
<path d="M13.8218 13.7936C13.5616 13.7936 13.3506 14.0046 13.3506 14.2648C13.3506 14.5249 13.5616 14.736 13.8218 14.736H14.7118C14.972 14.736 15.183 14.5249 15.183 14.2648C15.183 14.0046 14.972 13.7936 14.7118 13.7936H13.8218Z" fill="#D7A700"/>
<path d="M7.53905 12.0136C7.53905 11.7534 7.32799 11.5424 7.06785 11.5424H6.38722C6.12708 11.5424 5.91602 11.7534 5.91602 12.0136C5.91602 12.2737 6.12708 12.4848 6.38722 12.4848H7.06785C7.32799 12.4848 7.53905 12.2737 7.53905 12.0136Z" fill="#D7A700"/>
</svg>
