<?xml version="1.0" standalone="no"?>
<!DOCTYPE svg PUBLIC "-//W3C//DTD SVG 1.1//EN" "http://www.w3.org/Graphics/SVG/1.1/DTD/svg11.dtd" >
<svg xmlns="http://www.w3.org/2000/svg">
<metadata>Generated by IcoMoon</metadata>
<defs>
<font id="chat-icons" horiz-adv-x="1024">
<font-face units-per-em="1024" ascent="960" descent="-64" />
<missing-glyph horiz-adv-x="1024" />
<glyph unicode="&#x20;" horiz-adv-x="512" d="" />
<glyph unicode="&#xe900;" glyph-name="25360" horiz-adv-x="1280" d="M937.875 409.116c-44.717-56.157-105.741-100.527-183.066-133.122s-161.437-48.883-252.322-48.851c-40.92 0-82.8 3.802-125.62 11.418-59.002-41.869-125.149-72.326-198.429-91.36-17.128-4.288-37.593-8.096-61.38-11.424h-2.142c-5.243 0-10.113 1.894-14.636 5.696-4.517 3.827-7.252 8.813-8.21 14.989-0.48 1.44-0.715 2.976-0.715 4.64 0 1.658 0.12 3.213 0.36 4.634 0.235 1.434 0.715 2.861 1.425 4.282l1.788 3.552 2.5 3.93c1.663 2.618 2.618 3.808 2.852 3.552 0.24-0.224 1.31 0.96 3.218 3.578 1.9 2.618 2.858 3.693 2.858 3.213 2.372 2.848 7.847 8.8 16.417 17.843 8.568 9.030 14.753 16.058 18.56 21.050 3.81 4.986 9.158 11.878 16.058 20.691 6.905 8.806 12.847 17.958 17.848 27.475 4.997 9.53 9.875 19.987 14.63 31.418-59 34.253-105.398 76.374-139.178 126.336-33.78 49.955-50.69 103.273-50.69 159.892 0 66.148 22.367 127.285 67.1 183.433 44.723 56.15 105.75 100.522 183.070 133.12 77.33 32.598 161.432 48.9 252.317 48.9 90.892 0 174.997-16.293 252.322-48.89 77.325-32.602 138.349-76.975 183.066-133.123 44.73-56.155 67.098-117.295 67.098-183.44 0-66.142-22.368-127.284-67.098-183.43zM324.050 313.466l31.41 22.118 37.83-7.128c37.12-6.655 73.523-9.992 109.203-9.992 72.81 0 140.854 12.372 204.138 37.114 63.283 24.74 113.606 58.277 150.97 100.64 37.35 42.35 56.019 87.79 56.019 136.324 0 48.545-18.669 93.988-56.019 136.335-37.37 42.35-87.693 75.898-150.97 100.648-63.283 24.737-131.336 37.117-204.138 37.117s-140.851-12.38-204.132-37.117c-63.288-24.753-113.61-58.298-150.956-100.648-37.35-42.35-56.035-87.793-56.035-136.335 0-39.022 12.605-76.614 37.827-112.777 25.22-36.165 60.665-67.572 106.355-94.212l69.235-39.97-24.988-59.964c16.183 9.523 30.925 18.816 44.25 27.846zM1228.365 249.613c33.798 49.734 50.682 103.135 50.682 160.243 0 58.527-17.85 113.258-53.523 164.165-35.693 50.905-84.237 93.262-145.613 127.048 10.938-35.685 16.41-71.848 16.41-108.495 0-63.757-15.923-124.19-47.821-181.297-31.885-57.090-77.568-107.525-137.043-151.308-55.2-39.974-118.010-70.656-188.442-92.077-70.413-21.402-143.933-32.115-220.545-32.115-14.27 0-35.21 0.941-62.805 2.842 95.64-62.797 207.946-94.214 336.893-94.214 40.922 0 82.797 3.814 125.626 11.424 59.002-41.882 125.152-72.326 198.426-91.366 17.126-4.301 37.594-8.096 61.382-11.424 5.709-0.486 10.957 1.19 15.706 4.986 4.762 3.821 7.859 9.037 9.28 15.693-0.224 2.861 0 4.422 0.717 4.653 0.704 0.224 0.582 1.779-0.358 4.627-0.941 2.861-1.421 4.288-1.421 4.288l-1.779 3.565c-0.499 0.934-1.306 2.253-2.502 3.917-1.19 1.651-2.138 2.848-2.854 3.565-0.704 0.71-1.766 1.907-3.2 3.558-1.421 1.651-2.381 2.733-2.861 3.213-2.374 2.854-7.846 8.8-16.41 17.843-8.57 9.037-14.746 16.051-18.554 21.043-3.808 4.998-9.165 11.898-16.058 20.71-6.899 8.794-12.851 17.958-17.85 27.475-4.992 9.517-9.875 19.987-14.63 31.398 58.982 34.291 105.389 76.282 139.149 126.042z" />
<glyph unicode="&#xe901;" glyph-name="685813" horiz-adv-x="1205" d="M288.281 959.434h825.139c48.411 0 89.118-39.607 89.118-89.115v-512.69c0-48.405-39.605-89.112-89.118-89.112h-79.209v-110.020c0-16.504-13.204-28.606-28.606-28.606-7.704 0-14.306 3.301-19.805 8.8l-128.723 129.825h-568.795c-48.408 0-89.115 39.605-89.115 89.112v512.69c0 48.408 39.607 89.115 89.115 89.115zM332.288 600.772c0-45.108 37.407-82.514 82.515-82.514 46.208 0 82.514 37.406 82.514 82.514s-37.407 82.515-82.514 82.515c-45.108 0-82.515-37.407-82.515-82.515zM704.151 518.258c45.11 0 82.516 37.406 82.516 82.514s-37.406 82.515-82.516 82.515c-45.104 0-82.51-37.407-82.51-82.515s37.406-82.514 82.51-82.514zM909.884 600.772c0-45.108 37.406-82.514 82.516-82.514s82.516 37.406 82.516 82.514c0 45.108-37.406 82.515-82.516 82.515s-82.516-37.407-82.516-82.515zM148.558 355.43v174.93h-90.215c-31.905 0-58.31-26.405-58.31-58.31v-336.659c-1.1-34.105 25.304-60.506 58.31-60.506h51.709v-72.614c0-9.903 8.802-18.703 18.704-18.703 5.501 0 9.901 2.199 13.202 5.499l84.714 84.715h374.064c31.904 0 58.311 26.407 58.311 58.308v83.619h-370.764c-77.013 0-139.724 62.711-139.724 139.722z" />
<glyph unicode="&#xe902;" glyph-name="12412" horiz-adv-x="1152" d="M576 947.063c-318.116 0-576-202.67-576-452.572 0-118.326 57.847-226.203 152.557-306.843-3.62-78.586-19.913-184.237-77.513-238.714 110.016 0 222.665 72.416 289.481 124.582 65.5-20.403 136.842-31.597 211.475-31.597 318.118 0 576 202.669 576 452.571s-257.882 452.572-576 452.572z" />
<glyph unicode="&#xe903;" glyph-name="60800" d="M102.4 960h819.2c56.32 0 102.4-46.080 102.4-102.4v-614.4c0-56.32-46.080-102.4-102.4-102.4h-716.8l-204.8-204.8v921.6c0 56.32 46.080 102.4 102.4 102.4zM256 499.2h102.4v102.4h-102.4v-102.4zM563.2 499.2v102.4h-102.4v-102.4h102.4zM665.6 499.2h102.4v102.4h-102.4v-102.4z" />
</font></defs></svg>