<svg width="15" height="15" viewBox="0 0 15 15" fill="none" xmlns="http://www.w3.org/2000/svg">
<g opacity="0.147355">
<path fill-rule="evenodd" clip-rule="evenodd" d="M14.5833 1.83333L13.4167 0.416667C13.25 0.166667 12.9167 0 12.5 0H2.5C2.08333 0 1.75 0.166667 1.5 0.416667L0.416667 1.83333C0.166667 2.16667 0 2.5 0 2.91667V13.3333C0 14.25 0.75 15 1.66667 15H13.3333C14.25 15 15 14.25 15 13.3333V2.91667C15 2.5 14.8333 2.16667 14.5833 1.83333ZM7.5 12.0833L2.91667 7.5H5.83333V5.83333H9.16667V7.5H12.0833L7.5 12.0833ZM2.41667 0.833333L1.75 1.66667H13.1667L12.4167 0.833333H2.41667Z" fill="black"/>
</g>
</svg>
