<svg width="1190" height="169" viewBox="0 0 1190 169" fill="none" xmlns="http://www.w3.org/2000/svg">
<mask id="mask0" mask-type="alpha" maskUnits="userSpaceOnUse" x="0" y="-1" width="1191" height="170">
<rect y="-1" width="1191" height="170" fill="white"/>
</mask>
<g mask="url(#mask0)">
<path fill-rule="evenodd" clip-rule="evenodd" d="M760.5 504C867.919 504 955 416.919 955 309.5C955 202.081 867.919 115 760.5 115C653.081 115 566 202.081 566 309.5C566 416.919 653.081 504 760.5 504Z" fill="white" fill-opacity="0.109715"/>
<path fill-rule="evenodd" clip-rule="evenodd" d="M761 526C886.921 526 989 423.921 989 298C989 172.079 886.921 70 761 70C635.079 70 533 172.079 533 298C533 423.921 635.079 526 761 526Z" fill="white" fill-opacity="0.109715"/>
<path fill-rule="evenodd" clip-rule="evenodd" d="M413.5 493C520.919 493 608 405.919 608 298.5C608 191.081 520.919 104 413.5 104C306.081 104 219 191.081 219 298.5C219 405.919 306.081 493 413.5 493Z" fill="white" fill-opacity="0.109715"/>
<path fill-rule="evenodd" clip-rule="evenodd" d="M413.5 524C520.919 524 608 436.919 608 329.5C608 222.081 520.919 135 413.5 135C306.081 135 219 222.081 219 329.5C219 436.919 306.081 524 413.5 524Z" fill="white" fill-opacity="0.109715"/>
</g>
</svg>
