<svg width="84" height="84" viewBox="0 0 84 84" fill="none" xmlns="http://www.w3.org/2000/svg">
<path fill-rule="evenodd" clip-rule="evenodd" d="M42 84C65.196 84 84 65.196 84 42C84 18.804 65.196 0 42 0C18.804 0 0 18.804 0 42C0 65.196 18.804 84 42 84Z" fill="#FFE8EA"/>
<path fill-rule="evenodd" clip-rule="evenodd" d="M21 33.6507C21 30.5772 23.4915 28.0857 26.565 28.0857H32.7226L35.4568 25H47.271L49.9079 28.0857H55.965C59.0385 28.0857 61.53 30.5772 61.53 33.6507V53.665C61.53 56.7385 59.0385 59.23 55.965 59.23H26.565C23.4915 59.23 21 56.7385 21 53.665V33.6507ZM48.6498 30.8157L46.0129 27.73H36.6853L33.9512 30.8157H26.565C24.9993 30.8157 23.73 32.085 23.73 33.6507V53.665C23.73 55.2307 24.9993 56.5 26.565 56.5H55.965C57.5307 56.5 58.8 55.2307 58.8 53.665V33.6507C58.8 32.085 57.5307 30.8157 55.965 30.8157H48.6498Z" fill="#D8384A"/>
<path fill-rule="evenodd" clip-rule="evenodd" d="M54.6 37.6C55.7598 37.6 56.7 36.6598 56.7 35.5C56.7 34.3402 55.7598 33.4 54.6 33.4C53.4402 33.4 52.5 34.3402 52.5 35.5C52.5 36.6598 53.4402 37.6 54.6 37.6Z" fill="#D8384A"/>
<path fill-rule="evenodd" clip-rule="evenodd" d="M51.765 43.165C51.765 48.964 47.064 53.665 41.265 53.665C35.466 53.665 30.765 48.964 30.765 43.165C30.765 37.366 35.466 32.665 41.265 32.665C47.064 32.665 51.765 37.366 51.765 43.165ZM33.3019 43.7699C33.1777 42.7787 33.2812 41.8217 33.5627 40.9372C34.4982 37.9978 37.4331 35.8361 40.9145 35.798V33.8765C40.9145 33.7697 41.0593 33.7125 41.1545 33.7774L45.4472 36.6825C45.5176 36.732 45.5176 36.8312 45.4472 36.8769L41.1587 39.782C41.0593 39.8469 40.9186 39.7897 40.9186 39.6829V37.7652C38.6294 37.7995 36.6756 39.0996 35.8353 40.9372C35.5165 41.6311 35.3551 42.3974 35.4006 43.2019C35.4627 44.3075 35.9139 45.3254 36.6259 46.1489C37.0067 46.5874 36.9157 47.2279 36.4231 47.5596C35.9553 47.876 35.3013 47.7883 34.9411 47.3689C34.0594 46.3548 33.4716 45.1195 33.3019 43.7699ZM45.6326 40.601C46.3491 41.4207 46.8005 42.4425 46.8585 43.5481C46.904 44.3563 46.7384 45.1227 46.4236 45.8127C45.5829 47.6503 43.6281 48.9542 41.3378 48.9847V47.067C41.3378 46.9603 41.1928 46.9031 41.0976 46.9679L36.8028 49.873C36.7324 49.9226 36.7324 50.0217 36.8028 50.0675L41.0934 52.9726C41.1928 53.0374 41.3337 52.9802 41.3337 52.8735V50.952C44.8167 50.9177 47.7572 48.756 48.689 45.8127C48.9706 44.9282 49.07 43.9713 48.9499 42.98C48.7843 41.6304 48.1962 40.3952 47.314 39.381C46.9496 38.9617 46.2994 38.874 45.8314 39.1904C45.3427 39.5221 45.2515 40.1626 45.6326 40.601Z" fill="#D8384A"/>
</svg>
