<svg width="30" height="30" viewBox="0 0 30 30" fill="none" xmlns="http://www.w3.org/2000/svg">
<path fill-rule="evenodd" clip-rule="evenodd" d="M2.16362 0H27.8364C29.0314 0 30 0.968628 30 2.16362V27.8364C30 29.0314 29.0314 30 27.8364 30H2.16362C0.968628 30 0 29.0314 0 27.8364V2.16362C0 0.968628 0.968628 0 2.16362 0ZM12.4491 22.6554C13.2923 22.8983 14.1886 23.0294 15.1172 23.0294C20.0951 23.0294 24.1301 19.2643 24.1301 14.6203C24.1301 9.97581 20.0951 6.21094 15.1172 6.21094C10.1395 6.21094 6.10428 9.97581 6.10428 14.6203C6.10428 17.2501 7.39815 19.5982 9.42421 21.14V24.375L12.4491 22.6554Z" fill="black"/>
<path d="M14.155 12.317L9.29443 17.4632L13.7178 15.0361L16.0291 17.4632L20.8624 12.317L16.488 14.7015L14.155 12.317Z" fill="black"/>
</svg>
