<svg width="84" height="84" viewBox="0 0 84 84" fill="none" xmlns="http://www.w3.org/2000/svg">
<g id="minime_icon">
<path id="Oval 4" fill-rule="evenodd" clip-rule="evenodd" d="M42 84C65.196 84 84 65.196 84 42C84 18.804 65.196 0 42 0C18.804 0 0 18.804 0 42C0 65.196 18.804 84 42 84Z" fill="#F9F3FF"/>
<g id="Group 31">
<path id="Rectangle" d="M41.3015 44.7935C38.81 46.6783 36.7684 46.743 34.9172 45.5992C33.9124 44.9783 33.1282 44.1073 32.6422 43.3473C32.6131 43.3009 32.6131 43.3009 32.617 43.3072C30.5578 40.3587 31.2515 36.4244 34.106 34.4257L42.9801 28.212C45.8346 26.2132 49.7688 26.907 51.7676 29.7614C53.7663 32.6159 53.0725 36.5502 50.2181 38.5489L49.8694 38.793C49.2231 39.2456 49.0661 40.1363 49.5186 40.7826C49.9711 41.4289 50.8619 41.586 51.5082 41.1335L51.8569 40.8893C56.0039 37.9855 57.0118 32.2697 54.108 28.1226C51.2042 23.9756 45.4884 22.9677 41.3413 25.8715L32.4672 32.0853C28.3201 34.9891 27.3123 40.7049 30.2161 44.852C30.177 44.794 30.177 44.794 30.235 44.8863C30.9317 45.9759 31.9853 47.1461 33.4154 48.0297C36.2555 49.7847 39.5787 49.6793 43.0252 47.0721C43.6544 46.5962 43.7786 45.7002 43.3026 45.071C42.8267 44.4418 41.9307 44.3175 41.3015 44.7935Z" fill="#9013FE"/>
<path id="Combined Shape" fill-rule="evenodd" clip-rule="evenodd" d="M42.8493 41.2787C40.9981 40.1349 38.9566 40.1996 36.4651 42.0843C35.8358 42.5603 34.9399 42.4361 34.4639 41.8069C33.9879 41.1777 34.1121 40.2817 34.7414 39.8057C38.1878 37.1986 41.511 37.0932 44.3512 38.8482C45.7812 39.7318 46.8349 40.902 47.5315 41.9916C47.5561 42.0307 47.5703 42.0532 47.5755 42.0618C48.3376 43.1611 48.8399 44.3914 49.0679 45.6742C48.1037 45.9563 47.1882 46.3525 46.3372 46.8472C46.2597 45.7138 45.8737 44.6119 45.1496 43.5707C45.1534 43.577 45.1534 43.577 45.1243 43.5306C44.6384 42.7706 43.8542 41.8996 42.8493 41.2787ZM40.5112 54.6574L34.7864 58.6659C31.932 60.6646 27.9977 59.9709 25.999 57.1165C24.0003 54.262 24.694 50.3277 27.5485 48.329L27.8971 48.0849C28.5434 47.6323 28.7005 46.7415 28.2479 46.0953C27.7954 45.449 26.9046 45.2919 26.2583 45.7444L25.9097 45.9886C21.7626 48.8924 20.7548 54.6082 23.6586 58.7552C26.5624 62.9023 32.2782 63.9102 36.4252 61.0064L40.1953 58.3665C40.1781 58.0995 40.1693 57.8301 40.1693 57.5587C40.1693 56.5596 40.2877 55.588 40.5112 54.6574Z" fill="#9013FE"/>
<path id="Path" d="M61.3598 51.8386L53.444 43.273V48.3834H51.761C46.5425 48.3834 42.3122 52.558 42.3122 57.7077V60.4159L43.0597 59.6075C45.6013 56.8596 49.1974 55.2938 52.9676 55.2938H53.444V60.4043L61.3598 51.8386Z" fill="#9013FE"/>
</g>
</g>
</svg>
