<svg class="lds-default" width="60px"  height="60px"  xmlns="http://www.w3.org/2000/svg" xmlns:xlink="http://www.w3.org/1999/xlink" viewBox="0 0 100 100" preserveAspectRatio="xMidYMid" style="background-image: none; background-position: initial initial; background-repeat: initial initial;"><circle cx="75" cy="50" fill="undefined" r="6">
  <animate attributeName="r" values="3.5999999999999996;3.5999999999999996;6;3.5999999999999996;3.5999999999999996" times="0;0.1;0.2;0.3;1" dur="1s" repeatCount="indefinite" begin="-0.9s"></animate>
  <animate attributeName="fill" values="#b1f1a2;#b1f1a2;#06cfd2;#b1f1a2;#b1f1a2" repeatCount="indefinite" times="0;0.1;0.2;0.3;1" dur="1s" begin="-0.9s"></animate>
</circle><circle cx="70.225" cy="64.695" fill="undefined" r="6">
  <animate attributeName="r" values="3.5999999999999996;3.5999999999999996;6;3.5999999999999996;3.5999999999999996" times="0;0.1;0.2;0.3;1" dur="1s" repeatCount="indefinite" begin="-0.8s"></animate>
  <animate attributeName="fill" values="#b1f1a2;#b1f1a2;#06cfd2;#b1f1a2;#b1f1a2" repeatCount="indefinite" times="0;0.1;0.2;0.3;1" dur="1s" begin="-0.8s"></animate>
</circle><circle cx="57.725" cy="73.776" fill="undefined" r="6">
  <animate attributeName="r" values="3.5999999999999996;3.5999999999999996;6;3.5999999999999996;3.5999999999999996" times="0;0.1;0.2;0.3;1" dur="1s" repeatCount="indefinite" begin="-0.7s"></animate>
  <animate attributeName="fill" values="#b1f1a2;#b1f1a2;#06cfd2;#b1f1a2;#b1f1a2" repeatCount="indefinite" times="0;0.1;0.2;0.3;1" dur="1s" begin="-0.7s"></animate>
</circle><circle cx="42.275" cy="73.776" fill="undefined" r="6">
  <animate attributeName="r" values="3.5999999999999996;3.5999999999999996;6;3.5999999999999996;3.5999999999999996" times="0;0.1;0.2;0.3;1" dur="1s" repeatCount="indefinite" begin="-0.6s"></animate>
  <animate attributeName="fill" values="#b1f1a2;#b1f1a2;#06cfd2;#b1f1a2;#b1f1a2" repeatCount="indefinite" times="0;0.1;0.2;0.3;1" dur="1s" begin="-0.6s"></animate>
</circle><circle cx="29.775" cy="64.695" fill="undefined" r="6">
  <animate attributeName="r" values="3.5999999999999996;3.5999999999999996;6;3.5999999999999996;3.5999999999999996" times="0;0.1;0.2;0.3;1" dur="1s" repeatCount="indefinite" begin="-0.5s"></animate>
  <animate attributeName="fill" values="#b1f1a2;#b1f1a2;#06cfd2;#b1f1a2;#b1f1a2" repeatCount="indefinite" times="0;0.1;0.2;0.3;1" dur="1s" begin="-0.5s"></animate>
</circle><circle cx="25" cy="50" fill="undefined" r="6">
  <animate attributeName="r" values="3.5999999999999996;3.5999999999999996;6;3.5999999999999996;3.5999999999999996" times="0;0.1;0.2;0.3;1" dur="1s" repeatCount="indefinite" begin="-0.4s"></animate>
  <animate attributeName="fill" values="#b1f1a2;#b1f1a2;#06cfd2;#b1f1a2;#b1f1a2" repeatCount="indefinite" times="0;0.1;0.2;0.3;1" dur="1s" begin="-0.4s"></animate>
</circle><circle cx="29.775" cy="35.305" fill="undefined" r="6">
  <animate attributeName="r" values="3.5999999999999996;3.5999999999999996;6;3.5999999999999996;3.5999999999999996" times="0;0.1;0.2;0.3;1" dur="1s" repeatCount="indefinite" begin="-0.3s"></animate>
  <animate attributeName="fill" values="#b1f1a2;#b1f1a2;#06cfd2;#b1f1a2;#b1f1a2" repeatCount="indefinite" times="0;0.1;0.2;0.3;1" dur="1s" begin="-0.3s"></animate>
</circle><circle cx="42.275" cy="26.224" fill="undefined" r="6">
  <animate attributeName="r" values="3.5999999999999996;3.5999999999999996;6;3.5999999999999996;3.5999999999999996" times="0;0.1;0.2;0.3;1" dur="1s" repeatCount="indefinite" begin="-0.2s"></animate>
  <animate attributeName="fill" values="#b1f1a2;#b1f1a2;#06cfd2;#b1f1a2;#b1f1a2" repeatCount="indefinite" times="0;0.1;0.2;0.3;1" dur="1s" begin="-0.2s"></animate>
</circle><circle cx="57.725" cy="26.224" fill="undefined" r="6">
  <animate attributeName="r" values="3.5999999999999996;3.5999999999999996;6;3.5999999999999996;3.5999999999999996" times="0;0.1;0.2;0.3;1" dur="1s" repeatCount="indefinite" begin="-0.1s"></animate>
  <animate attributeName="fill" values="#b1f1a2;#b1f1a2;#06cfd2;#b1f1a2;#b1f1a2" repeatCount="indefinite" times="0;0.1;0.2;0.3;1" dur="1s" begin="-0.1s"></animate>
</circle><circle cx="70.225" cy="35.305" fill="undefined" r="6">
  <animate attributeName="r" values="3.5999999999999996;3.5999999999999996;6;3.5999999999999996;3.5999999999999996" times="0;0.1;0.2;0.3;1" dur="1s" repeatCount="indefinite" begin="0s"></animate>
  <animate attributeName="fill" values="#b1f1a2;#b1f1a2;#06cfd2;#b1f1a2;#b1f1a2" repeatCount="indefinite" times="0;0.1;0.2;0.3;1" dur="1s" begin="0s"></animate>
</circle></svg>