<svg width="14" height="10" viewBox="0 0 14 10" fill="none" xmlns="http://www.w3.org/2000/svg">
<path d="M4.57256 0.148624C4.76329 -0.0495412 5.08072 -0.0495412 5.27812 0.148624C5.46885 0.340094 5.46885 0.658764 5.27812 0.849788L1.70054 4.4413H13.5061C13.7813 4.44175 14 4.66134 14 4.93761C14 5.21388 13.7813 5.44061 13.5061 5.44061H1.70054L5.27812 9.02542C5.46885 9.22359 5.46885 9.54271 5.27812 9.73373C5.08072 9.93189 4.76285 9.93189 4.57256 9.73373L0.148047 5.29198C-0.0493488 5.10051 -0.0493488 4.78184 0.148047 4.59082L4.57256 0.148624Z" fill="#9B9B9B"/>
</svg>
