<svg width="25" height="25" viewBox="0 0 25 25" fill="none" xmlns="http://www.w3.org/2000/svg">
<path fill-rule="evenodd" clip-rule="evenodd" d="M12.228 3.72225C16.9152 3.72225 20.7281 7.53563 20.7281 12.2224C20.7281 16.9091 16.915 20.7222 12.228 20.7225C7.54083 20.7225 3.72769 16.9093 3.72792 12.2224C3.72816 7.53539 7.54083 3.72225 12.228 3.72225ZM11.5743 16.309C11.5743 16.6701 11.8669 16.9627 12.228 16.9627C12.5891 16.9627 12.8818 16.6701 12.8818 16.309L12.8818 12.8761H16.151C16.5121 12.8761 16.8047 12.5834 16.8047 12.2224C16.8047 11.8613 16.5121 11.5686 16.151 11.5686L12.8818 11.5686V8.13574C12.8818 7.77465 12.5891 7.48199 12.228 7.48199C11.8672 7.48176 11.5743 7.77465 11.5743 8.13574V11.5686H7.97821C7.61712 11.5686 7.32446 11.8613 7.32446 12.2224C7.32446 12.5834 7.61712 12.8761 7.97821 12.8761H11.5743L11.5743 16.309Z" fill="white"/>
</svg>
