<svg width="22" height="22" viewBox="0 0 22 22" fill="none" xmlns="http://www.w3.org/2000/svg">
<path fill-rule="evenodd" clip-rule="evenodd" d="M11 22C17.0751 22 22 17.0751 22 11C22 4.92487 17.0751 0 11 0C4.92487 0 0 4.92487 0 11C0 17.0751 4.92487 22 11 22Z" fill="#C4D2D5"/>
<path fill-rule="evenodd" clip-rule="evenodd" d="M7.91699 15.9484C7.78269 15.9484 7.67383 15.8395 7.67383 15.7052V7.82666H14.3324V15.7052C14.3324 15.8395 14.2236 15.9484 14.0893 15.9484H7.91699ZM13.2828 9.16742H12.3709V14.4687H13.2828V9.16742ZM10.5472 9.16742H11.459V14.4687H10.5472V9.16742ZM9.6353 9.16742H8.72345V14.4687H9.6353V9.16742Z" fill="white"/>
<path fill-rule="evenodd" clip-rule="evenodd" d="M13.0527 5.24316V6.11746V6.26943V6.42141H14.7524C14.8867 6.42141 14.9956 6.53027 14.9956 6.66457V7.27948C14.9956 7.41376 14.8867 7.52264 14.7524 7.52264H14.3325H7.67385H7.2539C7.11961 7.52264 7.01074 7.41376 7.01074 7.27948V6.66457C7.01074 6.53027 7.11961 6.42141 7.2539 6.42141H8.95361V6.26943V6.11746V5.24316C8.95361 5.10886 9.06247 5 9.19677 5H12.8095C12.9438 5 13.0527 5.10886 13.0527 5.24316ZM9.86548 6.37143H12.1409V6.26945V6.11747V5.91187H9.86548V6.11745V6.26943V6.37143Z" fill="white"/>
</svg>
