<svg width="64" height="59" viewBox="0 0 64 59" fill="none" xmlns="http://www.w3.org/2000/svg">
<g opacity="0.118069">
<path d="M14.1611 58.1903C10.3953 58.1903 6.78631 56.778 4.11886 54.1105C-1.37295 48.6187 -1.37295 39.6749 4.11886 34.1829L16.2009 22.1009C21.6927 16.609 30.6366 16.609 36.1286 22.1009C38.4822 24.4545 39.8944 27.5927 40.2083 31.0447C40.3652 32.3 39.2668 33.3983 38.0116 33.5552C36.7562 33.7122 35.6579 32.6137 35.501 31.3585C35.3441 29.1618 34.4026 26.965 32.8336 25.396C29.2246 21.787 23.2621 21.787 19.4962 25.396L7.41413 37.478C3.80517 41.087 3.80517 47.0496 7.41413 50.8154C11.0231 54.4244 16.9857 54.4244 20.7515 50.8154L29.6954 41.8716C30.6369 40.9301 32.049 40.9301 32.9905 41.8716C33.932 42.8131 33.932 44.2252 32.9905 45.1667L24.0466 54.1105C21.5358 56.778 17.9269 58.1903 14.1611 58.1903Z" fill="#231F20"/>
<path d="M37.8545 40.3024C34.0886 40.3024 30.4797 38.8901 27.8122 36.2227C25.4586 33.869 24.0464 30.7308 23.7325 27.2788C23.5756 26.0235 24.674 24.9252 25.9292 24.7683C27.1846 24.6114 28.2828 25.7098 28.4397 26.965C28.5967 29.1617 29.5382 31.3585 31.1072 32.9275C32.8331 34.6535 35.1869 35.595 37.6974 35.595C40.208 35.595 42.5616 34.6535 44.2877 32.9275L56.3697 20.8455C59.9787 17.2365 59.9787 11.274 56.3697 7.5081C52.7608 3.89914 46.7982 3.89914 43.0323 7.5081L34.0885 16.452C33.147 17.3935 31.7349 17.3935 30.7934 16.452C29.8519 15.5104 29.8519 14.0983 30.7934 13.1568L39.7372 4.21298C42.4047 1.54553 46.0136 0.13327 49.7795 0.13327C53.5454 0.13327 57.1543 1.54553 59.8218 4.21298C62.4892 6.88043 63.9015 10.4894 63.9015 14.2553C63.9015 18.0211 62.4892 21.6301 59.8218 24.2975L47.7397 36.3796C45.2293 38.8903 41.6204 40.3024 37.8545 40.3024Z" fill="#231F20"/>
</g>
</svg>
