<svg width="30" height="30" viewBox="0 0 30 30" fill="none" xmlns="http://www.w3.org/2000/svg">
<g id="Group 19">
<g id="Group 7">
<path id="Oval 4" fill-rule="evenodd" clip-rule="evenodd" d="M15 30C23.2843 30 30 23.2843 30 15C30 6.71573 23.2843 0 15 0C6.71573 0 0 6.71573 0 15C0 23.2843 6.71573 30 15 30Z" fill="#FFE8EA"/>
</g>
<g id="86934">
<path id="Shape" fill-rule="evenodd" clip-rule="evenodd" d="M20.2718 13.6813L17.4161 16.538C16.9463 17.0064 16.3225 17.2655 15.6583 17.2655C14.9947 17.2655 14.3709 17.0064 13.9011 16.5367C13.6588 16.2938 13.6588 15.9018 13.9018 15.6582C14.1447 15.4159 14.5374 15.4159 14.7804 15.6589C15.2495 16.1285 16.0678 16.1285 16.5369 15.6582L19.3932 12.8029C19.6281 12.5687 19.7573 12.2568 19.7573 11.925C19.7573 11.5926 19.6281 11.2807 19.3932 11.0465L18.9539 10.6066C18.719 10.3718 18.4071 10.2426 18.0753 10.2426C17.7435 10.2426 17.4316 10.3718 17.1967 10.6066L15.9634 11.8399C15.7204 12.0834 15.3271 12.0834 15.0842 11.8393C14.8419 11.5976 14.8419 11.2049 15.0848 10.9614L16.3182 9.72815C16.7873 9.25845 17.4117 9 18.0753 9C18.7389 9 19.3628 9.25845 19.8325 9.72812L20.2718 10.1686C20.7415 10.637 21 11.2608 21 11.925C21 12.5885 20.7415 13.2123 20.2718 13.6813ZM15.219 14.3418C14.7499 13.8715 13.9316 13.8715 13.4619 14.3418C13.4619 14.3418 10.6055 17.1971 10.6056 17.1971C10.1215 17.6811 10.1215 18.4695 10.6056 18.9541L11.0449 19.3934C11.5152 19.8631 12.3329 19.8631 12.802 19.3934L14.1522 18.0446C14.3951 17.801 14.7878 17.801 15.0308 18.0446C15.2737 18.2869 15.2737 18.6795 15.0308 18.9224L13.6806 20.2718C13.2115 20.7403 12.5876 21 11.924 21C11.2598 21 10.636 20.7415 10.1663 20.2712L9.72697 19.8326C8.75768 18.8641 8.75768 17.2872 9.72697 16.3187L12.5833 13.462C13.0524 12.993 13.6769 12.7345 14.3405 12.7345C15.004 12.7345 15.6285 12.993 16.0982 13.4633L16.5369 13.9019C16.7799 14.1448 16.7799 14.5381 16.5369 14.7804C16.2939 15.0239 15.9013 15.0239 15.6583 14.7804L15.219 14.3418Z" fill="#DA3D4E"/>
</g>
</g>
</svg>
