<svg width="21" height="21" viewBox="0 0 21 21" fill="none" xmlns="http://www.w3.org/2000/svg">
<path fill-rule="evenodd" clip-rule="evenodd" d="M16.501 15.6337C16.9637 15.3348 17.5026 15.1739 18.0665 15.1739C18.8393 15.1739 19.5657 15.4748 20.1121 16.0212C20.6586 16.5676 20.9595 17.2941 20.9595 18.0669C20.9595 18.8397 20.6586 19.5661 20.1121 20.1126C19.5657 20.659 18.8393 20.96 18.0665 20.96C17.2937 20.96 16.5672 20.659 16.0208 20.1126C15.4743 19.5662 15.1734 18.8397 15.1734 18.0669C15.1734 17.5029 15.3343 16.964 15.6333 16.5013L14.0481 14.916C13.0336 15.7362 11.7793 16.1822 10.4563 16.1822C9.1447 16.1822 7.90071 15.7439 6.89079 14.9371L5.32672 16.5013C5.62571 16.964 5.78667 17.5029 5.78667 18.0669C5.78667 18.8397 5.48575 19.5662 4.9393 20.1126C4.39289 20.659 3.66641 20.96 2.89362 20.96C2.12084 20.96 1.39431 20.6591 0.847902 20.1126C0.301452 19.5662 0.000534058 18.8397 0.000534058 18.067C0.000534058 17.2942 0.301452 16.5676 0.847902 16.0212C1.39431 15.4748 2.12084 15.1739 2.89362 15.1739C3.45751 15.1739 3.99639 15.3347 4.45904 15.6337L6.01783 14.0748C5.18356 13.0555 4.72987 11.7906 4.72987 10.4558C4.72987 9.12325 5.18209 7.8603 6.0137 6.84187L4.46383 5.32323C4.00011 5.62415 3.45943 5.78613 2.89358 5.78613C2.1208 5.78613 1.39427 5.48522 0.847862 4.93877C-0.280121 3.81078 -0.280121 1.97539 0.847862 0.847368C1.97588 -0.280614 3.81132 -0.280614 4.9393 0.847368C5.48571 1.39378 5.78667 2.1203 5.78667 2.89309C5.78667 3.45509 5.62677 3.99221 5.32979 4.4538L6.88575 5.97841C7.89657 5.16911 9.14253 4.72934 10.4563 4.72934C11.7815 4.72934 13.0377 5.17668 14.0531 5.99949L15.6303 4.45384C15.3333 3.99225 15.1734 3.45509 15.1734 2.89309C15.1734 2.1203 15.4743 1.39378 16.0208 0.847368C16.5672 0.300918 17.2937 0 18.0665 0C18.8393 0 19.5657 0.300918 20.1121 0.847327C20.6586 1.39374 20.9595 2.12026 20.9595 2.89305C20.9595 3.66583 20.6586 4.39232 20.1121 4.93877C19.5657 5.48518 18.8393 5.78613 18.0665 5.78613C17.5007 5.78613 16.9599 5.62419 16.4963 5.32328L14.9199 6.86815C15.738 7.882 16.1827 9.13463 16.1827 10.4558C16.1827 11.7791 15.7365 13.0337 14.9159 14.0485L16.501 15.6337ZM18.0664 1.22787C17.6398 1.22787 17.2132 1.39026 16.8884 1.71504C16.5738 2.02971 16.4005 2.44804 16.4005 2.89305C16.4005 3.33806 16.5737 3.75642 16.8884 4.07105C17.2031 4.38577 17.6215 4.55905 18.0665 4.55905C18.5114 4.55905 18.9298 4.38577 19.2445 4.07109C19.5591 3.75646 19.7324 3.3381 19.7324 2.89309C19.7324 2.44808 19.5591 2.02971 19.2445 1.71504C18.9197 1.39026 18.4931 1.22787 18.0664 1.22787ZM4.07159 4.07109C3.75696 4.38577 3.33859 4.55905 2.89358 4.55905C2.44857 4.55905 2.03021 4.38577 1.71553 4.07109C1.06597 3.42153 1.06597 2.36461 1.71553 1.71504C2.04036 1.39022 2.46691 1.22787 2.89358 1.22787C3.32013 1.22787 3.74684 1.3903 4.07159 1.71504C4.38626 2.02971 4.55954 2.44808 4.55954 2.89309C4.55954 3.3381 4.38626 3.75642 4.07159 4.07109ZM10.4563 5.95643C9.25445 5.95643 8.12459 6.42444 7.27476 7.27427C6.42494 8.12409 5.95692 9.25396 5.95704 10.4558C5.95704 11.422 6.25976 12.3416 6.82001 13.1067C7.14745 12.3148 7.77401 11.6772 8.55826 11.335C8.26471 10.9415 8.09069 10.4537 8.09069 9.92608C8.09069 8.62392 9.15007 7.56454 10.4522 7.56454C11.7544 7.56454 12.8138 8.62392 12.8138 9.92608C12.8138 10.4525 12.6405 10.9391 12.3482 11.3322C13.1354 11.6737 13.7644 12.3127 14.0927 13.1067C14.6529 12.3416 14.9556 11.422 14.9556 10.4558C14.9556 9.25396 14.4876 8.12409 13.6378 7.27427C12.788 6.42444 11.6581 5.95643 10.4563 5.95643ZM9.3177 9.92608C9.3177 9.30054 9.82661 8.79163 10.4521 8.79163C11.0777 8.79163 11.5866 9.30054 11.5866 9.92608C11.5866 10.5516 11.0777 11.0606 10.4521 11.0606C9.82661 11.0606 9.3177 10.5516 9.3177 9.92608ZM2.89358 19.733C3.33855 19.733 3.75691 19.5596 4.07159 19.245C4.38626 18.9303 4.55954 18.5119 4.55954 18.067C4.55954 17.622 4.38626 17.2036 4.07159 16.889C3.75696 16.5743 3.33859 16.401 2.89358 16.401C2.44857 16.401 2.03021 16.5743 1.71553 16.889C1.06597 17.5385 1.06597 18.5954 1.71553 19.245C2.03021 19.5597 2.44861 19.733 2.89358 19.733ZM7.81503 14.0991C7.94615 13.0789 8.81959 12.2877 9.875 12.2877H11.0376C12.093 12.2877 12.9665 13.0789 13.0976 14.0991C12.3344 14.6549 11.4185 14.9552 10.4563 14.9552C9.49417 14.9552 8.57819 14.6549 7.81503 14.0991ZM18.0665 19.733C18.5115 19.733 18.9298 19.5596 19.2445 19.245C19.5591 18.9303 19.7325 18.5119 19.7325 18.067C19.7325 17.6219 19.5592 17.2036 19.2445 16.889C18.9299 16.5742 18.5115 16.401 18.0665 16.401C17.6215 16.401 17.2031 16.5742 16.8885 16.8889C16.5738 17.2036 16.4005 17.6219 16.4005 18.067C16.4005 18.5119 16.5738 18.9303 16.8885 19.245C17.2031 19.5597 17.6215 19.733 18.0665 19.733Z" fill="white"/>
</svg>
