<svg width="15" height="11" viewBox="0 0 15 11" fill="none" xmlns="http://www.w3.org/2000/svg">
<path d="M9.93984 0.472012C9.73875 0.263887 9.40406 0.263887 9.19594 0.472012C8.99484 0.673105 8.99484 1.00779 9.19594 1.20842L12.968 4.98045H0.520781C0.230625 4.98092 0 5.21154 0 5.5017C0 5.79186 0.230625 6.02998 0.520781 6.02998H12.968L9.19594 9.79498C8.99484 10.0031 8.99484 10.3383 9.19594 10.5389C9.40406 10.747 9.73922 10.747 9.93984 10.5389L14.6048 5.87389C14.813 5.67279 14.813 5.33811 14.6048 5.13748L9.93984 0.472012Z" fill="#02CED1"/>
</svg>
