<svg width="26" height="20" viewBox="0 0 26 20" fill="none" xmlns="http://www.w3.org/2000/svg">
<path fill-rule="evenodd" clip-rule="evenodd" d="M3 0H20C21.6569 0 23 1.34315 23 3V8.28988C22.5506 8.15613 22.0823 8.06629 21.6 8.02535V3C21.6 2.11634 20.8837 1.4 20 1.4H3C2.11634 1.4 1.4 2.11634 1.4 3V14C1.4 14.8837 2.11634 15.6 3 15.6H14.0254C14.0663 16.0823 14.1561 16.5506 14.2899 17H3C1.34315 17 0 15.6569 0 14V3C0 1.34315 1.34315 0 3 0Z" fill="#06CFD2"/>
<path fill-rule="evenodd" clip-rule="evenodd" d="M4 5.8C4 5.35817 4.35817 5 4.8 5H8.2C8.64183 5 9 5.35817 9 5.8C9 6.24183 8.64183 6.6 8.2 6.6H4.8C4.35817 6.6 4 6.24183 4 5.8ZM14 8.8C14 8.35817 14.3582 8 14.8 8H18.2C18.4208 8 18.6206 8.08942 18.7654 8.23402C17.8148 8.4966 16.9516 8.9697 16.229 9.6H14.8C14.3582 9.6 14 9.24183 14 8.8ZM15.0218 11H11.8C11.3582 11 11 11.3582 11 11.8C11 12.2418 11.3582 12.6 11.8 12.6H14.2821C14.4562 12.0294 14.7068 11.4921 15.0218 11ZM11.8 5C11.3582 5 11 5.35817 11 5.8C11 6.24183 11.3582 6.6 11.8 6.6H18.2C18.6418 6.6 19 6.24183 19 5.8C19 5.35817 18.6418 5 18.2 5H11.8ZM4 11.8C4 11.3582 4.35817 11 4.8 11H8.2C8.64183 11 9 11.3582 9 11.8C9 12.2418 8.64183 12.6 8.2 12.6H4.8C4.35817 12.6 4 12.2418 4 11.8ZM4 8.8C4 8.35817 4.35817 8 4.8 8H11.2C11.6418 8 12 8.35817 12 8.8C12 9.24183 11.6418 9.6 11.2 9.6H4.8C4.35817 9.6 4 9.24183 4 8.8Z" fill="white"/>
<path fill-rule="evenodd" clip-rule="evenodd" d="M26 15C26 17.7614 23.7614 20 21 20C18.2386 20 16 17.7614 16 15C16 12.2386 18.2386 10 21 10C23.7614 10 26 12.2386 26 15ZM23.331 15.2499C23.5098 15.1313 23.5098 14.8687 23.331 14.7501L19.9659 12.5161C19.7665 12.3838 19.5 12.5267 19.5 12.7661V17.2339C19.5 17.4733 19.7665 17.6162 19.9659 17.4839L23.331 15.2499Z" fill="white"/>
</svg>
