<svg width="19" height="10" viewBox="0 0 19 10" fill="none" xmlns="http://www.w3.org/2000/svg">
<path fill-rule="evenodd" clip-rule="evenodd" d="M16.9495 0.025214C15.8393 0.025214 14.9361 0.928436 14.9361 2.03866C14.9361 2.44358 15.0566 2.82066 15.2631 3.1367L13.0879 5.31199C12.7718 5.10547 12.3947 4.98492 11.9898 4.98492C11.5702 4.98492 11.1802 5.1141 10.8573 5.33458L8.65963 3.13655C8.86611 2.82051 8.98659 2.44347 8.98659 2.03862C8.98659 0.928399 8.08337 0.025177 6.97315 0.025177C5.86293 0.025177 4.9597 0.928399 4.9597 2.03862C4.9597 2.44347 5.08022 2.8204 5.28663 3.13644L3.11126 5.31184C2.79526 5.1054 2.41826 4.98492 2.01344 4.98492C0.903222 4.98492 0 5.88818 0 6.9984C0 8.10862 0.903222 9.01184 2.01344 9.01184C3.12367 9.01184 4.02689 8.10862 4.02689 6.9984C4.02689 6.59347 3.90633 6.2164 3.69981 5.90033L5.87511 3.72503C6.19118 3.93155 6.56826 4.0521 6.97319 4.0521C7.37807 4.0521 7.75515 3.93155 8.07119 3.72503L10.281 5.93518C10.0882 6.24399 9.97637 6.60829 9.97637 6.99836C9.97637 8.10858 10.8796 9.01181 11.9898 9.01181C13.1 9.01181 14.0033 8.10858 14.0033 6.99836C14.0033 6.59351 13.8827 6.21655 13.6763 5.90055L15.8517 3.72514C16.1678 3.93158 16.5448 4.05207 16.9496 4.05207C18.0598 4.05207 18.963 3.14884 18.963 2.03862C18.963 0.928362 18.0597 0.025214 16.9495 0.025214ZM2.01344 8.17958C1.36211 8.17958 0.832222 7.6497 0.832222 6.9984C0.832222 6.34707 1.36211 5.81718 2.01344 5.81718C2.66474 5.81718 3.19467 6.34707 3.19467 6.9984C3.19467 7.6497 2.66478 8.17958 2.01344 8.17958ZM5.79196 2.03862C5.79196 2.68995 6.32189 3.21984 6.97319 3.21984C7.62452 3.21984 8.15441 2.68995 8.15441 2.03862C8.15441 1.38729 7.62452 0.857399 6.97319 0.857399C6.32185 0.857399 5.79196 1.38733 5.79196 2.03862ZM11.9898 8.17958C11.3385 8.17958 10.8086 7.6497 10.8086 6.99836C10.8086 6.34703 11.3384 5.81714 11.9898 5.81714C12.6411 5.81714 13.171 6.34703 13.171 6.99836C13.171 7.6497 12.6411 8.17958 11.9898 8.17958ZM15.7683 2.03862C15.7683 2.68995 16.2982 3.21984 16.9495 3.21984C17.6008 3.21984 18.1307 2.68995 18.1307 2.03862C18.1307 1.38729 17.6008 0.857399 16.9495 0.857399C16.2982 0.857399 15.7683 1.38733 15.7683 2.03862Z" fill="#DCCC00"/>
<path d="M6.54718 5.13767C6.38467 4.97519 6.12122 4.97519 5.9587 5.13767L5.11226 5.98411C4.94978 6.1466 4.94978 6.41008 5.1123 6.5726C5.19355 6.65385 5.30004 6.69448 5.40652 6.69448C5.513 6.69448 5.61952 6.65382 5.70074 6.5726L6.54718 5.72615C6.70974 5.56367 6.70974 5.30015 6.54718 5.13767Z" fill="#DCCC00"/>
<path d="M13.8504 2.47922C13.6879 2.31674 13.4245 2.31674 13.2619 2.47925L12.4155 3.3257C12.253 3.48818 12.253 3.75166 12.4155 3.91418C12.4968 3.9954 12.6033 4.03603 12.7097 4.03603C12.8163 4.03603 12.9227 3.99537 13.004 3.91414L13.8504 3.0677C14.0129 2.90518 14.0129 2.6417 13.8504 2.47922Z" fill="#DCCC00"/>
</svg>
