<svg width="19" height="19" viewBox="0 0 19 19" fill="none" xmlns="http://www.w3.org/2000/svg">
<path fill-rule="evenodd" clip-rule="evenodd" d="M18.6856 6.803L16.0299 5.62677V0.417999C16.0331 0.306923 15.99 0.19955 15.9108 0.120619C15.8316 0.0416878 15.7231 -0.00190094 15.6107 0.000118618H3.34582C3.23304 -0.00257413 3.12418 0.040678 3.04485 0.119777C2.96551 0.198877 2.92268 0.306755 2.92644 0.417999V5.62677L0.270941 6.803C0.111243 6.87082 0.00563038 7.02364 0 7.19513V17.2465C0 18.1987 0.795079 18.957 1.76026 18.957H17.2005C18.1658 18.957 18.9608 18.1987 18.9608 17.2465V7.19513C18.9515 7.02364 18.8451 6.87183 18.6856 6.803ZM18.0698 17.3586L12.2562 12.1841L18.0828 8.03947V17.2508C18.0805 17.287 18.0763 17.3229 18.0698 17.3586ZM16.0299 8.41427L17.6241 7.2813L16.0299 6.57041V8.41427ZM15.1563 0.861797V9.03899L9.98046 12.727C9.67966 12.9425 9.2724 12.9425 8.9716 12.727L3.8 9.03899V0.861797H15.1563ZM0.873563 17.2508C0.875781 17.2884 0.880217 17.3257 0.886701 17.3629L6.70033 12.1841L0.873563 8.03947V17.2508ZM2.92644 8.41427L1.33218 7.2813L2.92644 6.57041V8.41427ZM1.42841 18.0393C1.53454 18.0777 1.64714 18.0967 1.76026 18.0954V18.091H17.1962C17.3095 18.0949 17.4225 18.0758 17.5281 18.0349L11.5223 12.6969L10.5003 13.425C10.2035 13.6384 9.8455 13.7531 9.47816 13.7525C9.11133 13.751 8.75389 13.6365 8.45616 13.425L7.43416 12.6969L1.42841 18.0393Z" fill="black"/>
<path d="M5.5734 2.75755H8.14171C8.38296 2.75755 8.57849 2.56468 8.57849 2.32671C8.57849 2.08874 8.38296 1.89587 8.14171 1.89587H5.5734C5.33215 1.89587 5.13662 2.08874 5.13662 2.32671C5.13662 2.56468 5.33215 2.75755 5.5734 2.75755Z" fill="black"/>
<path d="M5.5734 4.48094H13.3831C13.6243 4.48094 13.8199 4.28807 13.8199 4.0501C13.8199 3.81213 13.6243 3.61926 13.3831 3.61926H5.5734C5.33215 3.61926 5.13662 3.81213 5.13662 4.0501C5.13662 4.28807 5.33215 4.48094 5.5734 4.48094Z" fill="black"/>
<path d="M5.5734 6.20421H13.3831C13.6243 6.20421 13.8199 6.01134 13.8199 5.77337C13.8199 5.5354 13.6243 5.34253 13.3831 5.34253H5.5734C5.33215 5.34253 5.13662 5.5354 5.13662 5.77337C5.13662 6.01134 5.33215 6.20421 5.5734 6.20421Z" fill="black"/>
<path d="M5.5734 7.9276H13.3831C13.6243 7.9276 13.8199 7.73473 13.8199 7.49676C13.8199 7.25879 13.6243 7.06592 13.3831 7.06592H5.5734C5.33215 7.06592 5.13662 7.25879 5.13662 7.49676C5.13662 7.73473 5.33215 7.9276 5.5734 7.9276Z" fill="black"/>
<path d="M5.5734 9.65098H13.3831C13.6243 9.65098 13.8199 9.45812 13.8199 9.22015C13.8199 8.98217 13.6243 8.78931 13.3831 8.78931H5.5734C5.33215 8.78931 5.13662 8.98217 5.13662 9.22015C5.13662 9.45812 5.33215 9.65098 5.5734 9.65098Z" fill="black"/>
</svg>
