<svg width="33" height="9" viewBox="0 0 33 9" fill="none" xmlns="http://www.w3.org/2000/svg">
<path fill-rule="evenodd" clip-rule="evenodd" d="M4.5 9C6.98528 9 9 6.98528 9 4.5C9 2.01472 6.98528 0 4.5 0C2.01472 0 0 2.01472 0 4.5C0 6.98528 2.01472 9 4.5 9Z" fill="#DBEDED"/>
<path fill-rule="evenodd" clip-rule="evenodd" d="M16.5 9C18.9853 9 21 6.98528 21 4.5C21 2.01472 18.9853 0 16.5 0C14.0147 0 12 2.01472 12 4.5C12 6.98528 14.0147 9 16.5 9Z" fill="#C0DBDB"/>
<path fill-rule="evenodd" clip-rule="evenodd" d="M28.5 9C30.9853 9 33 6.98528 33 4.5C33 2.01472 30.9853 0 28.5 0C26.0147 0 24 2.01472 24 4.5C24 6.98528 26.0147 9 28.5 9Z" fill="#B3CCCC"/>
</svg>
