<svg width="70" height="65" viewBox="0 0 70 65" fill="none" xmlns="http://www.w3.org/2000/svg">
<g id="126477" opacity="0.114621">
<path id="Shape" d="M56.9299 16.9155C56.1814 12.4633 53.979 8.40011 50.6107 5.31671C46.8682 1.8875 42.0029 0 36.936 0C33.0208 0 29.2063 1.12386 25.9387 3.2419C23.2182 4.99972 20.9583 7.37711 19.3605 10.1723C18.6695 10.0427 17.9498 9.97063 17.2301 9.97063C11.1125 9.97063 6.13202 14.9559 6.13202 21.0795C6.13202 21.872 6.21838 22.6356 6.36233 23.3849C2.40387 26.2666 0 30.9061 0 35.8482C0 39.8393 1.48262 43.7152 4.18877 46.7841C6.96689 49.9252 10.6375 51.7839 14.5527 52C14.5959 52 14.6247 52 14.6679 52H27.0471C28.1267 52 28.9903 51.1355 28.9903 50.0549C28.9903 48.9742 28.1267 48.1097 27.0471 48.1097H14.7255C8.83817 47.7495 3.88649 42.1446 3.88649 35.8337C3.88649 31.7562 6.07444 27.9523 9.60107 25.8919C10.4216 25.4165 10.767 24.4223 10.4503 23.529C10.1625 22.7509 10.0185 21.9296 10.0185 21.0507C10.0185 17.074 13.2572 13.8321 17.2301 13.8321C18.0794 13.8321 18.9143 13.9762 19.6915 14.2643C20.6416 14.6101 21.6924 14.1779 22.1242 13.2702C24.816 7.55001 30.6313 3.86146 36.9504 3.86146C45.4431 3.86146 52.4532 10.23 53.2593 18.6733C53.3457 19.5522 54.0078 20.2582 54.8715 20.4023C61.277 21.4974 66.1135 27.4192 66.1135 34.1768C66.1135 41.3378 60.4853 47.5622 53.5472 48.0953H42.9385C41.8589 48.0953 40.9953 48.9598 40.9953 50.0405C40.9953 51.1211 41.8589 51.9856 42.9385 51.9856H53.6192C53.6623 51.9856 53.7055 51.9856 53.7631 51.9856C58.1534 51.6686 62.2558 49.6514 65.3074 46.2799C68.3446 42.9371 70 38.6434 70 34.1768C69.9856 26.0937 64.4725 18.9039 56.9299 16.9155Z" fill="black"/>
<path id="Shape_2" d="M46.4387 37.7296C47.1871 36.9604 47.1871 35.7267 46.4387 34.9575L36.3416 24.5805C35.9885 24.2177 35.4943 24 35 24C34.5057 24 34.0115 24.2032 33.6584 24.5805L23.5613 34.9575C22.8129 35.7267 22.8129 36.9604 23.5613 37.7296C23.9285 38.1069 24.4228 38.3101 24.9029 38.3101C25.3831 38.3101 25.8773 38.1214 26.2445 37.7296L33.0936 30.6906V63.0407C33.0936 64.1292 33.9409 65 35 65C36.0591 65 36.9064 64.1292 36.9064 63.0407V30.6906L43.7555 37.7296C44.4898 38.4988 45.6902 38.4988 46.4387 37.7296Z" fill="black"/>
</g>
</svg>
