<svg width="26" height="26" viewBox="0 0 26 26" fill="none" xmlns="http://www.w3.org/2000/svg">
<path fill-rule="evenodd" clip-rule="evenodd" d="M10.2917 2.28873L13.2708 0L16.7014 2.65493H20.7639L21.3958 6.40845L25.0069 8.14789L24.1944 12.1761L26 15.7465L23.1111 18.493V22.4296L18.6875 23.2535L16.7014 26L13 24.2606L9.38889 26L6.86111 22.4296H2.97917V17.5775L0 14.831L2.16667 11.3521L1.17361 7.0493L5.23611 5.76761L5.95833 2.28873H10.2917Z" fill="#02CED1"/>
<path fill-rule="evenodd" clip-rule="evenodd" d="M8.43513 12.8914L7.02344 14.732L11.8635 18.72L18.7203 10.5396L17.0061 8.9035L11.4602 15.2433L8.43513 12.8914Z" fill="white"/>
</svg>
