<svg width="23" height="19" viewBox="0 0 23 19" fill="none" xmlns="http://www.w3.org/2000/svg">
<path fill-rule="evenodd" clip-rule="evenodd" d="M9 19V10.0691H4.85294C5.14706 7.6175 6.44116 5.13673 8.73529 2.62673L5.38235 0C3.44117 1.92628 2.05883 3.9109 1.23529 5.95392C0.411761 7.99694 0 10.2442 0 12.6959V19H9ZM23 19V10.0691H18.8529C19.1471 7.6175 20.4412 5.13673 22.7353 2.62673L19.3824 0C17.4412 1.92628 16.0588 3.9109 15.2353 5.95392C14.4118 7.99694 14 10.2442 14 12.6959V19H23Z" fill="#F7B500"/>
</svg>
