<svg width="19" height="19" viewBox="0 0 19 19" fill="none" xmlns="http://www.w3.org/2000/svg">
<path fill-rule="evenodd" clip-rule="evenodd" d="M14.8438 1.78125H17.4171C18.2917 1.78125 19 2.48959 19 3.36419V17.4165C19 18.2911 18.2917 19 17.4171 19H1.58353C0.708938 19 0 18.2911 0 17.4165V3.36419C0 2.48959 0.708938 1.78125 1.58353 1.78125H4.15625V0.59375C4.15625 0.265406 4.42225 0 4.75 0C5.07775 0 5.34375 0.265406 5.34375 0.59375V1.78125H8.90625V0.59375C8.90625 0.265406 9.17225 0 9.5 0C9.82775 0 10.0938 0.265406 10.0938 0.59375V1.78125H13.6562V0.59375C13.6562 0.265406 13.9217 0 14.25 0C14.5783 0 14.8438 0.265406 14.8438 0.59375V1.78125ZM17.4171 17.8125C17.635 17.8125 17.8125 17.635 17.8125 17.4165V3.36419C17.8125 3.14628 17.635 2.96875 17.4171 2.96875H14.8438V4.15625C14.8438 4.48459 14.5783 4.75 14.25 4.75C13.9217 4.75 13.6562 4.48459 13.6562 4.15625V2.96875H10.0938V4.15625C10.0938 4.48459 9.82775 4.75 9.5 4.75C9.17225 4.75 8.90625 4.48459 8.90625 4.15625V2.96875H5.34375V4.15625C5.34375 4.48459 5.07775 4.75 4.75 4.75C4.42225 4.75 4.15625 4.48459 4.15625 4.15625V2.96875H1.58353C1.36503 2.96875 1.1875 3.14628 1.1875 3.36419V17.4165C1.1875 17.635 1.36503 17.8125 1.58353 17.8125H17.4171Z" fill="#00CFD2"/>
<rect x="4.15625" y="7.125" width="2.375" height="1.78125" fill="#00CFD2"/>
<rect x="4.15625" y="10.0938" width="2.375" height="1.78125" fill="#00CFD2"/>
<rect x="4.15625" y="13.0625" width="2.375" height="1.78125" fill="#00CFD2"/>
<rect x="8.3125" y="13.0625" width="2.375" height="1.78125" fill="#00CFD2"/>
<rect x="8.3125" y="10.0938" width="2.375" height="1.78125" fill="#00CFD2"/>
<rect x="8.3125" y="7.125" width="2.375" height="1.78125" fill="#00CFD2"/>
<rect x="12.4688" y="13.0625" width="2.375" height="1.78125" fill="#00CFD2"/>
<rect x="12.4688" y="10.0938" width="2.375" height="1.78125" fill="#00CFD2"/>
<rect x="12.4688" y="7.125" width="2.375" height="1.78125" fill="#00CFD2"/>
</svg>
