<svg width="20" height="16" viewBox="0 0 20 16" fill="none" xmlns="http://www.w3.org/2000/svg">
<path fill-rule="evenodd" clip-rule="evenodd" d="M19.481 0.518164C19.1552 0.192892 18.7634 0.0302734 18.3059 0.0302734H1.66415C1.20652 0.0302734 0.814863 0.192855 0.48878 0.518164C0.162878 0.84351 0 1.23446 0 1.69129V14.3158C0 14.7727 0.162878 15.1637 0.48878 15.489C0.814863 15.8143 1.20652 15.977 1.66415 15.977H18.3059C18.7634 15.977 19.1551 15.8143 19.481 15.489C19.8069 15.1637 19.97 14.7727 19.97 14.3158V1.69129C19.97 1.23446 19.8069 0.84351 19.481 0.518164ZM18.6385 14.316C18.6385 14.4061 18.6056 14.4838 18.5397 14.5497C18.4739 14.6152 18.3959 14.648 18.3059 14.648H1.66415C1.57406 14.648 1.49603 14.6152 1.43016 14.5495C1.36434 14.4835 1.33137 14.4059 1.33137 14.3158V8.00362H18.6385V14.316H18.6385ZM1.33133 4.01675H18.6385V1.69115C18.6385 1.60118 18.6056 1.52347 18.5397 1.45758C18.4739 1.39187 18.3958 1.35911 18.3058 1.35911H1.66412C1.57406 1.35911 1.49603 1.39202 1.43013 1.45758C1.36419 1.52347 1.33133 1.60118 1.33133 1.69115V4.01675Z" fill="black"/>
<rect x="2.66284" y="11.9902" width="2.66262" height="1.32902" fill="black"/>
<rect x="6.65674" y="11.9902" width="3.99395" height="1.32902" fill="black"/>
</svg>
