<?xml version="1.0"?>
<svg xmlns="http://www.w3.org/2000/svg" xmlns:xlink="http://www.w3.org/1999/xlink" version="1.1" id="Capa_1" x="0px" y="0px" width="512px" height="512px" viewBox="0 0 512 512" style="enable-background:new 0 0 512 512;" xml:space="preserve" class=""><g><g>
	<g>
		<path d="M256,0C114.609,0,0,114.609,0,256c0,141.391,114.609,256,256,256c141.391,0,256-114.609,256-256    C512,114.609,397.391,0,256,0z M256,472c-119.297,0-216-96.703-216-216S136.703,40,256,40s216,96.703,216,216S375.297,472,256,472    z" data-original="#000000" class="active-path" data-old_color="#02ced1" fill="#02ced1"/>
		<rect x="144" y="192" width="160" height="192" data-original="#000000" class="active-path" data-old_color="#02ced1" fill="#02ced1"/>
		<g>
			<polygon points="368,128 208,128 208,176 320,176 320,320 368,320    " data-original="#000000" class="active-path" data-old_color="#02ced1" fill="#02ced1"/>
		</g>
	</g>
</g></g> </svg>
