<?xml version="1.0" encoding="UTF-8"?>
<svg width="" height="" viewBox="0 0 40 40" version="1.1" xmlns="http://www.w3.org/2000/svg" xmlns:xlink="http://www.w3.org/1999/xlink">
    <!-- Generator: Sketch 51.1 (57501) - http://www.bohemiancoding.com/sketch -->
    <title>Group 11</title>
    <desc>Created with Sketch.</desc>
    <defs></defs>
    <g id="manyleads" stroke="none" stroke-width="1" fill="none" fill-rule="evenodd">
        <g id="1_livepic" transform="translate(-702.000000, -304.000000)">
            <g id="Group-10" transform="translate(678.000000, 211.000000)">
                <g id="Group-11" transform="translate(24.000000, 93.000000)">
                    <circle id="Oval-4" fill="#E3F6D0" cx="20" cy="20" r="20"></circle>
                    <g id="149848" transform="translate(11.200000, 11.200000)" fill="#7BBE33" fill-rule="nonzero">
                        <path d="M12.4413571,0 C9.59682068,0 7.28271415,2.31409655 7.28271415,5.15862069 C7.28271415,6.12813793 7.55642567,7.03241379 8.02343458,7.80802759 L0.177745594,15.6536828 C-0.0592485312,15.8906759 -0.0592485312,16.2748414 0.177745594,16.5118345 C0.296394381,16.6304828 0.451457118,16.6896552 0.606823305,16.6896552 C0.762189492,16.6896552 0.91725223,16.6304828 1.03590102,16.5118345 L2.12407122,15.423669 L4.12259018,17.4221793 C4.24123897,17.5408276 4.39630171,17.6 4.5516679,17.6 C4.70703408,17.6 4.86209682,17.5408276 4.98074561,17.4221793 C5.21773973,17.1851862 5.21773973,16.8010207 4.98074561,16.5640276 L2.98222665,14.5655172 L3.64131914,13.9064276 L5.03293894,15.2980414 C5.15158772,15.4166897 5.30665046,15.4758621 5.46201665,15.4758621 C5.61738283,15.4758621 5.77244557,15.4166897 5.89109436,15.2980414 C6.12808848,15.0610483 6.12808848,14.6768828 5.89109436,14.4398897 L4.49947457,13.0482759 L5.15856706,12.3891862 L7.15708602,14.3876966 C7.27573481,14.5063448 7.43079755,14.5655172 7.58616373,14.5655172 C7.74152992,14.5655172 7.89659266,14.5063448 8.01524145,14.3876966 C8.25223557,14.1507034 8.25223557,13.7665379 8.01524145,13.5295448 L6.01672249,11.5310345 L8.77052746,8.77724138 C9.70666943,9.72673103 11.0057371,10.3172414 12.4413571,10.3172414 C15.2858935,10.3172414 17.6,8.00314483 17.6,5.15862069 C17.6,2.31409655 15.2858935,0 12.4413571,0 Z M12.4413571,9.10344828 C10.2662305,9.10344828 8.49651248,7.33373793 8.49651248,5.15862069 C8.49651248,2.98350345 10.2662305,1.2137931 12.4413571,1.2137931 C14.6164837,1.2137931 16.3862017,2.98350345 16.3862017,5.15862069 C16.3862017,7.33373793 14.6164837,9.10344828 12.4413571,9.10344828 Z" id="Shape"></path>
                    </g>
                </g>
            </g>
        </g>
    </g>
</svg>