<svg width="19" height="19" viewBox="0 0 19 19" fill="none" xmlns="http://www.w3.org/2000/svg">
<path fill-rule="evenodd" clip-rule="evenodd" d="M14.9295 14.1448C15.3481 13.8743 15.8357 13.7287 16.3459 13.7287C17.045 13.7287 17.7023 14.001 18.1967 14.4953C18.6911 14.9897 18.9634 15.647 18.9634 16.3462C18.9634 17.0454 18.6911 17.7027 18.1967 18.1971C17.7023 18.6915 17.045 18.9638 16.3459 18.9638C15.6467 18.9638 14.9894 18.6915 14.495 18.1971C14.0006 17.7027 13.7283 17.0454 13.7283 16.3463C13.7283 15.836 13.8739 15.3484 14.1444 14.9298L12.7102 13.4954C11.7923 14.2376 10.6574 14.641 9.46044 14.641C8.27378 14.641 7.14826 14.2444 6.23452 13.5146L4.81941 14.9298C5.08992 15.3484 5.23555 15.836 5.23555 16.3463C5.23555 17.0454 4.9633 17.7027 4.46889 18.1971C3.97452 18.6915 3.31722 18.9638 2.61804 18.9638C1.91885 18.9638 1.26152 18.6916 0.767147 18.1971C0.27274 17.7028 0.000480652 17.0455 0.000480652 16.3463C0.000480652 15.6471 0.27274 14.9898 0.767147 14.4954C1.26152 14.001 1.91885 13.7287 2.61804 13.7287C3.12822 13.7287 3.61578 13.8743 4.03437 14.1448L5.4447 12.7344C4.68989 11.8121 4.27941 10.6677 4.27941 9.46C4.27941 8.25437 4.68855 7.1117 5.44096 6.19026L4.0387 4.81626C3.61915 5.08852 3.12996 5.23507 2.618 5.23507C1.91881 5.23507 1.26148 4.96282 0.76711 4.46841C-0.253445 3.44785 -0.253445 1.78726 0.76711 0.766667C1.7877 -0.253889 3.44833 -0.253889 4.46889 0.766667C4.96326 1.26104 5.23555 1.91837 5.23555 2.61756C5.23555 3.12604 5.09089 3.612 4.82218 4.02963L6.22996 5.40904C7.14452 4.67682 8.27181 4.27893 9.46044 4.27893C10.6594 4.27893 11.796 4.68367 12.7147 5.42811L14.1417 4.02967C13.873 3.61204 13.7283 3.12604 13.7283 2.61756C13.7283 1.91837 14.0006 1.26104 14.495 0.766667C14.9893 0.272259 15.6467 0 16.3459 0C17.045 0 17.7023 0.272259 18.1967 0.76663C18.6911 1.261 18.9634 1.91833 18.9634 2.61752C18.9634 3.3167 18.6911 3.974 18.1967 4.46841C17.7023 4.96278 17.045 5.23507 16.3459 5.23507C15.8339 5.23507 15.3447 5.08856 14.9252 4.8163L13.499 6.21404C14.2391 7.13133 14.6415 8.26467 14.6415 9.46C14.6415 10.6573 14.2378 11.7924 13.4953 12.7105L14.9295 14.1448ZM16.3458 1.11093C15.9599 1.11093 15.5739 1.25785 15.28 1.5517C14.9953 1.83641 14.8385 2.21489 14.8385 2.61752C14.8385 3.02015 14.9953 3.39867 15.28 3.68333C15.5647 3.96807 15.9432 4.12485 16.3459 4.12485C16.7484 4.12485 17.127 3.96807 17.4117 3.68337C17.6964 3.3987 17.8531 3.02019 17.8531 2.61756C17.8531 2.21493 17.6964 1.83641 17.4117 1.5517C17.1178 1.25785 16.7318 1.11093 16.3458 1.11093ZM3.68381 3.68337C3.39915 3.96807 3.02063 4.12485 2.618 4.12485C2.21537 4.12485 1.83685 3.96807 1.55215 3.68337C0.964444 3.09567 0.964444 2.13941 1.55215 1.5517C1.84604 1.25781 2.23196 1.11093 2.618 1.11093C3.00393 1.11093 3.39 1.25789 3.68381 1.5517C3.96852 1.83641 4.1253 2.21493 4.1253 2.61756C4.1253 3.02019 3.96852 3.39867 3.68381 3.68337ZM9.46044 5.38915C8.37307 5.38915 7.35081 5.81259 6.58192 6.58148C5.81304 7.35037 5.38959 8.37263 5.3897 9.46C5.3897 10.3342 5.66359 11.1662 6.17048 11.8584C6.46674 11.142 7.03363 10.5651 7.74318 10.2555C7.47759 9.89941 7.32015 9.45811 7.32015 8.98074C7.32015 7.80259 8.27863 6.84411 9.45678 6.84411C10.6349 6.84411 11.5934 7.80259 11.5934 8.98074C11.5934 9.457 11.4366 9.8973 11.1722 10.253C11.8844 10.5619 12.4535 11.14 12.7505 11.8584C13.2574 11.1662 13.5313 10.3342 13.5313 9.46C13.5313 8.37263 13.1079 7.35037 12.339 6.58148C11.5701 5.81259 10.5478 5.38915 9.46044 5.38915ZM8.43029 8.98074C8.43029 8.41478 8.89074 7.95433 9.4567 7.95433C10.0227 7.95433 10.4831 8.41478 10.4831 8.98074C10.4831 9.5467 10.0227 10.0072 9.4567 10.0072C8.89074 10.0072 8.43029 9.5467 8.43029 8.98074ZM2.618 17.8536C3.02059 17.8536 3.39911 17.6968 3.68381 17.4121C3.96852 17.1274 4.1253 16.7489 4.1253 16.3463C4.1253 15.9437 3.96852 15.5652 3.68381 15.2805C3.39915 14.9958 3.02063 14.839 2.618 14.839C2.21537 14.839 1.83685 14.9958 1.55215 15.2805C0.964444 15.8682 0.964444 16.8244 1.55215 17.4121C1.83685 17.6969 2.21541 17.8536 2.618 17.8536ZM7.07074 12.7564C7.18937 11.8333 7.97963 11.1174 8.93452 11.1174H9.98641C10.9413 11.1174 11.7316 11.8333 11.8502 12.7564C11.1597 13.2592 10.331 13.5309 9.46048 13.5309C8.58996 13.5309 7.76122 13.2592 7.07074 12.7564ZM16.3459 17.8536C16.7485 17.8536 17.127 17.6968 17.4117 17.4121C17.6964 17.1274 17.8532 16.7489 17.8532 16.3463C17.8532 15.9437 17.6964 15.5651 17.4117 15.2805C17.127 14.9957 16.7485 14.839 16.3459 14.839C15.9433 14.839 15.5647 14.9957 15.2801 15.2804C14.9953 15.5651 14.8386 15.9437 14.8386 16.3463C14.8386 16.7489 14.9953 17.1274 15.28 17.4121C15.5647 17.6969 15.9433 17.8536 16.3459 17.8536Z" fill="#fff"/>
</svg>
