<svg width="21" height="24" viewBox="0 0 21 24" fill="none" xmlns="http://www.w3.org/2000/svg">
<path fill-rule="evenodd" clip-rule="evenodd" d="M15.725 5.62819V9.9998C18.7065 10.6209 20.9956 13.2881 20.9907 16.4801C20.9907 20.1343 18.014 23.1 14.3688 23.1C11.9693 23.1 9.86294 21.8098 8.70411 19.884H2.57747C1.14456 19.884 0 18.7333 0 17.2986V2.60464C0 1.16987 1.14456 0 2.57747 0H10.3391C10.4688 0 10.5988 0.0530479 10.6901 0.149274L15.5856 5.29598C15.6673 5.38745 15.725 5.50306 15.725 5.62819ZM14.1044 5.15147L10.82 1.68996V3.99129C10.82 4.6268 11.3393 5.15147 11.9741 5.15147H14.1044ZM2.57747 18.921C1.6783 18.921 0.961843 18.1988 0.961843 17.2986V2.60464C0.961843 1.69947 1.6783 0.96297 2.57747 0.96297H9.85818V3.99129C9.85818 5.16116 10.8056 6.11444 11.9741 6.11444H14.7632V9.8745C14.7004 9.87242 14.643 9.86851 14.588 9.86476C14.5166 9.85989 14.4491 9.85529 14.3785 9.85529C12.7002 9.85529 11.1566 10.5005 9.99285 11.5116H3.88557C3.62099 11.5116 3.40465 11.7282 3.40465 11.9929C3.40465 12.2578 3.62099 12.4744 3.88557 12.4744H9.09843C8.75692 12.9559 8.47316 13.4373 8.25206 13.9669H3.88557C3.62099 13.9669 3.40465 14.1835 3.40465 14.4484C3.40465 14.7131 3.62099 14.9299 3.88557 14.9299H7.93943C7.8192 15.4114 7.75671 15.9458 7.75671 16.4801C7.75671 17.3467 7.92499 18.2037 8.22795 18.926H2.57747V18.921ZM8.7233 16.4849C8.7233 19.6047 11.2576 22.142 14.3738 22.142C17.4899 22.142 20.0241 19.6047 20.0241 16.4849C20.0241 13.3651 17.4947 10.8278 14.3738 10.8278C11.2527 10.8278 8.7233 13.3651 8.7233 16.4849Z" fill="white"/>
<path d="M3.88558 10.0626H8.75694C9.02152 10.0626 9.23786 9.84581 9.23786 9.58109C9.23786 9.31621 9.02152 9.09961 8.75694 9.09961H3.88558C3.62101 9.09961 3.40466 9.31621 3.40466 9.58109C3.40466 9.84581 3.62101 10.0626 3.88558 10.0626Z" fill="white"/>
<path d="M16.9993 15.5172C16.8118 15.3295 16.5089 15.3295 16.3212 15.5172C16.1337 15.7051 16.1337 16.0082 16.3212 16.1961L16.9609 16.8364C17.5765 17.4527 17.5765 18.4685 16.9609 19.0944C16.3453 19.7156 15.3307 19.7107 14.7056 19.0944L14.0659 18.4541C13.8784 18.2664 13.5754 18.2664 13.3878 18.4541C13.2003 18.642 13.2003 18.9453 13.3878 19.133L14.0323 19.7782C14.5324 20.2739 15.1863 20.5196 15.8405 20.5196C16.4944 20.5196 17.1484 20.2692 17.6485 19.7732C18.6392 18.7718 18.6345 17.1446 17.6485 16.1528L16.9993 15.5172Z" fill="white"/>
<path d="M14.0275 13.8996L14.6671 14.5401C14.8547 14.7278 15.1575 14.7278 15.3451 14.5401C15.5326 14.3522 15.5326 14.0489 15.3451 13.8612L14.7007 13.216C13.7005 12.2243 12.0752 12.2291 11.0844 13.2208C10.0939 14.2222 10.0987 15.8495 11.0844 16.8414L11.724 17.4817C11.8203 17.5779 11.9405 17.6213 12.0655 17.6213C12.1906 17.6213 12.3107 17.5732 12.407 17.4817C12.5945 17.2938 12.5945 16.9905 12.407 16.8028L11.7673 16.1625C11.1469 15.5462 11.1519 14.5304 11.7673 13.9044C12.3876 13.2833 13.3975 13.2833 14.0275 13.8996Z" fill="white"/>
<path d="M15.1913 17.8089C15.3163 17.8089 15.4365 17.7606 15.5326 17.6691C15.7203 17.4814 15.7203 17.1781 15.5326 16.9902L13.8784 15.3341C13.691 15.1464 13.388 15.1464 13.2004 15.3341C13.0129 15.522 13.0129 15.8251 13.2004 16.013L14.8547 17.6691C14.9459 17.7606 15.0711 17.8089 15.1913 17.8089Z" fill="white"/>
</svg>
