<svg width="22" height="18" viewBox="0 0 22 18" fill="none" xmlns="http://www.w3.org/2000/svg">
<path fill-rule="evenodd" clip-rule="evenodd" d="M9.27711 8.81325V17.9578H0V11.9277C0 9.63051 0.397586 7.54318 1.19277 5.66566C1.98796 3.78814 3.33533 1.89961 5.23494 0L8.61446 2.6506C7.55421 3.7992 6.73695 4.85943 6.16265 5.83133C5.58835 6.80322 5.21285 7.79718 5.03614 8.81325H9.27711ZM22 8.81325V17.9578H12.7229V11.9277C12.7229 9.63051 13.1205 7.54318 13.9157 5.66566C14.7108 3.78814 16.0582 1.89961 17.9578 0L21.3373 2.6506C20.2771 3.7992 19.4598 4.85943 18.8855 5.83133C18.3112 6.80322 17.9357 7.79718 17.759 8.81325H22Z" fill="white"/>
</svg>
