<svg width="17" height="13" viewBox="0 0 17 13" fill="none" xmlns="http://www.w3.org/2000/svg">
<path d="M11.5753 0.921448C11.3553 0.692851 10.9891 0.692851 10.7614 0.921448C10.5414 1.14232 10.5414 1.50993 10.7614 1.73029L14.8884 5.87336H1.26986C0.952401 5.87387 0.700073 6.12718 0.700073 6.44588C0.700073 6.76458 0.952401 7.02613 1.26986 7.02613H14.8884L10.7614 11.1615C10.5414 11.3901 10.5414 11.7582 10.7614 11.9786C10.9891 12.2071 11.3558 12.2071 11.5753 11.9786L16.6793 6.85468C16.907 6.6338 16.907 6.2662 16.6793 6.04584L11.5753 0.921448Z" fill="black"/>
</svg>
