<svg width="16" height="16" viewBox="0 0 16 16" fill="none" xmlns="http://www.w3.org/2000/svg">
<path fill-rule="evenodd" clip-rule="evenodd" d="M8 16C12.4183 16 16 12.4183 16 8C16 3.58172 12.4183 0 8 0C3.58172 0 0 3.58172 0 8C0 12.4183 3.58172 16 8 16Z" fill="#F8CF1C"/>
<path d="M4.30187 8.625H3.03875H3V11.75L3.92563 10.8994C4.8325 12.1706 6.31938 13 8 13C10.55 13 12.6538 11.0912 12.9613 8.625H11.6981C11.4006 10.3987 9.85812 11.75 8 11.75C6.68375 11.75 5.525 11.0712 4.85625 10.0444L6.40062 8.625H4.30187Z" fill="white"/>
<path d="M8.00001 3C5.45001 3 3.34626 4.90875 3.03876 7.375H4.30188C4.59938 5.60125 6.14188 4.25 8.00001 4.25C9.35563 4.25 10.5438 4.96937 11.2025 6.0475L9.87501 7.375H11.125H11.6981H12.9613H13V4.25L12.105 5.145C11.2019 3.84812 9.70001 3 8.00001 3Z" fill="white"/>
</svg>
