<svg width="18" height="14" viewBox="0 0 18 14" fill="none" xmlns="http://www.w3.org/2000/svg">
<rect x="1.6" y="1.6" width="14.8" height="11.6" stroke="white" stroke-width="1.2"/>
<path d="M1.4 6.2H16.6" stroke="white" stroke-width="1.2" stroke-linecap="square"/>
<path d="M6.2 1.4V5.4" stroke="white" stroke-width="1.2" stroke-linecap="square"/>
<path d="M11.8 1.4V5.4" stroke="white" stroke-width="1.2" stroke-linecap="square"/>
</svg>
