<svg width="22" height="22" viewBox="0 0 22 22" fill="none" xmlns="http://www.w3.org/2000/svg">
<path fill-rule="evenodd" clip-rule="evenodd" d="M2.24622 11.0152C2.24622 6.20156 6.17069 2.28589 10.9956 2.28589C15.8204 2.28589 19.7451 6.20156 19.7451 11.0152C19.7451 15.8289 15.8204 19.7446 10.9956 19.7446C6.17069 19.7446 2.24622 15.8289 2.24622 11.0152ZM18.7184 11.5198H17.1152C16.8345 11.5198 16.6069 11.2928 16.6069 11.0127C16.6069 10.7326 16.8345 10.5055 17.1152 10.5055H18.7184C18.6059 8.81044 17.9358 7.1999 16.8117 5.92404L15.6839 7.04911C15.5877 7.14254 15.4589 7.19497 15.3247 7.19556C15.1902 7.19734 15.0606 7.14451 14.9658 7.04911C14.8709 6.9549 14.8178 6.82698 14.8178 6.69354C14.8178 6.5599 14.8709 6.43198 14.9658 6.33776L16.0934 5.21249C14.8164 4.08801 13.201 3.41904 11.5014 3.31024V4.90974C11.5014 5.18845 11.2748 5.41433 10.9956 5.41433C10.7163 5.41433 10.4899 5.18845 10.4899 4.90974V3.31024C8.7909 3.4222 7.17646 4.09097 5.89767 5.21249L7.02553 6.34269C7.12016 6.4371 7.1733 6.56502 7.1733 6.69846C7.1733 6.8319 7.12016 6.96002 7.02553 7.05424C6.92932 7.14767 6.80051 7.20009 6.66637 7.20049C6.53163 7.20246 6.40223 7.14964 6.30721 7.05424L5.17955 5.92897C4.05248 7.20325 3.38178 8.81477 3.27272 10.5107H4.8761C5.15525 10.5107 5.38185 10.7365 5.38185 11.0152C5.38185 11.294 5.15525 11.5198 4.8761 11.5198H3.27272C3.38513 13.2149 4.05525 14.8255 5.17955 16.1015L6.31748 14.9814C6.51425 14.7849 6.8335 14.7849 7.03047 14.9814C7.22743 15.1777 7.22743 15.4962 7.03047 15.6927L5.90261 16.818C7.17982 17.9425 8.79505 18.6115 10.4948 18.7203V17.1208C10.4948 16.842 10.7212 16.6162 11.0006 16.6162C11.2799 16.6162 11.5063 16.842 11.5063 17.1208V18.7153C13.2053 18.6032 14.8198 17.9346 16.0985 16.8129L14.9707 15.6878C14.7737 15.4913 14.7737 15.1728 14.9707 14.9763C15.1677 14.7797 15.4869 14.7797 15.6839 14.9763L16.8117 16.1015C17.9386 14.8272 18.6093 13.2157 18.7184 11.5198Z" fill="white"/>
<path d="M11.5014 10.7325V7.43257C11.5014 7.15386 11.2748 6.92798 10.9956 6.92798C10.7163 6.92798 10.4899 7.15386 10.4899 7.43257V10.9142C10.4889 11.0323 10.5302 11.1466 10.606 11.2371L13.2359 14.3655C13.3317 14.4814 13.4748 14.5482 13.6255 14.5472C13.7435 14.5465 13.8576 14.5055 13.9491 14.4311C14.0518 14.345 14.1161 14.2214 14.1275 14.088C14.1388 13.9546 14.0965 13.8221 14.0098 13.7198L11.5014 10.7325Z" fill="white"/>
<path fill-rule="evenodd" clip-rule="evenodd" d="M0.84715 6.81658C2.54733 2.72134 6.55261 0.0511665 10.9957 0.0505752C13.9106 0.0428881 16.7077 1.19831 18.7638 3.25983C23.0542 7.54034 23.0542 14.4802 18.7638 18.7607C14.4735 23.0412 7.51768 23.0412 3.22732 18.7607C0.0861585 15.6258 -0.853227 10.912 0.84715 6.81658ZM1.01725 11.0153C1.01725 16.5052 5.49311 20.9708 10.9957 20.9708C16.498 20.9708 20.9739 16.5052 20.9739 11.0153C20.9739 5.52535 16.498 1.05975 10.9957 1.05975C5.49311 1.05975 1.01725 5.52535 1.01725 11.0153Z" fill="white"/>
</svg>
