<?xml version="1.0" encoding="UTF-8"?>
<svg width="25px" height="25px" viewBox="0 0 25 25" version="1.1" xmlns="http://www.w3.org/2000/svg" xmlns:xlink="http://www.w3.org/1999/xlink">
    <!-- Generator: Sketch 54.1 (76490) - https://sketchapp.com -->
    <title>Group 20</title>
    <desc>Created with Sketch.</desc>
    <defs>
        <linearGradient x1="50%" y1="0%" x2="50%" y2="100%" id="linearGradient-1">
            <stop stop-color="#F7EF6B" offset="0%"></stop>
            <stop stop-color="#E09900" offset="100%"></stop>
        </linearGradient>
        <linearGradient x1="50%" y1="0%" x2="50%" y2="100%" id="linearGradient-2">
            <stop stop-color="#F7EF6B" offset="0%"></stop>
            <stop stop-color="#E09900" offset="100%"></stop>
        </linearGradient>
    </defs>
    <g id="dashboard" stroke="none" stroke-width="1" fill="none" fill-rule="evenodd">
        <g id="1_dashboard" transform="translate(-175.000000, -146.000000)">
            <g id="Group-20" transform="translate(175.000000, 146.000000)">
                <path d="M17.1030242,4.57617857 C17.8594526,5.88120897 18.3037442,7.39150981 18.3319372,9.00668627 L16.6655244,9.03577362 C16.6439892,7.80202125 16.3257232,6.64305841 15.7799413,5.62572498 C16.3008319,5.38545516 16.7540187,5.02344713 17.1030242,4.57617857 Z M11.4015089,0.274246471 C11.0711667,0.725735533 10.8442726,1.25768858 10.7557191,1.83521336 C10.2022207,1.71574551 9.62637467,1.65749997 9.03577362,1.66780895 C4.89426886,1.74009919 1.59551872,5.15605496 1.66780895,9.29755971 C1.74009919,13.4390645 5.15605496,16.7378146 9.29755971,16.6655244 C9.37683625,16.6641406 9.4559323,16.6615323 9.53483093,16.6577051 L9.61558418,18.3224143 C9.51947439,18.3270764 9.4231543,18.3302527 9.32664706,18.3319372 C4.26480791,18.4202919 0.0897508587,14.3884862 0.00139612773,9.32664706 C-0.0869586032,4.26480791 3.94484713,0.0897508587 9.00668627,0.00139612773 C9.83325059,-0.0130316061 10.6361691,0.0824034833 11.4015089,0.274246471 Z M18.3008055,9.94586028 L16.6400156,9.80602183 C16.6610929,9.5556979 16.6697296,9.30331698 16.6657511,9.04946278 L18.3322131,9.02334582 C18.3370598,9.33260168 18.3265278,9.64036968 18.3008055,9.94586028 Z" id="Combined-Shape" fill="url(#linearGradient-1)" fill-rule="nonzero"></path>
                <circle id="Oval" fill="#FFFFFF" cx="14.2857143" cy="2.38095238" r="2.38095238"></circle>
                <circle id="Oval" fill="url(#linearGradient-2)" fill-rule="nonzero" cx="9.16666667" cy="9.16666667" r="3.57142857"></circle>
                <polygon id="Path-27" fill="#FFFFFF" points="15.6460961 24.1885417 9.16666667 9.16666667 24.1885889 15.23422 16.9631708 16.6776042"></polygon>
            </g>
        </g>
    </g>
</svg>