<?xml version="1.0" encoding="UTF-8"?>
<svg width="24px" height="20px" viewBox="0 0 24 20" version="1.1" xmlns="http://www.w3.org/2000/svg" xmlns:xlink="http://www.w3.org/1999/xlink">
    <!-- Generator: Sketch 54.1 (76490) - https://sketchapp.com -->
    <title>Group 22</title>
    <desc>Created with Sketch.</desc>
    <defs>
        <linearGradient x1="50%" y1="0%" x2="50%" y2="100%" id="linearGradient-1">
            <stop stop-color="#F7EF6B" offset="0%"></stop>
            <stop stop-color="#E09900" offset="100%"></stop>
        </linearGradient>
    </defs>
    <g id="dashboard" stroke="none" stroke-width="1" fill="none" fill-rule="evenodd">
        <g id="1_dashboard" transform="translate(-176.000000, -200.000000)">
            <g id="Group-22" transform="translate(176.000000, 200.000000)">
                <path d="M3.18,1.76325371 C1.4237345,1.76325371 0,3.1869882 0,4.94325371 L0,16.38 C0,18.1362655 1.4237345,19.56 3.18,19.56 L19.98,19.56 C21.7362655,19.56 23.16,18.1362655 23.16,16.38 L23.16,4.94325371 C23.16,3.1869882 21.7362655,1.76325371 19.98,1.76325371 L16.5188064,1.76325371 L15.0120143,0 L8.26101711,0 L6.69864028,1.76325371 L3.18,1.76325371 Z M14.2931021,1.56 L15.7998942,3.32325371 L19.98,3.32325371 C20.8747013,3.32325371 21.6,4.04855241 21.6,4.94325371 L21.6,16.38 C21.6,17.2747013 20.8747013,18 19.98,18 L3.18,18 C2.28529871,18 1.56,17.2747013 1.56,16.38 L1.56,4.94325371 C1.56,4.04855241 2.28529871,3.32325371 3.18,3.32325371 L7.40065872,3.32325371 L8.96303554,1.56 L14.2931021,1.56 Z" id="Path-29" fill="url(#linearGradient-1)" fill-rule="nonzero"></path>
                <circle id="Oval" fill="#FFFFFF" cx="19.2" cy="6" r="1.2"></circle>
                <path d="M11.58,16.38 C8.2662915,16.38 5.58,13.6937085 5.58,10.38 C5.58,7.0662915 8.2662915,4.38 11.58,4.38 C14.8937085,4.38 17.58,7.0662915 17.58,10.38 C17.58,13.6937085 14.8937085,16.38 11.58,16.38 Z M7.02963358,10.7256831 C7.1266167,11.4968981 7.46250948,12.202756 7.96634864,12.7822565 C8.1721421,13.0218996 8.54588194,13.0720068 8.8131769,12.8911852 C9.09466451,12.7016493 9.14670423,12.335649 8.92908356,12.085113 C8.52222752,11.6145411 8.26439434,11.032862 8.22891271,10.4010756 C8.20289284,9.94139661 8.29514508,9.50350332 8.47728412,9.10700294 C8.95746886,8.05693048 10.0739575,7.3140369 11.382047,7.29442973 L11.382047,8.39025223 C11.382047,8.45125229 11.462472,8.4839309 11.5192426,8.44689515 L13.9698406,6.7868221 C14.0100531,6.76067921 14.0100531,6.7040363 13.9698406,6.67571484 L11.5168772,5.01564179 C11.462472,4.97860604 11.3796815,5.01128464 11.3796815,5.0722847 L11.3796815,6.17028578 C9.39034476,6.19207151 7.71324634,7.42732272 7.17865643,9.10700294 C7.01780637,9.612432 6.95867031,10.159254 7.02963358,10.7256831 Z M14.0757444,8.91488701 C14.4851646,9.38328032 14.7431229,9.96713804 14.7762552,10.5989244 C14.8022877,11.060782 14.707624,11.4986752 14.5277632,11.8929971 C14.0473454,12.9430695 12.9303148,13.6881417 11.6215904,13.7055703 L11.6215904,12.6097478 C11.6215904,12.5487477 11.5387597,12.5160691 11.4843281,12.5531049 L9.03017403,14.2131779 C8.98994199,14.2414994 8.98994199,14.2981423 9.03017403,14.3242852 L11.4819615,15.9843582 C11.5387597,16.021394 11.6192238,15.9887154 11.6192238,15.9277153 L11.6192238,14.8297142 C13.6095262,14.8101071 15.2898052,13.5748559 15.8222881,11.8929971 C15.9832162,11.387568 16.0400144,10.840746 15.9713832,10.2743169 C15.8767196,9.50310187 15.5406638,8.79724404 15.0365801,8.21774347 C14.8283202,7.97810038 14.4567655,7.92799319 14.1893408,8.10881479 C13.9100831,8.29835069 13.8580181,8.66435105 14.0757444,8.91488701 Z" id="Combined-Shape" fill="#FFFFFF"></path>
            </g>
        </g>
    </g>
</svg>